TARGET_CLASS,criterion,BranchCoverage,Coverage,Covered_Goals,Total_Goals
koala.dynamicjava.classfile.AbstractMethodIdentifier,BRANCH,1.0,1.0,12,12
koala.dynamicjava.classfile.AttributeInfo,BRANCH,1.0,1.0,1,1
koala.dynamicjava.classfile.AttributeOwnerComponent,BRANCH,1.0,1.0,3,3
koala.dynamicjava.classfile.BytecodeComponent,BRANCH,1.0,1.0,3,3
koala.dynamicjava.classfile.ClassFile,BRANCH,1.0,1.0,19,19
koala.dynamicjava.classfile.ClassIdentifier,BRANCH,1.0,1.0,7,7
koala.dynamicjava.classfile.CodeAttribute,BRANCH,0.9090909090909091,0.9090909090909091,10,11
koala.dynamicjava.classfile.ConstantPool,BRANCH,1.0,1.0,64,64
koala.dynamicjava.classfile.ConstantString,BRANCH,1.0,1.0,7,7
koala.dynamicjava.classfile.ConstantValueAttribute,BRANCH,1.0,1.0,6,6
koala.dynamicjava.classfile.ExceptionsAttribute,BRANCH,1.0,1.0,4,4
koala.dynamicjava.classfile.FieldIdentifier,BRANCH,1.0,1.0,1,1
koala.dynamicjava.classfile.FieldInfo,BRANCH,1.0,1.0,15,15
koala.dynamicjava.classfile.InnerClassesAttribute,BRANCH,1.0,1.0,4,4
koala.dynamicjava.classfile.InnerClassesEntry,BRANCH,1.0,1.0,6,6
koala.dynamicjava.classfile.InterfaceMethodIdentifier,BRANCH,1.0,1.0,1,1
koala.dynamicjava.classfile.JVMUtilities,BRANCH,0.875,0.875,21,24
koala.dynamicjava.classfile.MemberIdentifier,BRANCH,1.0,1.0,15,15
koala.dynamicjava.classfile.MethodIdentifier,BRANCH,1.0,1.0,1,1
koala.dynamicjava.classfile.MethodInfo,BRANCH,1.0,1.0,20,20
koala.dynamicjava.classfile.SimpleAttribute,BRANCH,1.0,1.0,2,2
koala.dynamicjava.classinfo.ClassInfoUtilities,BRANCH,0.39655172413793105,0.39655172413793105,69,174
koala.dynamicjava.classinfo.JavaClassInfo,BRANCH,0.9696969696969697,0.9696969696969697,32,33
koala.dynamicjava.classinfo.JavaConstructorInfo,BRANCH,0.6,0.6,6,10
koala.dynamicjava.classinfo.JavaFieldInfo,BRANCH,1.0,1.0,8,8
koala.dynamicjava.classinfo.JavaMethodInfo,BRANCH,0.625,0.625,10,16
koala.dynamicjava.classinfo.TreeClassInfo,BRANCH,0.7064220183486238,0.7155963302752294,77,109
koala.dynamicjava.classinfo.TreeConstructorInfo,BRANCH,1.0,1.0,17,17
koala.dynamicjava.classinfo.TreeFieldInfo,BRANCH,1.0,1.0,10,10
koala.dynamicjava.classinfo.TreeMethodInfo,BRANCH,1.0,1.0,19,19
koala.dynamicjava.classinfo.TypeVisitor,BRANCH,1.0,1.0,6,6
koala.dynamicjava.gui.Editor,BRANCH,0.16,0.16,8,50
koala.dynamicjava.gui.JTextComponentOutputStream,BRANCH,1.0,1.0,3,3
koala.dynamicjava.gui.Main,BRANCH,0.008,0.008,1,125
koala.dynamicjava.gui.OptionsDialog,BRANCH,0.047058823529411764,0.047058823529411764,4,85
koala.dynamicjava.gui.resource.ButtonFactory,BRANCH,0.5714285714285714,0.5714285714285714,8,14
koala.dynamicjava.gui.resource.MenuFactory,BRANCH,0.5546875,0.5546875,71,128
koala.dynamicjava.gui.resource.MissingListenerException,BRANCH,1.0,1.0,4,4
koala.dynamicjava.gui.resource.ResourceFormatException,BRANCH,1.0,1.0,4,4
koala.dynamicjava.gui.resource.ResourceManager,BRANCH,0.7272727272727273,0.7272727272727273,8,11
koala.dynamicjava.gui.resource.ToolBarFactory,BRANCH,0.5,0.5,3,6
koala.dynamicjava.gui.StatusBar,BRANCH,1.0,1.0,8,8
koala.dynamicjava.gui.StringList,BRANCH,0.7619047619047619,0.7619047619047619,32,42
koala.dynamicjava.gui.URLChooser,BRANCH,0.12,0.12,3,25
koala.dynamicjava.interpreter.ClassFactory,BRANCH,0.9927797833935018,0.9927797833935018,275,277
koala.dynamicjava.interpreter.ClassInfoCompiler,BRANCH,0.5266393442622951,0.5266393442622951,257,488
koala.dynamicjava.interpreter.ClassPool,BRANCH,1.0,1.0,14,14
koala.dynamicjava.interpreter.context.GlobalContext,BRANCH,0.37349397590361444,0.4457831325301205,62,166
koala.dynamicjava.interpreter.context.MethodContext,BRANCH,0.39436619718309857,0.43661971830985913,28,71
koala.dynamicjava.interpreter.context.MethodModificationError,BRANCH,1.0,1.0,3,3
koala.dynamicjava.interpreter.context.NoSuchFunctionException,BRANCH,1.0,1.0,2,2
koala.dynamicjava.interpreter.context.StaticContext,BRANCH,0.5,0.5,37,74
koala.dynamicjava.interpreter.context.VariableContext,BRANCH,1.0,1.0,94,94
koala.dynamicjava.interpreter.error.CatchedExceptionError,BRANCH,1.0,1.0,3,3
koala.dynamicjava.interpreter.error.ExecutionError,BRANCH,0.7142857142857143,0.7142857142857143,15,21
koala.dynamicjava.interpreter.EvaluationVisitor,BRANCH,0.42356687898089174,0.42356687898089174,133,314
koala.dynamicjava.interpreter.InterpreterException,BRANCH,0.9411764705882353,0.9411764705882353,16,17
koala.dynamicjava.interpreter.InterpreterUtilities,BRANCH,0.943952802359882,0.943952802359882,320,339
koala.dynamicjava.interpreter.Main,BRANCH,0.9166666666666666,0.9166666666666666,55,60
koala.dynamicjava.interpreter.modifier.ArrayModifier,BRANCH,0.3333333333333333,0.3333333333333333,3,9
koala.dynamicjava.interpreter.modifier.FinalVariableModifier,BRANCH,0.7777777777777778,0.7777777777777778,7,9
koala.dynamicjava.interpreter.modifier.InvalidModifier,BRANCH,1.0,1.0,3,3
koala.dynamicjava.interpreter.modifier.LeftHandSideModifier,BRANCH,1.0,1.0,1,1
koala.dynamicjava.interpreter.modifier.ObjectFieldModifier,BRANCH,0.3333333333333333,0.3333333333333333,2,6
koala.dynamicjava.interpreter.modifier.StaticFieldModifier,BRANCH,1.0,1.0,3,3
koala.dynamicjava.interpreter.modifier.SuperFieldModifier,BRANCH,1.0,1.0,3,3
koala.dynamicjava.interpreter.modifier.VariableModifier,BRANCH,0.875,0.875,7,8
koala.dynamicjava.interpreter.NameVisitor,BRANCH,0.8209606986899564,0.8209606986899564,188,229
koala.dynamicjava.interpreter.NodeProperties,BRANCH,1.0,1.0,5,5
koala.dynamicjava.interpreter.throwable.BreakException,BRANCH,1.0,1.0,5,5
koala.dynamicjava.interpreter.throwable.ContinueException,BRANCH,1.0,1.0,5,5
koala.dynamicjava.interpreter.throwable.ReturnException,BRANCH,1.0,1.0,4,4
koala.dynamicjava.interpreter.throwable.ThrownException,BRANCH,1.0,1.0,3,3
koala.dynamicjava.interpreter.TreeClassFinder,BRANCH,0.8666666666666667,0.8666666666666667,13,15
koala.dynamicjava.interpreter.TreeClassLoader,BRANCH,0.8823529411764706,1.0,15,17
koala.dynamicjava.interpreter.TreeCompiler,BRANCH,0.6666666666666666,0.6666666666666666,34,51
koala.dynamicjava.interpreter.TreeInterpreter,BRANCH,0.7941176470588235,0.7941176470588235,108,136
koala.dynamicjava.interpreter.TypeChecker,BRANCH,0.536928487690504,0.536928487690504,458,853
koala.dynamicjava.interpreter.UninitializedObject,BRANCH,1.0,1.0,0,0
koala.dynamicjava.parser.ASCII_UCodeESC_CharStream,BRANCH,0.9245283018867925,0.9245283018867925,196,212
koala.dynamicjava.parser.ParseException,BRANCH,0.8723404255319149,0.8936170212765957,41,47
koala.dynamicjava.parser.Parser,BRANCH,0.17199912939384046,0.17199912939384046,3161,18378
koala.dynamicjava.parser.ParserTokenManager,BRANCH,0.6364653243847874,0.6353467561521253,1138,1788
koala.dynamicjava.parser.Token,BRANCH,0.75,0.75,3,4
koala.dynamicjava.parser.TokenMgrError,BRANCH,0.96875,1.0,31,32
koala.dynamicjava.parser.wrapper.JavaCCParser,BRANCH,1.0,1.0,6,6
koala.dynamicjava.parser.wrapper.JavaCCParserFactory,BRANCH,1.0,1.0,3,3
koala.dynamicjava.parser.wrapper.ParseError,BRANCH,1.0,1.0,6,6
koala.dynamicjava.tree.AddAssignExpression,BRANCH,1.0,1.0,3,3
koala.dynamicjava.tree.AddExpression,BRANCH,1.0,1.0,3,3
koala.dynamicjava.tree.Allocation,BRANCH,1.0,1.0,5,5
koala.dynamicjava.tree.AndExpression,BRANCH,1.0,1.0,3,3
koala.dynamicjava.tree.ArrayAccess,BRANCH,1.0,1.0,12,12
koala.dynamicjava.tree.ArrayAllocation,BRANCH,1.0,1.0,12,12
koala.dynamicjava.tree.ArrayInitializer,BRANCH,1.0,1.0,17,17
koala.dynamicjava.tree.ArrayType,BRANCH,1.0,1.0,11,11
koala.dynamicjava.tree.AssignExpression,BRANCH,1.0,1.0,1,1
koala.dynamicjava.tree.BinaryExpression,BRANCH,1.0,1.0,10,10
koala.dynamicjava.tree.BitAndAssignExpression,BRANCH,1.0,1.0,3,3
koala.dynamicjava.tree.BitAndExpression,BRANCH,1.0,1.0,3,3
koala.dynamicjava.tree.BitOrAssignExpression,BRANCH,1.0,1.0,3,3
koala.dynamicjava.tree.BitOrExpression,BRANCH,1.0,1.0,3,3
koala.dynamicjava.tree.BlockStatement,BRANCH,1.0,1.0,7,7
koala.dynamicjava.tree.BooleanLiteral,BRANCH,1.0,1.0,5,5
koala.dynamicjava.tree.BooleanType,BRANCH,1.0,1.0,2,2
koala.dynamicjava.tree.BreakStatement,BRANCH,1.0,1.0,5,5
koala.dynamicjava.tree.ByteType,BRANCH,1.0,1.0,2,2
koala.dynamicjava.tree.CastExpression,BRANCH,1.0,1.0,7,7
koala.dynamicjava.tree.CatchStatement,BRANCH,1.0,1.0,4,4
koala.dynamicjava.tree.CharacterLiteral,BRANCH,1.0,1.0,20,20
koala.dynamicjava.tree.CharType,BRANCH,1.0,1.0,2,2
koala.dynamicjava.tree.ClassAllocation,BRANCH,1.0,1.0,9,9
koala.dynamicjava.tree.ClassDeclaration,BRANCH,1.0,1.0,7,7
koala.dynamicjava.tree.ClassInitializer,BRANCH,1.0,1.0,3,3
koala.dynamicjava.tree.ComplementExpression,BRANCH,1.0,1.0,3,3
koala.dynamicjava.tree.ConditionalExpression,BRANCH,1.0,1.0,17,17
koala.dynamicjava.tree.ConstructorDeclaration,BRANCH,1.0,1.0,27,27
koala.dynamicjava.tree.ConstructorInvocation,BRANCH,1.0,1.0,9,9
koala.dynamicjava.tree.ContinueStatement,BRANCH,1.0,1.0,5,5
koala.dynamicjava.tree.DivideAssignExpression,BRANCH,1.0,1.0,3,3
koala.dynamicjava.tree.DivideExpression,BRANCH,1.0,1.0,3,3
koala.dynamicjava.tree.DoStatement,BRANCH,1.0,1.0,16,16
koala.dynamicjava.tree.DoubleLiteral,BRANCH,1.0,1.0,2,2
koala.dynamicjava.tree.DoubleType,BRANCH,1.0,1.0,2,2
koala.dynamicjava.tree.EmptyStatement,BRANCH,1.0,1.0,3,3
koala.dynamicjava.tree.EqualExpression,BRANCH,1.0,1.0,3,3
koala.dynamicjava.tree.ExclusiveOrAssignExpression,BRANCH,1.0,1.0,3,3
koala.dynamicjava.tree.ExclusiveOrExpression,BRANCH,1.0,1.0,3,3
koala.dynamicjava.tree.Expression,BRANCH,1.0,1.0,1,1
koala.dynamicjava.tree.FieldAccess,BRANCH,1.0,1.0,5,5
koala.dynamicjava.tree.FieldDeclaration,BRANCH,1.0,1.0,20,20
koala.dynamicjava.tree.FloatLiteral,BRANCH,1.0,1.0,2,2
koala.dynamicjava.tree.FloatType,BRANCH,1.0,1.0,2,2
koala.dynamicjava.tree.FormalParameter,BRANCH,1.0,1.0,13,13
koala.dynamicjava.tree.ForStatement,BRANCH,1.0,1.0,17,17
koala.dynamicjava.tree.FunctionCall,BRANCH,1.0,1.0,2,2
koala.dynamicjava.tree.GreaterExpression,BRANCH,1.0,1.0,3,3
koala.dynamicjava.tree.GreaterOrEqualExpression,BRANCH,1.0,1.0,3,3
koala.dynamicjava.tree.Identifier,BRANCH,1.0,1.0,7,7
koala.dynamicjava.tree.IfThenElseStatement,BRANCH,1.0,1.0,7,7
koala.dynamicjava.tree.IfThenStatement,BRANCH,1.0,1.0,12,12
koala.dynamicjava.tree.ImportDeclaration,BRANCH,1.0,1.0,9,9
koala.dynamicjava.tree.Initializer,BRANCH,1.0,1.0,5,5
koala.dynamicjava.tree.InnerAllocation,BRANCH,1.0,1.0,9,9
koala.dynamicjava.tree.InnerClassAllocation,BRANCH,1.0,1.0,7,7
koala.dynamicjava.tree.InstanceInitializer,BRANCH,1.0,1.0,3,3
koala.dynamicjava.tree.InstanceOfExpression,BRANCH,1.0,1.0,12,12
koala.dynamicjava.tree.IntegerLiteral,BRANCH,1.0,1.0,18,18
koala.dynamicjava.tree.InterfaceDeclaration,BRANCH,1.0,1.0,3,3
koala.dynamicjava.tree.IntType,BRANCH,1.0,1.0,2,2
koala.dynamicjava.tree.LabeledStatement,BRANCH,1.0,1.0,12,12
koala.dynamicjava.tree.LessExpression,BRANCH,1.0,1.0,3,3
koala.dynamicjava.tree.LessOrEqualExpression,BRANCH,1.0,1.0,3,3
koala.dynamicjava.tree.Literal,BRANCH,0.9,0.9,9,10
koala.dynamicjava.tree.LongLiteral,BRANCH,1.0,1.0,18,18
koala.dynamicjava.tree.LongType,BRANCH,1.0,1.0,2,2
koala.dynamicjava.tree.MethodCall,BRANCH,1.0,1.0,7,7
koala.dynamicjava.tree.MethodDeclaration,BRANCH,1.0,1.0,28,28
koala.dynamicjava.tree.MinusExpression,BRANCH,1.0,1.0,3,3
koala.dynamicjava.tree.MultiplyAssignExpression,BRANCH,1.0,1.0,3,3
koala.dynamicjava.tree.MultiplyExpression,BRANCH,1.0,1.0,3,3
koala.dynamicjava.tree.Node,BRANCH,1.0,1.0,23,23
koala.dynamicjava.tree.NotEqualExpression,BRANCH,1.0,1.0,3,3
koala.dynamicjava.tree.NotExpression,BRANCH,1.0,1.0,3,3
koala.dynamicjava.tree.NullLiteral,BRANCH,1.0,1.0,2,2
koala.dynamicjava.tree.ObjectFieldAccess,BRANCH,1.0,1.0,7,7
koala.dynamicjava.tree.ObjectMethodCall,BRANCH,1.0,1.0,4,4
koala.dynamicjava.tree.OrExpression,BRANCH,1.0,1.0,3,3
koala.dynamicjava.tree.PackageDeclaration,BRANCH,1.0,1.0,6,6
koala.dynamicjava.tree.PlusExpression,BRANCH,1.0,1.0,3,3
koala.dynamicjava.tree.PostDecrement,BRANCH,1.0,1.0,3,3
koala.dynamicjava.tree.PostIncrement,BRANCH,1.0,1.0,3,3
koala.dynamicjava.tree.PreDecrement,BRANCH,1.0,1.0,3,3
koala.dynamicjava.tree.PreIncrement,BRANCH,1.0,1.0,3,3
koala.dynamicjava.tree.PrimaryExpression,BRANCH,1.0,1.0,1,1
koala.dynamicjava.tree.PrimitiveType,BRANCH,0.8333333333333334,0.8333333333333334,5,6
koala.dynamicjava.tree.QualifiedName,BRANCH,1.0,1.0,8,8
koala.dynamicjava.tree.ReferenceType,BRANCH,1.0,1.0,10,10
koala.dynamicjava.tree.RemainderAssignExpression,BRANCH,1.0,1.0,3,3
koala.dynamicjava.tree.RemainderExpression,BRANCH,1.0,1.0,3,3
koala.dynamicjava.tree.ReturnStatement,BRANCH,1.0,1.0,5,5
koala.dynamicjava.tree.ShiftLeftAssignExpression,BRANCH,1.0,1.0,3,3
koala.dynamicjava.tree.ShiftLeftExpression,BRANCH,1.0,1.0,3,3
koala.dynamicjava.tree.ShiftRightAssignExpression,BRANCH,1.0,1.0,3,3
koala.dynamicjava.tree.ShiftRightExpression,BRANCH,1.0,1.0,3,3
koala.dynamicjava.tree.ShortType,BRANCH,1.0,1.0,2,2
koala.dynamicjava.tree.SimpleAllocation,BRANCH,1.0,1.0,5,5
koala.dynamicjava.tree.SimpleAssignExpression,BRANCH,1.0,1.0,3,3
koala.dynamicjava.tree.Statement,BRANCH,1.0,1.0,1,1
koala.dynamicjava.tree.StaticFieldAccess,BRANCH,1.0,1.0,7,7
koala.dynamicjava.tree.StaticMethodCall,BRANCH,1.0,1.0,7,7
koala.dynamicjava.tree.StringLiteral,BRANCH,0.20689655172413793,1.0,6,29
koala.dynamicjava.tree.SubtractAssignExpression,BRANCH,1.0,1.0,3,3
koala.dynamicjava.tree.SubtractExpression,BRANCH,1.0,1.0,3,3
koala.dynamicjava.tree.SuperFieldAccess,BRANCH,1.0,1.0,3,3
koala.dynamicjava.tree.SuperMethodCall,BRANCH,1.0,1.0,3,3
koala.dynamicjava.tree.SwitchBlock,BRANCH,1.0,1.0,7,7
koala.dynamicjava.tree.SwitchStatement,BRANCH,1.0,1.0,11,11
koala.dynamicjava.tree.SynchronizedStatement,BRANCH,1.0,1.0,11,11
koala.dynamicjava.tree.ThisExpression,BRANCH,1.0,1.0,6,6
koala.dynamicjava.tree.ThrowStatement,BRANCH,1.0,1.0,7,7
koala.dynamicjava.tree.TreeUtilities,BRANCH,0.6296296296296297,0.6296296296296297,17,27
koala.dynamicjava.tree.TryStatement,BRANCH,1.0,1.0,5,5
koala.dynamicjava.tree.Type,BRANCH,1.0,1.0,1,1
koala.dynamicjava.tree.TypeDeclaration,BRANCH,1.0,1.0,18,18
koala.dynamicjava.tree.TypeExpression,BRANCH,1.0,1.0,7,7
koala.dynamicjava.tree.UnaryExpression,BRANCH,1.0,1.0,5,5
koala.dynamicjava.tree.UnsignedShiftRightAssignExpression,BRANCH,1.0,1.0,3,3
koala.dynamicjava.tree.UnsignedShiftRightExpression,BRANCH,1.0,1.0,3,3
koala.dynamicjava.tree.VariableDeclaration,BRANCH,0.95,1.0,19,20
koala.dynamicjava.tree.visitor.VisitorObject,BRANCH,1.0,1.0,93,93
koala.dynamicjava.tree.VoidType,BRANCH,1.0,1.0,2,2
koala.dynamicjava.tree.WhileStatement,BRANCH,1.0,1.0,16,16
koala.dynamicjava.util.AmbiguousFieldException,BRANCH,1.0,1.0,2,2
koala.dynamicjava.util.BufferedImportationManager,BRANCH,1.0,1.0,13,13
koala.dynamicjava.util.Constants,BRANCH,1.0,1.0,1,1
koala.dynamicjava.util.DisplayVisitor,BRANCH,0.9894179894179894,0.9894179894179894,187,189
koala.dynamicjava.util.FileFinder,BRANCH,1.0,1.0,7,7
koala.dynamicjava.util.ImportationManager,BRANCH,0.8225806451612904,0.8225806451612904,51,62
koala.dynamicjava.util.LibraryFinder,BRANCH,1.0,1.0,10,10
koala.dynamicjava.util.LocalizedMessageReader,BRANCH,0.07692307692307693,0.07692307692307693,1,13
koala.dynamicjava.util.ReflectionUtilities,BRANCH,0.6142857142857143,0.6142857142857143,86,140
sandmark.Algorithm,BRANCH,0.6,1.0,6,10
sandmark.analysis.callgraph.ApplicationCFG,BRANCH,0.20408163265306123,0.20408163265306123,10,49
sandmark.analysis.callgraph.CallGraph,BRANCH,0.26785714285714285,0.26785714285714285,30,112
sandmark.analysis.callgraph.CallGraphEdge,BRANCH,1.0,1.0,7,7
sandmark.analysis.classhierarchy.ClassHierarchy,BRANCH,0.5625,0.5625,135,240
sandmark.analysis.classhierarchy.ClassHierarchyException,BRANCH,1.0,1.0,1,1
sandmark.analysis.controlflowgraph.BasicBlock,BRANCH,0.3793103448275862,0.3793103448275862,33,87
sandmark.analysis.controlflowgraph.CallingCallGenerator,BRANCH,0.012658227848101266,0.012658227848101266,1,79
sandmark.analysis.controlflowgraph.CodeContext,BRANCH,1.0,1.0,13,13
sandmark.analysis.controlflowgraph.ControlFlowSynthesizer,BRANCH,0.8928571428571429,0.8928571428571429,25,28
sandmark.analysis.controlflowgraph.Edge,BRANCH,1.0,1.0,3,3
sandmark.analysis.controlflowgraph.EmptyMethodException,BRANCH,1.0,1.0,2,2
sandmark.analysis.controlflowgraph.ExceptionEdge,BRANCH,1.0,1.0,4,4
sandmark.analysis.controlflowgraph.FallthroughEdge,BRANCH,1.0,1.0,1,1
sandmark.analysis.controlflowgraph.IntFuncSynthesizer,BRANCH,1.0,1.0,20,20
sandmark.analysis.controlflowgraph.MethodCFG,BRANCH,0.008771929824561403,0.008771929824561403,2,228
sandmark.analysis.controlflowgraph.MinimalSynthesizer,BRANCH,0.9152542372881356,0.9152542372881356,54,59
sandmark.analysis.controlflowgraph.NullNENullCallGenerator,BRANCH,0.0125,0.0125,1,80
sandmark.analysis.controlflowgraph.PositiveIntSynthesizer,BRANCH,0.7792207792207793,0.8311688311688312,120,154
sandmark.analysis.controlflowgraph.ProgramCFG,BRANCH,0.5652173913043478,0.5652173913043478,13,23
sandmark.analysis.controlflowgraph.RegisterAllocator,BRANCH,0.5873015873015873,0.5873015873015873,37,63
sandmark.analysis.controlflowgraph.SimpleGotoSynthesizer,BRANCH,1.0,1.0,11,11
sandmark.analysis.controlflowgraph.SimpleSwitchSynthesizer,BRANCH,1.0,1.0,13,13
sandmark.analysis.controlflowgraph.TopoMaintainingCallGenerator,BRANCH,0.03125,0.03125,1,32
sandmark.analysis.controlflowgraph.VoidMethodSynthesizer,BRANCH,1.0,1.0,2,2
sandmark.analysis.defuse.BBInfo,BRANCH,1.0,1.0,1,1
sandmark.analysis.defuse.DefComparator,BRANCH,1.0,1.0,27,27
sandmark.analysis.defuse.DefWrapper,BRANCH,1.0,1.0,5,5
sandmark.analysis.defuse.DUWeb,BRANCH,0.9420289855072463,0.9420289855072463,65,69
sandmark.analysis.defuse.IHComparator,BRANCH,1.0,1.0,7,7
sandmark.analysis.defuse.IncDefWrapper,BRANCH,1.0,1.0,2,2
sandmark.analysis.defuse.InstructionDefWrapper,BRANCH,1.0,1.0,12,12
sandmark.analysis.defuse.ParamDefWrapper,BRANCH,1.0,1.0,12,12
sandmark.analysis.defuse.ReachingDefs,BRANCH,0.7341040462427746,0.7341040462427746,127,173
sandmark.analysis.defuse.StoreDefWrapper,BRANCH,1.0,1.0,1,1
sandmark.analysis.defuse.ThisDefWrapper,BRANCH,1.0,1.0,6,6
sandmark.analysis.defuse.UninitializedDefWrapper,BRANCH,1.0,1.0,2,2
sandmark.analysis.defuse.UseInfo,BRANCH,1.0,1.0,1,1
sandmark.analysis.dependencygraph.DependencyGraph,BRANCH,0.4444444444444444,0.4444444444444444,8,18
sandmark.analysis.initialized.Initialized,BRANCH,0.47368421052631576,0.47368421052631576,9,19
sandmark.analysis.interference.InterferenceGraph,BRANCH,0.0,0.0,0,22
sandmark.analysis.liveness.BBInfo,BRANCH,1.0,1.0,1,1
sandmark.analysis.liveness.Liveness,BRANCH,0.015873015873015872,0.015873015873015872,1,63
sandmark.analysis.slicingtools.AnalysisBlock,BRANCH,1.0,1.0,11,11
sandmark.analysis.slicingtools.BackwardMethodSlice,BRANCH,0.0,0.0,0,89
sandmark.analysis.slicingtools.ForwardMethodSlice,BRANCH,0.0,0.0,0,105
sandmark.analysis.slicingtools.MethodSlice,BRANCH,0.05555555555555555,0.05555555555555555,3,54
sandmark.analysis.stacksimulator.ArrayReferenceData,BRANCH,1.0,1.0,12,12
sandmark.analysis.stacksimulator.BooleanData,BRANCH,1.0,1.0,7,7
sandmark.analysis.stacksimulator.CaughtExceptionData,BRANCH,1.0,1.0,9,9
sandmark.analysis.stacksimulator.ClearStackContext,BRANCH,1.0,1.0,6,6
sandmark.analysis.stacksimulator.CompositeBooleanData,BRANCH,1.0,1.0,14,14
sandmark.analysis.stacksimulator.CompositeDoubleData,BRANCH,1.0,1.0,14,14
sandmark.analysis.stacksimulator.CompositeFloatData,BRANCH,1.0,1.0,14,14
sandmark.analysis.stacksimulator.CompositeIntData,BRANCH,1.0,1.0,16,16
sandmark.analysis.stacksimulator.CompositeLongData,BRANCH,1.0,1.0,14,14
sandmark.analysis.stacksimulator.Context,BRANCH,0.5454545454545454,0.5454545454545454,42,77
sandmark.analysis.stacksimulator.DoubleData,BRANCH,1.0,1.0,6,6
sandmark.analysis.stacksimulator.EmptyContext,BRANCH,1.0,1.0,9,9
sandmark.analysis.stacksimulator.FloatData,BRANCH,1.0,1.0,6,6
sandmark.analysis.stacksimulator.IntData,BRANCH,1.0,1.0,6,6
sandmark.analysis.stacksimulator.LongData,BRANCH,1.0,1.0,6,6
sandmark.analysis.stacksimulator.MergeContext,BRANCH,1.0,1.0,45,45
sandmark.analysis.stacksimulator.PopContext,BRANCH,1.0,1.0,9,9
sandmark.analysis.stacksimulator.PrimitiveData,BRANCH,1.0,1.0,25,25
sandmark.analysis.stacksimulator.PushContext,BRANCH,0.9375,0.9375,15,16
sandmark.analysis.stacksimulator.ReferenceData,BRANCH,1.0,1.0,10,10
sandmark.analysis.stacksimulator.ReplaceStackContext,BRANCH,1.0,1.0,10,10
sandmark.analysis.stacksimulator.ReplaceVarContext,BRANCH,1.0,1.0,10,10
sandmark.analysis.stacksimulator.ReturnaddressData,BRANCH,1.0,1.0,9,9
sandmark.analysis.stacksimulator.StackData,BRANCH,1.0,1.0,5,5
sandmark.analysis.stacksimulator.StackSimulator,BRANCH,0.3451242829827916,0.3489483747609943,361,1046
sandmark.analysis.stacksimulator.UndefinedContext,BRANCH,1.0,1.0,15,15
sandmark.analysis.stacksimulator.UninitializedReferenceData,BRANCH,1.0,1.0,9,9
sandmark.birthmark.Birthmark,BRANCH,1.0,1.0,11,11
sandmark.birthmark.BirthmarkException,BRANCH,1.0,1.0,1,1
sandmark.birthmark.DynamicBirthmark,BRANCH,1.0,1.0,1,1
sandmark.birthmark.DynamicBirthMarkParameters,BRANCH,1.0,1.0,2,2
sandmark.birthmark.fieldvalues.CVFV,BRANCH,0.35714285714285715,0.35714285714285715,10,28
sandmark.birthmark.fieldvalues.CVFVPair,BRANCH,1.0,1.0,9,9
sandmark.birthmark.GeneralBirthmark,BRANCH,1.0,1.0,1,1
sandmark.birthmark.inheritstruct.IS,BRANCH,0.45454545454545453,0.45454545454545453,10,22
sandmark.birthmark.methodcalls.MethodComparator,BRANCH,0.07692307692307693,0.07692307692307693,1,13
sandmark.birthmark.methodcalls.SMC,BRANCH,0.35714285714285715,0.35714285714285715,10,28
sandmark.birthmark.methodcalls.SMCTriple,BRANCH,1.0,1.0,12,12
sandmark.birthmark.StaticClassBirthmark,BRANCH,1.0,1.0,1,1
sandmark.birthmark.StaticClassBirthMarkParameters,BRANCH,0.2,0.2,1,5
sandmark.birthmark.usedclasses.UC,BRANCH,0.23255813953488372,0.23255813953488372,10,43
sandmark.birthmark.util.KnownClassesManager,BRANCH,0.9090909090909091,0.9090909090909091,10,11
sandmark.birthmark.windows.SlidingWindow,BRANCH,0.3333333333333333,0.3333333333333333,12,36
sandmark.birthmark.windows.Window,BRANCH,1.0,1.0,17,17
sandmark.birthmark.windows.WindowState,BRANCH,0.9411764705882353,0.9411764705882353,32,34
sandmark.birthmark.wpp.Annotate,BRANCH,0.875,0.875,14,16
sandmark.birthmark.wpp.Annotator,BRANCH,1.0,1.0,3,3
sandmark.birthmark.wpp.DAGEdge,BRANCH,1.0,1.0,12,12
sandmark.birthmark.wpp.DAGNode,BRANCH,1.0,1.0,7,7
sandmark.birthmark.wpp.guard,BRANCH,1.0,1.0,5,5
sandmark.birthmark.wpp.nonTerminal,BRANCH,1.0,1.0,5,5
sandmark.birthmark.wpp.rule,BRANCH,1.0,1.0,17,17
sandmark.birthmark.wpp.RunSequitur,BRANCH,1.0,1.0,6,6
sandmark.birthmark.wpp.symbol,BRANCH,1.0,1.0,31,31
sandmark.birthmark.wpp.terminal,BRANCH,1.0,1.0,2,2
sandmark.birthmark.wpp.TracePoint,BRANCH,1.0,1.0,8,8
sandmark.birthmark.wpp.WPP,BRANCH,0.11304347826086956,0.11304347826086956,13,115
sandmark.config.AlgorithmProperty,BRANCH,1.0,1.0,6,6
sandmark.config.ModificationProperty,BRANCH,1.0,1.0,1,1
sandmark.config.RequisiteProperty,BRANCH,1.0,1.0,1,1
sandmark.Console,BRANCH,0.8,0.8,8,10
sandmark.Constants,BRANCH,1.0,1.0,21,21
sandmark.decompile.Decompile,BRANCH,0.75,0.9375,12,16
sandmark.diff.classdiff.ClassDiffAlgorithm,BRANCH,0.8888888888888888,0.8888888888888888,16,18
sandmark.diff.classdiff.ConstPoolDiff,BRANCH,1.0,1.0,15,15
sandmark.diff.Coloring,BRANCH,0.9333333333333333,1.0,14,15
sandmark.diff.DiffAlgorithm,BRANCH,1.0,1.0,2,2
sandmark.diff.DiffOptions,BRANCH,1.0,1.0,15,15
sandmark.diff.DiffUtil,BRANCH,0.4943820224719101,0.5393258426966292,44,89
sandmark.diff.InstructionWrapper,BRANCH,0.9772727272727273,1.0,172,176
sandmark.diff.LCS,BRANCH,1.0,1.0,29,29
sandmark.diff.methoddiff.BakerAlgorithm,BRANCH,0.07692307692307693,0.07692307692307693,3,39
sandmark.diff.methoddiff.CFGDiff,BRANCH,0.9782608695652174,0.9782608695652174,45,46
sandmark.diff.methoddiff.CFGTree,BRANCH,0.1896551724137931,0.1896551724137931,22,116
sandmark.diff.methoddiff.CFGTreeNode,BRANCH,0.6666666666666666,0.6666666666666666,8,12
sandmark.diff.methoddiff.ComparableBlock,BRANCH,0.3333333333333333,0.3333333333333333,5,15
sandmark.diff.methoddiff.DMDiffAlgorithm,BRANCH,0.07547169811320754,0.07547169811320754,4,53
sandmark.diff.methoddiff.MethodDiffAlgorithm,BRANCH,0.9545454545454546,0.9545454545454546,21,22
sandmark.diff.methoddiff.TrivialDiffAlgorithm,BRANCH,0.8888888888888888,0.8888888888888888,24,27
sandmark.diff.methoddiff.Tuple,BRANCH,1.0,1.0,9,9
sandmark.diff.methoddiff.TupleList,BRANCH,1.0,1.0,9,9
sandmark.diff.Result,BRANCH,1.0,1.0,8,8
sandmark.gui.AboutDialog,BRANCH,0.047619047619047616,0.047619047619047616,1,21
sandmark.gui.AlgorithmComboBox,BRANCH,0.2,0.21052631578947367,4,20
sandmark.gui.AppTree,BRANCH,0.9036144578313253,0.9036144578313253,75,83
sandmark.gui.AppViewPanel,BRANCH,0.7727272727272727,0.7727272727272727,17,22
sandmark.gui.BooleanPropertyInfo,BRANCH,0.7647058823529411,0.7647058823529411,13,17
sandmark.gui.ClassPropertyInfo,BRANCH,0.14285714285714285,0.14285714285714285,2,14
sandmark.gui.ClassSorter,BRANCH,1.0,1.0,5,5
sandmark.gui.ClassViewPanel,BRANCH,0.8,0.8,8,10
sandmark.gui.ConfigPropertyPanel,BRANCH,0.9565217391304348,0.9565217391304348,22,23
sandmark.gui.CopyrightDialog,BRANCH,0.0,0.0,0,6
sandmark.gui.CurrentApplicationTracker,BRANCH,0.3125,0.3125,5,16
sandmark.gui.DecompileDialog,BRANCH,0.3333333333333333,0.3333333333333333,1,3
sandmark.gui.DecompilePanel,BRANCH,0.3333333333333333,0.3333333333333333,2,6
sandmark.gui.diff.DiffFrame,BRANCH,0.2608695652173913,0.2608695652173913,12,46
sandmark.gui.diff.DiffOptionsFrame,BRANCH,0.045454545454545456,0.045454545454545456,1,22
sandmark.gui.diff.DiffPanel,BRANCH,0.2,0.2,1,5
sandmark.gui.diff.ResultsPane,BRANCH,0.9375,0.9375,15,16
sandmark.gui.DoublePropertyInfo,BRANCH,0.5,0.5,1,2
sandmark.gui.DynamicBirthmarkPanel,BRANCH,0.1935483870967742,0.22580645161290322,6,31
sandmark.gui.DynamicEmbedPanel,BRANCH,0.15789473684210525,0.15789473684210525,3,19
sandmark.gui.DynamicRecognizeButton,BRANCH,0.16666666666666666,0.16666666666666666,2,12
sandmark.gui.DynamicRecognizePanel,BRANCH,0.2,0.2,2,10
sandmark.gui.DynamicTracePanel,BRANCH,0.14285714285714285,0.14285714285714285,3,21
sandmark.gui.DynamicWatermarkPanel,BRANCH,0.18181818181818182,0.2727272727272727,2,11
sandmark.gui.ExtensionFileFilter,BRANCH,1.0,1.0,6,6
sandmark.gui.FieldAndButtonPropertyInfo,BRANCH,1.0,1.0,1,1
sandmark.gui.FileBrowseButtonEventListener,BRANCH,0.3333333333333333,0.3333333333333333,2,6
sandmark.gui.FilePropertyInfo,BRANCH,0.041666666666666664,0.041666666666666664,1,24
sandmark.gui.GraphDisplayButton,BRANCH,1.0,1.0,6,6
sandmark.gui.HelpButton,BRANCH,1.0,1.0,4,4
sandmark.gui.HelpDialog,BRANCH,0.09090909090909091,0.09090909090909091,1,11
sandmark.gui.HomePanel,BRANCH,0.5294117647058824,0.5294117647058824,9,17
sandmark.gui.IntegerPropertyInfo,BRANCH,1.0,1.0,2,2
sandmark.gui.JarBrowseButtonEventListener,BRANCH,1.0,1.0,2,2
sandmark.gui.JarPropertyInfo,BRANCH,0.3333333333333333,0.3333333333333333,1,3
sandmark.gui.JHoverButton,BRANCH,1.0,1.0,25,25
sandmark.gui.LiteHomePanel,BRANCH,0.5294117647058824,0.5294117647058824,9,17
sandmark.gui.LogPane,BRANCH,0.25,0.25,2,8
sandmark.gui.MethodPropertyInfo,BRANCH,0.06666666666666667,0.06666666666666667,1,15
sandmark.gui.MethodSliceGUI,BRANCH,0.3333333333333333,0.3333333333333333,4,12
sandmark.gui.MethodSorter,BRANCH,1.0,1.0,3,3
sandmark.gui.MethodViewPanel,BRANCH,0.4492753623188406,0.4492753623188406,31,69
sandmark.gui.MetricTableModel,BRANCH,0.17647058823529413,0.7575757575757576,6,34
sandmark.gui.MultiLineToolTipUI,BRANCH,0.7446808510638298,0.7446808510638298,35,47
sandmark.gui.NextWMButton,BRANCH,0.8571428571428571,0.8571428571428571,6,7
sandmark.gui.ObfDialog,BRANCH,0.010752688172043012,0.010752688172043012,1,93
sandmark.gui.ObfuscatePanel,BRANCH,0.12962962962962962,0.14814814814814814,7,54
sandmark.gui.OptimisePanel,BRANCH,0.1951219512195122,0.21951219512195122,8,41
sandmark.gui.PIFactory,BRANCH,0.7727272727272727,0.7727272727272727,17,22
sandmark.gui.ProgramObjectPropertyInfo,BRANCH,0.42857142857142855,0.42857142857142855,3,7
sandmark.gui.PropertyInfo,BRANCH,1.0,1.0,4,4
sandmark.gui.QuickProtectPanel,BRANCH,0.13953488372093023,0.27906976744186046,6,43
sandmark.gui.RecognizeButton,BRANCH,0.5,0.5,2,4
sandmark.gui.SandMarkFrame,BRANCH,0.07692307692307693,0.07692307692307693,2,26
sandmark.gui.SandMarkLiteFrame,BRANCH,0.5,0.5,2,4
sandmark.gui.SandMarkMenuBar,BRANCH,0.5555555555555556,0.5555555555555556,5,9
sandmark.gui.SandMarkViewPanel,BRANCH,0.2,0.2,1,5
sandmark.gui.SkinPanel,BRANCH,0.6666666666666666,0.6666666666666666,8,12
sandmark.gui.SliceRenderer,BRANCH,1.0,1.0,8,8
sandmark.gui.SMAlgHierTreeNode,BRANCH,1.0,1.0,3,3
sandmark.gui.SMAlgHierTreePane,BRANCH,1.0,1.0,6,6
sandmark.gui.SplashPanel,BRANCH,0.5,0.5,2,4
sandmark.gui.StaticBirthmarkPanel,BRANCH,0.1935483870967742,0.22580645161290322,6,31
sandmark.gui.StaticEmbedPanel,BRANCH,0.15789473684210525,0.15789473684210525,3,19
sandmark.gui.StaticRecognizePanel,BRANCH,0.2,0.2,2,10
sandmark.gui.StaticWatermarkPanel,BRANCH,0.2,0.3,2,10
sandmark.gui.StatTableModel,BRANCH,0.525,0.5384615384615384,21,40
sandmark.gui.StringPropertyInfo,BRANCH,0.8666666666666667,0.896551724137931,26,30
sandmark.gui.Utils,BRANCH,0.9333333333333333,0.9333333333333333,14,15
sandmark.gui.VSplitPanel,BRANCH,0.05263157894736842,0.3684210526315789,1,19
sandmark.gui.WebBrowser,BRANCH,0.0625,0.0625,4,64
sandmark.metric.AppIdentifierLength,BRANCH,1.0,1.0,11,11
sandmark.metric.ApplicationComparator,BRANCH,0.8571428571428571,0.8571428571428571,6,7
sandmark.metric.ApplicationMetric,BRANCH,1.0,1.0,5,5
sandmark.metric.CkAppCouplingMeasure,BRANCH,1.0,1.0,8,8
sandmark.metric.CkAppInheritanceMeasure,BRANCH,1.0,1.0,8,8
sandmark.metric.CkAppMeasure,BRANCH,1.0,1.0,8,8
sandmark.metric.CkAppResponseMeasure,BRANCH,1.0,1.0,8,8
sandmark.metric.CkAppSubclassMeasure,BRANCH,1.0,1.0,8,8
sandmark.metric.CkClassCouplingMeasure,BRANCH,0.9,0.9,9,10
sandmark.metric.CkClassInheritanceMeasure,BRANCH,1.0,1.0,7,7
sandmark.metric.CkClassMeasure,BRANCH,0.875,0.875,14,16
sandmark.metric.CkClassResponseMeasure,BRANCH,0.9166666666666666,0.9166666666666666,11,12
sandmark.metric.CkClassSubclassMeasure,BRANCH,1.0,1.0,7,7
sandmark.metric.ClassComparator,BRANCH,1.0,1.0,7,7
sandmark.metric.ClassIdentifierLength,BRANCH,1.0,1.0,12,12
sandmark.metric.ClassMetric,BRANCH,1.0,1.0,5,5
sandmark.metric.ClassOpcodeComparator,BRANCH,0.7142857142857143,0.7142857142857143,5,7
sandmark.metric.HalsteadAppDifficultyMeasure,BRANCH,1.0,1.0,8,8
sandmark.metric.HalsteadAppEffortMeasure,BRANCH,1.0,1.0,8,8
sandmark.metric.HalsteadAppLengthMeasure,BRANCH,1.0,1.0,8,8
sandmark.metric.HalsteadAppMeasure,BRANCH,1.0,1.0,8,8
sandmark.metric.HalsteadAppVocabMeasure,BRANCH,1.0,1.0,8,8
sandmark.metric.HalsteadAppVolumeMeasure,BRANCH,1.0,1.0,8,8
sandmark.metric.HalsteadClassDifficultyMeasure,BRANCH,0.9,0.9,9,10
sandmark.metric.HalsteadClassEffortMeasure,BRANCH,0.9,0.9,9,10
sandmark.metric.HalsteadClassLengthMeasure,BRANCH,0.9,0.9,9,10
sandmark.metric.HalsteadClassMeasure,BRANCH,0.9,0.9,9,10
sandmark.metric.HalsteadClassVocabMeasure,BRANCH,0.9,0.9,9,10
sandmark.metric.HalsteadClassVolumeMeasure,BRANCH,0.9,0.9,9,10
sandmark.metric.HalsteadMethodDifficultyMeasure,BRANCH,1.0,1.0,10,10
sandmark.metric.HalsteadMethodEffortMeasure,BRANCH,1.0,1.0,10,10
sandmark.metric.HalsteadMethodLengthMeasure,BRANCH,1.0,1.0,8,8
sandmark.metric.HalsteadMethodMeasure,BRANCH,1.0,1.0,10,10
sandmark.metric.HalsteadMethodVocabMeasure,BRANCH,0.75,0.75,6,8
sandmark.metric.HalsteadMethodVolumeMeasure,BRANCH,1.0,1.0,8,8
sandmark.metric.HalsteadUtil,BRANCH,1.0,1.0,135,135
sandmark.metric.HarrisonAppMeasure,BRANCH,1.0,1.0,8,8
sandmark.metric.HarrisonClassMeasure,BRANCH,1.0,1.0,8,8
sandmark.metric.HarrisonMethodMeasure,BRANCH,1.0,1.0,7,7
sandmark.metric.KafuraAppMeasure,BRANCH,1.0,1.0,8,8
sandmark.metric.KafuraClassMeasure,BRANCH,0.875,0.875,77,88
sandmark.metric.LocalIdentifierLength,BRANCH,0.8125,0.8125,13,16
sandmark.metric.McCabeAppMeasure,BRANCH,1.0,1.0,8,8
sandmark.metric.McCabeClassMeasure,BRANCH,0.9,0.9,9,10
sandmark.metric.McCabeMethodMeasure,BRANCH,1.0,1.0,7,7
sandmark.metric.MethodComparator,BRANCH,0.5714285714285714,0.5714285714285714,4,7
sandmark.metric.MethodMetric,BRANCH,0.6,0.6,3,5
sandmark.metric.MethodOpcodeComparator,BRANCH,0.2857142857142857,0.2857142857142857,2,7
sandmark.metric.Metric,BRANCH,0.8888888888888888,0.8888888888888888,8,9
sandmark.metric.MunsonAppMeasure,BRANCH,1.0,1.0,8,8
sandmark.metric.MunsonClassMeasure,BRANCH,0.9,0.9,9,10
sandmark.metric.MunsonMethodMeasure,BRANCH,0.6666666666666666,0.6666666666666666,8,12
sandmark.metric.NestingLevelComplexity,BRANCH,0.9466666666666667,0.9466666666666667,71,75
sandmark.metric.StatsUtil,BRANCH,0.8584070796460177,0.8584070796460177,97,113
sandmark.newstatistics.CFGdepth,BRANCH,0.8055555555555556,0.8055555555555556,29,36
sandmark.newstatistics.CFGwidth,BRANCH,0.09770114942528736,0.09770114942528736,17,174
sandmark.newstatistics.Statistics,BRANCH,1.0,1.0,5,5
sandmark.newstatistics.StatisticsRecord,BRANCH,0.358974358974359,0.358974358974359,126,351
sandmark.newstatistics.Stats,BRANCH,0.5702247191011236,0.5702247191011236,203,356
sandmark.obfuscate.addbogusfields.AddBogusFields,BRANCH,0.8571428571428571,0.8571428571428571,30,35
sandmark.obfuscate.AllClassesObfuscator,BRANCH,0.0,0.0,0,3
sandmark.obfuscate.appendboguscode.AppendBogusCode,BRANCH,0.8913043478260869,0.8913043478260869,41,46
sandmark.obfuscate.AppObfuscator,BRANCH,1.0,1.0,1,1
sandmark.obfuscate.ArrayObfuscation.arr,BRANCH,0.01694915254237288,0.01694915254237288,1,59
sandmark.obfuscate.ArrayObfuscation.ArrayFolder,BRANCH,0.16445623342175067,0.16445623342175067,62,377
sandmark.obfuscate.ArrayObfuscation.ArraySplitter,BRANCH,0.3476190476190476,0.3476190476190476,73,210
sandmark.obfuscate.ArrayObfuscation.IntArraySplitter,BRANCH,0.28429423459244535,0.2882703777335984,143,503
sandmark.obfuscate.blockmarker.BlockMarker,BRANCH,0.8837209302325582,0.8837209302325582,38,43
sandmark.obfuscate.boguspredicates.bogusPredicates,BRANCH,0.9032258064516129,0.9032258064516129,28,31
sandmark.obfuscate.boolsplitter.BoolSplitter,BRANCH,0.06666666666666667,0.06666666666666667,10,150
sandmark.obfuscate.branchinsertion.BranchInsertion,BRANCH,1.0,1.0,35,35
sandmark.obfuscate.branchinsertion.BranchInsertion2,BRANCH,0.8709677419354839,0.8709677419354839,27,31
sandmark.obfuscate.buggycode.BugCode,BRANCH,0.1016949152542373,0.1016949152542373,12,118
sandmark.obfuscate.ClassObfuscator,BRANCH,1.0,1.0,1,1
sandmark.obfuscate.classsplitter.ClassSplitter,BRANCH,0.5138888888888888,0.5208333333333334,74,144
sandmark.obfuscate.classsplitter.FalseRefactor,BRANCH,0.6744186046511628,0.6744186046511628,29,43
sandmark.obfuscate.dynamicinliner.DynamicInliner,BRANCH,0.35135135135135137,0.35135135135135137,26,74
sandmark.obfuscate.encryptclasses.EncryptedClassLoader,BRANCH,0.041666666666666664,0.041666666666666664,1,24
sandmark.obfuscate.encryptclasses.JarEncrypter,BRANCH,0.7435897435897436,0.7435897435897436,29,39
sandmark.obfuscate.GeneralObfuscator,BRANCH,1.0,1.0,2,2
sandmark.obfuscate.inliner.Inliner,BRANCH,0.23809523809523808,0.23809523809523808,10,42
sandmark.obfuscate.insertopaquepred.InsertOpaquePred,BRANCH,0.1694915254237288,0.1694915254237288,10,59
sandmark.obfuscate.instructionordering.InstructionOrdering,BRANCH,0.32727272727272727,0.32727272727272727,18,55
sandmark.obfuscate.interleavemethods.InterleavedMethod,BRANCH,1.0,1.0,4,4
sandmark.obfuscate.interleavemethods.InterleaveMethods,BRANCH,0.5903614457831325,0.5903614457831325,98,166
sandmark.obfuscate.interleavemethods.Interleaver,BRANCH,0.15897435897435896,0.15897435897435896,31,195
sandmark.obfuscate.interleavemethods.InterleaveUtil,BRANCH,0.34615384615384615,0.34615384615384615,18,52
sandmark.obfuscate.interleavemethods.StackOp,BRANCH,1.0,1.0,1,1
sandmark.obfuscate.interleavemethods.TypeIndex,BRANCH,1.0,1.0,29,29
sandmark.obfuscate.irreducibility.Irreducibility,BRANCH,0.072,0.072,9,125
sandmark.obfuscate.localvar.VariableReassigner,BRANCH,0.8095238095238095,0.8095238095238095,17,21
sandmark.obfuscate.methodmadness.MethodMerger,BRANCH,1.0,1.0,12,12
sandmark.obfuscate.methodmadness.ParamReorder,BRANCH,1.0,1.0,11,11
sandmark.obfuscate.methodmadness.PrimitivePromoter,BRANCH,1.0,1.0,11,11
sandmark.obfuscate.methodmadness.SignatureBludgeoner,BRANCH,1.0,1.0,11,11
sandmark.obfuscate.methodmadness.StaticSplit,BRANCH,1.0,1.0,12,12
sandmark.obfuscate.MethodObfuscator,BRANCH,1.0,1.0,1,1
sandmark.obfuscate.modifyifelse.ModifyIfElse,BRANCH,0.0759493670886076,0.0759493670886076,12,158
sandmark.obfuscate.nameoverloading.NameOverloading,BRANCH,0.8478260869565217,0.8478260869565217,78,92
sandmark.obfuscate.nodesplitter.NodeSplitter,BRANCH,0.6989247311827957,0.7096774193548387,65,93
sandmark.obfuscate.ObfuscationException,BRANCH,1.0,1.0,1,1
sandmark.obfuscate.Obfuscator,BRANCH,1.0,1.0,11,11
sandmark.obfuscate.objectify.Objectify,BRANCH,0.918918918918919,0.918918918918919,34,37
sandmark.obfuscate.paramalias.ParamAlias,BRANCH,0.5925925925925926,0.5925925925925926,48,81
sandmark.obfuscate.promotelocals.PromoteLocals,BRANCH,1.0,1.0,11,11
sandmark.obfuscate.renameidentifiers.RenameLocals,BRANCH,1.0,1.0,31,31
sandmark.obfuscate.reorder.constantpool.CPReorderer,BRANCH,0.5981308411214953,0.5981308411214953,64,107
sandmark.obfuscate.scalarmerger.ScalarMerger,BRANCH,0.4025974025974026,0.4025974025974026,31,77
sandmark.obfuscate.setfieldspublic.SetFieldsPublic,BRANCH,1.0,1.0,12,12
sandmark.obfuscate.stringencoder.LFStringEncoder,BRANCH,0.85,0.85,51,60
sandmark.obfuscate.varsplitter.VarSplitter,BRANCH,0.46153846153846156,0.46153846153846156,42,91
sandmark.optimise.AllClassesOptimizer,BRANCH,0.0,0.0,0,3
sandmark.optimise.AppOptimizer,BRANCH,1.0,1.0,1,1
sandmark.optimise.bloat.BLOAT,BRANCH,0.35714285714285715,0.35714285714285715,10,28
sandmark.optimise.ClassOptimizer,BRANCH,0.0,0.0,0,1
sandmark.optimise.MethodOptimizer,BRANCH,1.0,1.0,1,1
sandmark.optimise.Optimise,BRANCH,0.25,0.25,6,24
sandmark.optimise.OptimizationException,BRANCH,1.0,1.0,1,1
sandmark.optimise.Optimizer,BRANCH,0.7272727272727273,0.7272727272727273,8,11
sandmark.program.Application,BRANCH,0.46938775510204084,0.46938775510204084,69,147
sandmark.program.Class,BRANCH,0.9219858156028369,0.9219858156028369,130,141
sandmark.program.ConstantPoolGen,BRANCH,1.0,1.0,21,21
sandmark.program.Field,BRANCH,1.0,1.0,62,62
sandmark.program.File,BRANCH,1.0,1.0,9,9
sandmark.program.JarElement,BRANCH,0.2,0.2,1,5
sandmark.program.LibraryClass,BRANCH,0.1,0.9,1,10
sandmark.program.LibraryCPG,BRANCH,1.0,1.0,21,21
sandmark.program.LibraryField,BRANCH,1.0,1.0,1,1
sandmark.program.LibraryMethod,BRANCH,1.0,1.0,1,1
sandmark.program.LocalClass,BRANCH,0.75,0.75,6,8
sandmark.program.LocalCPG,BRANCH,1.0,1.0,1,1
sandmark.program.LocalField,BRANCH,1.0,1.0,2,2
sandmark.program.LocalMethod,BRANCH,1.0,1.0,4,4
sandmark.program.Method,BRANCH,0.11194029850746269,0.11194029850746269,15,134
sandmark.program.Object,BRANCH,0.6307692307692307,0.6307692307692307,41,65
sandmark.program.UserObjectConstraints,BRANCH,0.7368421052631579,0.7368421052631579,14,19
sandmark.program.util.AllMethods,BRANCH,0.5454545454545454,0.5454545454545454,6,11
sandmark.program.util.Reference,BRANCH,1.0,1.0,8,8
sandmark.program.util.Renamer,BRANCH,0.3230769230769231,0.3230769230769231,21,65
sandmark.smash.SandmarkCLI,BRANCH,0.35398230088495575,0.36283185840707965,40,113
sandmark.smash.Smash,BRANCH,0.5384615384615384,0.5384615384615384,14,26
sandmark.util.ArrayIterator,BRANCH,1.0,1.0,6,6
sandmark.util.ByteCodeLocation,BRANCH,1.0,1.0,15,15
sandmark.util.CircularBuffer,BRANCH,1.0,1.0,16,16
sandmark.util.classloading.BuildClassList,BRANCH,0.6666666666666666,1.0,6,9
sandmark.util.classloading.ClassFinder,BRANCH,1.0,1.0,4,4
sandmark.util.classloading.DirClassFinder,BRANCH,0.05714285714285714,0.05714285714285714,2,35
sandmark.util.classloading.FileClassFinder,BRANCH,0.7058823529411765,0.7058823529411765,12,17
sandmark.util.classloading.JarClassFinder,BRANCH,0.07692307692307693,0.07692307692307693,2,26
sandmark.util.Combinations,BRANCH,0.9655172413793104,0.9655172413793104,28,29
sandmark.util.ConfigProperties,BRANCH,0.8968253968253969,0.8968253968253969,113,126
sandmark.util.Dot,BRANCH,1.0,1.0,1,1
sandmark.util.Enum2Iter,BRANCH,1.0,1.0,4,4
sandmark.util.exec.HeapData,BRANCH,1.0,1.0,3,3
sandmark.util.exec.HeapNode,BRANCH,1.0,1.0,4,4
sandmark.util.exec.Output,BRANCH,0.07142857142857142,0.07142857142857142,1,14
sandmark.util.exec.TracingException,BRANCH,1.0,1.0,2,2
sandmark.util.exprtree.DependencyGraph,BRANCH,0.14893617021276595,0.14893617021276595,21,141
sandmark.util.exprtree.ExprTree,BRANCH,0.0,0.0,0,428
sandmark.util.exprtree.Node,BRANCH,1.0,1.0,3,3
sandmark.util.exprtree.NodeInfo,BRANCH,1.0,1.0,12,12
sandmark.util.FieldID,BRANCH,1.0,1.0,13,13
sandmark.util.graph.graphview.CreateGraph,BRANCH,1.0,1.0,10,10
sandmark.util.graph.graphview.DummyNode,BRANCH,1.0,1.0,1,1
sandmark.util.graph.graphview.EdgeDisplayInfo,BRANCH,1.0,1.0,7,7
sandmark.util.graph.graphview.GraphLayout,BRANCH,0.02564102564102564,0.02564102564102564,1,39
sandmark.util.graph.graphview.GraphList,BRANCH,1.0,1.0,18,18
sandmark.util.graph.graphview.GraphPanel,BRANCH,0.09154929577464789,0.09219858156028368,13,142
sandmark.util.graph.graphview.GraphViewFrame,BRANCH,0.03571428571428571,0.03571428571428571,1,28
sandmark.util.graph.graphview.GraphZoomSlider,BRANCH,0.6666666666666666,0.6666666666666666,4,6
sandmark.util.graph.graphview.HierarchyTreeLayout,BRANCH,0.2,0.2,1,5
sandmark.util.graph.graphview.LayeredDrawingLayout,BRANCH,0.005681818181818182,0.005681818181818182,1,176
sandmark.util.graph.graphview.MutableGraphPanel,BRANCH,1.0,1.0,2,2
sandmark.util.graph.graphview.NodeDisplayInfo,BRANCH,1.0,1.0,30,30
sandmark.util.graph.graphview.SimpleGraphLayout,BRANCH,0.25,0.25,1,4
sandmark.util.graph.graphview.SpringEmbedderLayout,BRANCH,0.016129032258064516,0.016129032258064516,1,62
sandmark.util.graph.graphview.TreeLayout,BRANCH,0.058823529411764705,0.058823529411764705,1,17
sandmark.util.IdentifierIterator,BRANCH,0.34782608695652173,0.34782608695652173,8,23
sandmark.util.InlinedStackFrame,BRANCH,0.6666666666666666,0.6666666666666666,4,6
sandmark.util.Inliner,BRANCH,0.022727272727272728,0.022727272727272728,1,44
sandmark.util.InstructionTree,BRANCH,0.9444444444444444,0.9444444444444444,17,18
sandmark.util.javagen.AssignField,BRANCH,1.0,1.0,4,4
sandmark.util.javagen.AssignIndex,BRANCH,1.0,1.0,4,4
sandmark.util.javagen.AssignStatic,BRANCH,1.0,1.0,4,4
sandmark.util.javagen.Block,BRANCH,0.3333333333333333,0.3333333333333333,2,6
sandmark.util.javagen.Cast,BRANCH,1.0,1.0,4,4
sandmark.util.javagen.Class,BRANCH,0.7777777777777778,1.0,14,18
sandmark.util.javagen.Comment,BRANCH,1.0,1.0,4,4
sandmark.util.javagen.CondNotNullExpr,BRANCH,1.0,1.0,4,4
sandmark.util.javagen.Discard,BRANCH,1.0,1.0,4,4
sandmark.util.javagen.EmptyStatement,BRANCH,1.0,1.0,4,4
sandmark.util.javagen.Expression,BRANCH,1.0,1.0,3,3
sandmark.util.javagen.Field,BRANCH,1.0,1.0,6,6
sandmark.util.javagen.FieldRef,BRANCH,1.0,1.0,4,4
sandmark.util.javagen.Formal,BRANCH,1.0,1.0,6,6
sandmark.util.javagen.IfNotNull,BRANCH,0.7142857142857143,0.7142857142857143,5,7
sandmark.util.javagen.Java,BRANCH,0.7906976744186046,0.7906976744186046,34,43
sandmark.util.javagen.List,BRANCH,1.0,1.0,17,17
sandmark.util.javagen.LiteralInt,BRANCH,1.0,1.0,4,4
sandmark.util.javagen.LiteralString,BRANCH,1.0,1.0,4,4
sandmark.util.javagen.LoadIndex,BRANCH,1.0,1.0,4,4
sandmark.util.javagen.Local,BRANCH,1.0,1.0,4,4
sandmark.util.javagen.LocalRef,BRANCH,1.0,1.0,8,8
sandmark.util.javagen.Method,BRANCH,0.2,0.2,2,10
sandmark.util.javagen.MyClass,BRANCH,0.6,0.6,3,5
sandmark.util.javagen.New,BRANCH,1.0,1.0,8,8
sandmark.util.javagen.NewArray,BRANCH,1.0,1.0,4,4
sandmark.util.javagen.Null,BRANCH,1.0,1.0,4,4
sandmark.util.javagen.Return,BRANCH,0.75,0.75,6,8
sandmark.util.javagen.Statement,BRANCH,1.0,1.0,1,1
sandmark.util.javagen.StaticCall,BRANCH,0.7777777777777778,0.7777777777777778,7,9
sandmark.util.javagen.StaticFunCall,BRANCH,0.7777777777777778,0.7777777777777778,7,9
sandmark.util.javagen.StaticRef,BRANCH,1.0,1.0,4,4
sandmark.util.javagen.Test,BRANCH,1.0,1.0,20,20
sandmark.util.javagen.Try,BRANCH,0.2,0.2,2,10
sandmark.util.javagen.VirtualCall,BRANCH,0.5555555555555556,0.7777777777777778,5,9
sandmark.util.javagen.VirtualFunCall,BRANCH,0.7777777777777778,0.7777777777777778,7,9
sandmark.util.Log,BRANCH,0.5384615384615384,0.6923076923076923,7,13
sandmark.util.Math,BRANCH,1.0,1.0,33,33
sandmark.util.MethodCaller,BRANCH,0.9,0.9,18,20
sandmark.util.MethodID,BRANCH,1.0,1.0,17,17
sandmark.util.MethodMerger,BRANCH,0.5555555555555556,0.5555555555555556,25,45
sandmark.util.MethodReceiver,BRANCH,0.058823529411764705,0.058823529411764705,1,17
sandmark.util.MethodSignatureChanger,BRANCH,0.08571428571428572,0.08571428571428572,3,35
sandmark.util.Misc,BRANCH,0.8170731707317073,0.8170731707317073,67,82
sandmark.util.MultiIter,BRANCH,0.0,0.0,0,24
sandmark.util.newexprtree.ArithmeticExpr,BRANCH,1.0,1.0,5,5
sandmark.util.newexprtree.ArrayDummyExpr,BRANCH,1.0,1.0,4,4
sandmark.util.newexprtree.ArrayLengthExpr,BRANCH,1.0,1.0,5,5
sandmark.util.newexprtree.ArrayLoadExpr,BRANCH,1.0,1.0,23,23
sandmark.util.newexprtree.ArrayStoreExpr,BRANCH,1.0,1.0,25,25
sandmark.util.newexprtree.BasicBlock,BRANCH,1.0,1.0,12,12
sandmark.util.newexprtree.BinaryArithmeticExpr,BRANCH,1.0,1.0,23,23
sandmark.util.newexprtree.BranchExpr,BRANCH,1.0,1.0,5,5
sandmark.util.newexprtree.ComparisonExpr,BRANCH,0.9642857142857143,0.9642857142857143,27,28
sandmark.util.newexprtree.ComputeExprTree,BRANCH,0.007009345794392523,0.007009345794392523,3,428
sandmark.util.newexprtree.ConstantExpr,BRANCH,1.0,1.0,1,1
sandmark.util.newexprtree.ConversionExpr,BRANCH,1.0,1.0,39,39
sandmark.util.newexprtree.DependencyGraph,BRANCH,0.45323741007194246,0.45323741007194246,63,139
sandmark.util.newexprtree.DummyExpr,BRANCH,1.0,1.0,2,2
sandmark.util.newexprtree.ExceptionDummyExpr,BRANCH,1.0,1.0,3,3
sandmark.util.newexprtree.ExceptionInfo,BRANCH,1.0,1.0,9,9
sandmark.util.newexprtree.Expr,BRANCH,1.0,1.0,1,1
sandmark.util.newexprtree.ExprTree,BRANCH,0.8076923076923077,0.8076923076923077,21,26
sandmark.util.newexprtree.ExprTreeBlock,BRANCH,1.0,1.0,6,6
sandmark.util.newexprtree.ExprTreeCFG,BRANCH,0.21660649819494585,0.21540312876052947,180,831
sandmark.util.newexprtree.ExprTreeNode,BRANCH,1.0,1.0,9,9
sandmark.util.newexprtree.GetFieldExpr,BRANCH,1.0,1.0,12,12
sandmark.util.newexprtree.GotoExpr,BRANCH,1.0,1.0,4,4
sandmark.util.newexprtree.IfExpr,BRANCH,0.8238341968911918,0.8238341968911918,159,193
sandmark.util.newexprtree.IncExpr,BRANCH,1.0,1.0,8,8
sandmark.util.newexprtree.InstanceofExpr,BRANCH,1.0,1.0,6,6
sandmark.util.newexprtree.InvokeExpr,BRANCH,1.0,1.0,25,25
sandmark.util.newexprtree.JsrExpr,BRANCH,1.0,1.0,4,4
sandmark.util.newexprtree.LoadExpr,BRANCH,1.0,1.0,6,6
sandmark.util.newexprtree.MethodExprTree,BRANCH,1.0,1.0,11,11
sandmark.util.newexprtree.MonitorExpr,BRANCH,1.0,1.0,7,7
sandmark.util.newexprtree.NegateArithmeticExpr,BRANCH,1.0,1.0,22,22
sandmark.util.newexprtree.NewArrayExpr,BRANCH,0.9166666666666666,1.0,11,12
sandmark.util.newexprtree.NewExpr,BRANCH,1.0,1.0,3,3
sandmark.util.newexprtree.Node,BRANCH,1.0,1.0,3,3
sandmark.util.newexprtree.NodeInfo,BRANCH,1.0,1.0,12,12
sandmark.util.newexprtree.NopExpr,BRANCH,1.0,1.0,3,3
sandmark.util.newexprtree.NullConstantExpr,BRANCH,1.0,1.0,4,4
sandmark.util.newexprtree.NumericConstantExpr,BRANCH,1.0,1.0,5,5
sandmark.util.newexprtree.ObjectDummyExpr,BRANCH,1.0,1.0,3,3
sandmark.util.newexprtree.PrimitiveDummyExpr,BRANCH,1.0,1.0,2,2
sandmark.util.newexprtree.PutFieldExpr,BRANCH,1.0,1.0,16,16
sandmark.util.newexprtree.RetExpr,BRANCH,1.0,1.0,4,4
sandmark.util.newexprtree.ReturnAddressDummyExpr,BRANCH,1.0,1.0,2,2
sandmark.util.newexprtree.ReturnExpr,BRANCH,1.0,1.0,14,14
sandmark.util.newexprtree.StoreExpr,BRANCH,1.0,1.0,9,9
sandmark.util.newexprtree.StringConstantExpr,BRANCH,1.0,1.0,4,4
sandmark.util.newexprtree.SwitchExpr,BRANCH,1.0,1.0,24,24
sandmark.util.newexprtree.ThrowExpr,BRANCH,1.0,1.0,5,5
sandmark.util.newexprtree.ValueExpr,BRANCH,1.0,1.0,2,2
sandmark.util.newgraph.codec.AbstractCodec,BRANCH,0.5238095238095238,0.6666666666666666,11,21
sandmark.util.newgraph.codec.CatalanNumbers,BRANCH,1.0,1.0,7,7
sandmark.util.newgraph.codec.CycleAndDigitsCodec,BRANCH,0.875,0.875,56,64
sandmark.util.newgraph.codec.CycleAndPathWrapper,BRANCH,0.9477611940298507,0.9626865671641791,127,134
sandmark.util.newgraph.codec.DecodeFailure,BRANCH,1.0,1.0,2,2
sandmark.util.newgraph.codec.DefaultNodeFactory,BRANCH,1.0,1.0,2,2
sandmark.util.newgraph.codec.PermutationGraph,BRANCH,1.0,1.0,17,17
sandmark.util.newgraph.codec.PlantedPlaneCubicTree,BRANCH,0.826530612244898,0.826530612244898,81,98
sandmark.util.newgraph.codec.RadixGraph,BRANCH,1.0,1.0,10,10
sandmark.util.newgraph.codec.ReduciblePermutationGraph,BRANCH,0.898936170212766,0.9042553191489362,169,188
sandmark.util.newgraph.codec.TotallyBalancedBinarySequence,BRANCH,0.85,0.85,34,40
sandmark.util.newgraph.EdgeImpl,BRANCH,1.0,1.0,6,6
sandmark.util.newgraph.LabeledEdge,BRANCH,1.0,1.0,12,12
sandmark.util.newgraph.MutableIteratorWrapper,BRANCH,0.0,0.0,0,3
sandmark.util.newgraph.Node,BRANCH,1.0,1.0,12,12
sandmark.util.newgraph.Path,BRANCH,1.0,1.0,41,41
sandmark.util.newgraph.Status,BRANCH,1.0,1.0,5,5
sandmark.util.newgraph.TypedEdge,BRANCH,1.0,1.0,3,3
sandmark.util.Node,BRANCH,1.0,1.0,1,1
sandmark.util.opaquepredicatelib.AlgebraicPredicateGenerator,BRANCH,0.06382978723404255,0.06382978723404255,3,47
sandmark.util.opaquepredicatelib.DataStructurePredicateGenerator,BRANCH,0.75,0.75,3,4
sandmark.util.opaquepredicatelib.DSPGF1,BRANCH,0.18181818181818182,0.18181818181818182,4,22
sandmark.util.opaquepredicatelib.DSPGF2,BRANCH,0.1111111111111111,0.1111111111111111,3,27
sandmark.util.opaquepredicatelib.DSPGT1,BRANCH,0.09090909090909091,0.09090909090909091,3,33
sandmark.util.opaquepredicatelib.DSPGT2,BRANCH,0.2,0.2,4,20
sandmark.util.opaquepredicatelib.ExprTree,BRANCH,0.6443148688046647,0.6443148688046647,221,343
sandmark.util.opaquepredicatelib.IntComparePredicateGenerator,BRANCH,0.5454545454545454,0.5454545454545454,12,22
sandmark.util.opaquepredicatelib.ObjectComparePredicateGenerator,BRANCH,0.06,0.06,3,50
sandmark.util.opaquepredicatelib.OpaqueManager,BRANCH,1.0,1.0,15,15
sandmark.util.opaquepredicatelib.OpaquePredicateGenerator,BRANCH,0.0625,0.0625,2,32
sandmark.util.opaquepredicatelib.PredicateFactory,BRANCH,1.0,1.0,4,4
sandmark.util.opaquepredicatelib.PredicateInfo,BRANCH,1.0,1.0,3,3
sandmark.util.opaquepredicatelib.smNode,BRANCH,0.9270833333333334,0.9270833333333334,89,96
sandmark.util.opaquepredicatelib.StringOpPredicateGenerator,BRANCH,0.08823529411764706,0.08823529411764706,3,34
sandmark.util.opaquepredicatelib.ThreadPredicateGenerator,BRANCH,0.6666666666666666,0.6666666666666666,20,30
sandmark.util.Options,BRANCH,1.0,1.0,84,84
sandmark.util.outliner.LiveVar,BRANCH,1.0,1.0,9,9
sandmark.util.outliner.OutlineFrame,BRANCH,1.0,1.0,3,3
sandmark.util.outliner.Outliner,BRANCH,0.5555555555555556,0.5555555555555556,10,18
sandmark.util.outliner.OutlineUtil,BRANCH,9.775171065493646E-4,9.775171065493646E-4,1,1023
sandmark.util.ParamReorder,BRANCH,0.46875,0.46875,15,32
sandmark.util.primitivepromotion.LocalPromoter,BRANCH,0.46835443037974683,0.46835443037974683,37,79
sandmark.util.primitivepromotion.ParamPromoter,BRANCH,0.047619047619047616,0.047619047619047616,2,42
sandmark.util.primitivepromotion.PromoterException,BRANCH,1.0,1.0,1,1
sandmark.util.primitivepromotion.PromoterUtil,BRANCH,1.0,1.0,37,37
sandmark.util.primitivepromotion.ReturnPromoter,BRANCH,0.5,0.5,11,22
sandmark.util.PriorityQueue,BRANCH,1.0,1.0,35,35
sandmark.util.Publicizer,BRANCH,0.6708860759493671,0.6708860759493671,53,79
sandmark.util.Random,BRANCH,1.0,1.0,1,1
sandmark.util.SignatureBludgeoner,BRANCH,0.05,0.05,2,40
sandmark.util.SparseVector,BRANCH,1.0,1.0,19,19
sandmark.util.splitint.AdditiveSplitter,BRANCH,1.0,1.0,21,21
sandmark.util.splitint.CombinationSplitter,BRANCH,0.8947368421052632,0.8947368421052632,34,38
sandmark.util.splitint.CRTSplitter,BRANCH,0.9509803921568627,0.9509803921568627,97,102
sandmark.util.splitint.FastCRTSplitter,BRANCH,0.9210526315789473,0.9210526315789473,35,38
sandmark.util.splitint.PartialSumSplitter,BRANCH,0.9375,0.9375,30,32
sandmark.util.splitint.ResidueSplitter,BRANCH,1.0,1.0,2,2
sandmark.util.splitint.ScaledSplitter,BRANCH,1.0,1.0,39,39
sandmark.util.splitint.SlowCRTSplitter,BRANCH,0.775,0.775,62,80
sandmark.util.splitint.ValueSplitter,BRANCH,1.0,1.0,22,22
sandmark.util.StackFrame,BRANCH,1.0,1.0,13,13
sandmark.util.StaticSplit,BRANCH,0.9523809523809523,0.9523809523809523,20,21
sandmark.util.stealth.Cluster,BRANCH,0.14606741573033707,0.14606741573033707,26,178
sandmark.util.stealth.Stealth,BRANCH,0.5769230769230769,0.5769230769230769,15,26
sandmark.util.StringInt,BRANCH,0.8571428571428571,0.8571428571428571,6,7
sandmark.util.TempDir,BRANCH,0.9090909090909091,0.9090909090909091,10,11
sandmark.util.WeakBuffer,BRANCH,1.0,1.0,7,7
sandmark.view.View,BRANCH,1.0,1.0,6,6
sandmark.visualize.heap.SQL,BRANCH,0.9230769230769231,0.9230769230769231,12,13
sandmark.visualize.Visualize,BRANCH,0.8,0.8,8,10
sandmark.watermark.addmethfield.AddMethField,BRANCH,0.8656716417910447,0.8656716417910447,58,67
sandmark.watermark.arboit.AlgOP,BRANCH,0.42671394799054374,0.42671394799054374,361,846
sandmark.watermark.arboit.ArboitAlg,BRANCH,0.9285714285714286,0.9285714285714286,26,28
sandmark.watermark.arboit.Bundle,BRANCH,0.5555555555555556,0.5555555555555556,5,9
sandmark.watermark.arboit.DynamicAA,BRANCH,0.4418604651162791,0.4418604651162791,19,43
sandmark.watermark.arboit.trace.Annotate,BRANCH,1.0,1.0,12,12
sandmark.watermark.arboit.trace.Annotator,BRANCH,1.0,1.0,3,3
sandmark.watermark.arboit.trace.TracePoint,BRANCH,1.0,1.0,8,8
sandmark.watermark.arboit.UtilFunctions,BRANCH,0.4298642533936652,0.4298642533936652,95,221
sandmark.watermark.assignlv.AssignLV,BRANCH,0.8064516129032258,0.8064516129032258,150,186
sandmark.watermark.assignlv.ClassNameMethodBundle,BRANCH,1.0,1.0,5,5
sandmark.watermark.assignlv.FromBinary,BRANCH,0.92,1.0,23,25
sandmark.watermark.assignlv.MethodCompare,BRANCH,0.04,0.04,1,25
sandmark.watermark.assignlv.ToArray,BRANCH,1.0,1.0,3,3
sandmark.watermark.assignlv.ToBinary,BRANCH,0.9565217391304348,0.9565217391304348,22,23
sandmark.watermark.bogusexp.BogusExpression,BRANCH,0.3522727272727273,0.3522727272727273,31,88
sandmark.watermark.bogusinitializer.BogusInitializer,BRANCH,0.9193548387096774,0.8870967741935484,57,62
sandmark.watermark.bogusswitch.Bogus_Switch,BRANCH,0.9795918367346939,0.9795918367346939,48,49
sandmark.watermark.constantstring.ConstantString,BRANCH,0.9642857142857143,0.9642857142857143,27,28
sandmark.watermark.ct.CT,BRANCH,0.7142857142857143,0.7142857142857143,20,28
sandmark.watermark.ct.embed.AddParameters,BRANCH,0.3706896551724138,0.3706896551724138,43,116
sandmark.watermark.ct.embed.DeleteMarkCalls,BRANCH,0.6551724137931034,0.6551724137931034,19,29
sandmark.watermark.ct.embed.Distribute,BRANCH,0.06779661016949153,0.06779661016949153,4,59
sandmark.watermark.ct.embed.EmbedData,BRANCH,1.0,1.0,5,5
sandmark.watermark.ct.embed.Embedder,BRANCH,0.16666666666666666,0.16666666666666666,9,54
sandmark.watermark.ct.embed.Inliner,BRANCH,0.782608695652174,0.782608695652174,18,23
sandmark.watermark.ct.embed.InsertionPoint,BRANCH,1.0,1.0,1,1
sandmark.watermark.ct.embed.InsertionPoints,BRANCH,0.26851851851851855,0.26851851851851855,29,108
sandmark.watermark.ct.embed.InsertStorageCreators,BRANCH,0.6666666666666666,0.6666666666666666,4,6
sandmark.watermark.ct.embed.MarkLocation,BRANCH,0.11764705882352941,0.11764705882352941,2,17
sandmark.watermark.ct.embed.PrepareTrace,BRANCH,1.0,1.0,40,40
sandmark.watermark.ct.embed.ReplaceMarkCalls,BRANCH,0.36363636363636365,0.36363636363636365,4,11
sandmark.watermark.ct.embed.ReplaceWMClass,BRANCH,0.2831858407079646,0.2831858407079646,32,113
sandmark.watermark.ct.encode.Encoder,BRANCH,0.4,0.4,8,20
sandmark.watermark.ct.encode.Graph2IR,BRANCH,0.7931034482758621,0.7931034482758621,46,58
sandmark.watermark.ct.encode.ir.AddEdge,BRANCH,0.6363636363636364,0.6363636363636364,7,11
sandmark.watermark.ct.encode.ir.Build,BRANCH,0.8333333333333334,0.8333333333333334,20,24
sandmark.watermark.ct.encode.ir.Construct,BRANCH,1.0,1.0,5,5
sandmark.watermark.ct.encode.ir.Create,BRANCH,1.0,1.0,5,5
sandmark.watermark.ct.encode.ir.CreateNode,BRANCH,1.0,1.0,4,4
sandmark.watermark.ct.encode.ir.CreateStorage,BRANCH,1.0,1.0,10,10
sandmark.watermark.ct.encode.ir.Debug,BRANCH,1.0,1.0,4,4
sandmark.watermark.ct.encode.ir.Destroy,BRANCH,1.0,1.0,5,5
sandmark.watermark.ct.encode.ir.Destruct,BRANCH,1.0,1.0,5,5
sandmark.watermark.ct.encode.ir.Field,BRANCH,1.0,1.0,11,11
sandmark.watermark.ct.encode.ir.Fixup,BRANCH,1.0,1.0,5,5
sandmark.watermark.ct.encode.ir.FollowLink,BRANCH,1.0,1.0,14,14
sandmark.watermark.ct.encode.ir.Formal,BRANCH,1.0,1.0,8,8
sandmark.watermark.ct.encode.ir.Init,BRANCH,1.0,1.0,5,5
sandmark.watermark.ct.encode.ir.IR,BRANCH,0.45454545454545453,0.45454545454545453,5,11
sandmark.watermark.ct.encode.ir.List,BRANCH,1.0,1.0,23,23
sandmark.watermark.ct.encode.ir.LoadNode,BRANCH,1.0,1.0,4,4
sandmark.watermark.ct.encode.ir.Method,BRANCH,0.7777777777777778,0.7777777777777778,7,9
sandmark.watermark.ct.encode.ir.NodeStorage,BRANCH,1.0,1.0,1,1
sandmark.watermark.ct.encode.ir.PrintGraph,BRANCH,1.0,1.0,4,4
sandmark.watermark.ct.encode.ir.ProtectRegion,BRANCH,0.6,0.6,3,5
sandmark.watermark.ct.encode.ir.SaveNode,BRANCH,1.0,1.0,4,4
sandmark.watermark.ct.encode.ir.StaticCall,BRANCH,1.0,1.0,3,3
sandmark.watermark.ct.encode.ir2ir.AddCasts,BRANCH,0.631578947368421,0.631578947368421,12,19
sandmark.watermark.ct.encode.ir2ir.AddFields,BRANCH,0.4090909090909091,0.4090909090909091,9,22
sandmark.watermark.ct.encode.ir2ir.AddFormals,BRANCH,0.5882352941176471,0.5882352941176471,10,17
sandmark.watermark.ct.encode.ir2ir.Builder,BRANCH,1.0,1.0,6,6
sandmark.watermark.ct.encode.ir2ir.CleanUp,BRANCH,0.9787234042553191,0.9787234042553191,46,47
sandmark.watermark.ct.encode.ir2ir.Debug,BRANCH,0.75,0.75,3,4
sandmark.watermark.ct.encode.ir2ir.Destructors,BRANCH,0.19047619047619047,0.19047619047619047,4,21
sandmark.watermark.ct.encode.ir2ir.InlineFixups,BRANCH,0.5333333333333333,0.5333333333333333,8,15
sandmark.watermark.ct.encode.ir2ir.Protect,BRANCH,0.7045454545454546,0.7045454545454546,31,44
sandmark.watermark.ct.encode.ir2ir.SaveNodes,BRANCH,0.8,0.8,20,25
sandmark.watermark.ct.encode.ir2ir.Transformer,BRANCH,1.0,1.0,1,1
sandmark.watermark.ct.encode.Split,BRANCH,0.8909090909090909,0.8909090909090909,49,55
sandmark.watermark.ct.encode.storage.Array,BRANCH,1.0,1.0,13,13
sandmark.watermark.ct.encode.storage.GlobalStorage,BRANCH,1.0,1.0,28,28
sandmark.watermark.ct.encode.storage.Hash,BRANCH,1.0,1.0,13,13
sandmark.watermark.ct.encode.storage.NodeStorage,BRANCH,1.0,1.0,6,6
sandmark.watermark.ct.encode.storage.Pointer,BRANCH,1.0,1.0,15,15
sandmark.watermark.ct.encode.storage.StorageClass,BRANCH,0.8333333333333334,0.8333333333333334,5,6
sandmark.watermark.ct.encode.storage.Vector,BRANCH,1.0,1.0,14,14
sandmark.watermark.ct.Evaluate,BRANCH,0.375,0.375,6,16
sandmark.watermark.ct.FindWindows,BRANCH,0.04477611940298507,0.04477611940298507,3,67
sandmark.watermark.ct.recognize.RecognizeData,BRANCH,0.5555555555555556,0.5555555555555556,5,9
sandmark.watermark.ct.trace.Annotator,BRANCH,1.0,1.0,6,6
sandmark.watermark.ct.trace.callforest.AllPathsIterator,BRANCH,0.48,0.48,12,25
sandmark.watermark.ct.trace.callforest.Build,BRANCH,0.8909090909090909,0.8909090909090909,49,55
sandmark.watermark.ct.trace.callforest.CallFrame,BRANCH,1.0,1.0,9,9
sandmark.watermark.ct.trace.callforest.Edge,BRANCH,1.0,1.0,4,4
sandmark.watermark.ct.trace.callforest.Forest,BRANCH,1.0,1.0,12,12
sandmark.watermark.ct.trace.callforest.Node,BRANCH,1.0,1.0,53,53
sandmark.watermark.ct.trace.callforest.Path,BRANCH,0.625,0.625,20,32
sandmark.watermark.ct.trace.callforest.PathGenerator,BRANCH,0.0,0.0,0,13
sandmark.watermark.ct.trace.callforest.Test,BRANCH,0.65,0.65,13,20
sandmark.watermark.ct.trace.Preprocessor,BRANCH,0.7857142857142857,0.7857142857142857,11,14
sandmark.watermark.ct.trace.TracePoint,BRANCH,1.0,1.0,14,14
sandmark.watermark.dm.DM,BRANCH,0.4790874524714829,0.4790874524714829,126,263
sandmark.watermark.DynamicEmbedParameters,BRANCH,1.0,1.0,1,1
sandmark.watermark.DynamicRecognizeParameters,BRANCH,1.0,1.0,1,1
sandmark.watermark.DynamicTraceParameters,BRANCH,1.0,1.0,1,1
sandmark.watermark.DynamicWatermarker,BRANCH,0.6666666666666666,0.6666666666666666,18,27
sandmark.watermark.execpath.Analyzer,BRANCH,0.11320754716981132,0.11320754716981132,12,106
sandmark.watermark.execpath.ConditionGenerator,BRANCH,0.00411522633744856,0.00411522633744856,2,486
sandmark.watermark.execpath.ContextCodeGen,BRANCH,0.0,0.0,0,62
sandmark.watermark.execpath.LoopCodeGen,BRANCH,0.047619047619047616,0.047619047619047616,1,21
sandmark.watermark.execpath.NodeIterator,BRANCH,1.0,1.0,5,5
sandmark.watermark.execpath.RecognitionIterator,BRANCH,0.3684210526315789,0.3684210526315789,7,19
sandmark.watermark.execpath.SandmarkListHolder,BRANCH,0.9583333333333334,0.9583333333333334,23,24
sandmark.watermark.execpath.SMLinkedList,BRANCH,1.0,1.0,2,2
sandmark.watermark.execpath.StreamPump,BRANCH,1.0,1.0,3,3
sandmark.watermark.execpath.TraceIndexer,BRANCH,0.7333333333333333,0.7333333333333333,22,30
sandmark.watermark.execpath.TraceNode,BRANCH,0.23529411764705882,0.23529411764705882,4,17
sandmark.watermark.execpath.Tracer,BRANCH,0.5568181818181818,0.5568181818181818,98,176
sandmark.watermark.execpath.TraceReader,BRANCH,1.0,1.0,5,5
sandmark.watermark.execpath.VarValue,BRANCH,0.7647058823529411,0.803921568627451,39,51
sandmark.watermark.execpath.WMCodeGen,BRANCH,0.3829787234042553,0.40425531914893614,18,47
sandmark.watermark.GeneralWatermarker,BRANCH,0.8333333333333334,0.8333333333333334,5,6
sandmark.watermark.gtw.CFGComparator,BRANCH,1.0,1.0,2,2
sandmark.watermark.gtw.ClusterGraph,BRANCH,0.030303030303030304,0.030303030303030304,1,33
sandmark.watermark.gtw.GTW,BRANCH,0.5238095238095238,0.5238095238095238,55,105
sandmark.watermark.gtw.GTWRecognizer,BRANCH,0.25,0.25,15,60
sandmark.watermark.hattrick.HatTrick,BRANCH,0.9054054054054054,0.9054054054054054,67,74
sandmark.watermark.mondenwmark.MondenWmark,BRANCH,0.8040201005025126,0.8040201005025126,160,199
sandmark.watermark.objectwm.CodeBook,BRANCH,1.0,1.0,43,43
sandmark.watermark.objectwm.Config,BRANCH,1.0,1.0,13,13
sandmark.watermark.objectwm.Insertion,BRANCH,0.13559322033898305,0.13559322033898305,16,118
sandmark.watermark.objectwm.InstructionEmbedUtil,BRANCH,0.19666666666666666,0.19666666666666666,59,300
sandmark.watermark.objectwm.MethodCopyUtil,BRANCH,0.002898550724637681,0.002898550724637681,1,345
sandmark.watermark.objectwm.ObjectHelper,BRANCH,0.9767441860465116,0.9767441860465116,84,86
sandmark.watermark.objectwm.ObjectUtil,BRANCH,0.6898148148148148,0.6944444444444444,149,216
sandmark.watermark.objectwm.ObjectWatermark,BRANCH,0.45217391304347826,0.45217391304347826,52,115
sandmark.watermark.objectwm.Profiler,BRANCH,0.09803921568627451,0.09803921568627451,5,51
sandmark.watermark.objectwm.SubstitutionUtil,BRANCH,0.5365853658536586,0.6341463414634146,22,41
sandmark.watermark.objectwm.VectorExtraction,BRANCH,0.8888888888888888,0.8888888888888888,24,27
sandmark.watermark.objectwm.VectorUpdateCtrl,BRANCH,0.9666666666666667,0.9666666666666667,29,30
sandmark.watermark.StaticEmbed,BRANCH,1.0,1.0,2,2
sandmark.watermark.StaticEmbedParameters,BRANCH,1.0,1.0,1,1
sandmark.watermark.StaticRecognize,BRANCH,1.0,1.0,2,2
sandmark.watermark.StaticRecognizeParameters,BRANCH,1.0,1.0,1,1
sandmark.watermark.StaticWatermarker,BRANCH,1.0,1.0,9,9
sandmark.watermark.steganography.ImageHider,BRANCH,1.0,1.0,14,14
sandmark.watermark.steganography.Steganography,BRANCH,0.527027027027027,0.527027027027027,39,74
sandmark.watermark.steganography.StegLoader,BRANCH,0.07692307692307693,0.07692307692307693,2,26
sandmark.watermark.util.BasicBlockMarker,BRANCH,0.6666666666666666,0.6666666666666666,2,3
sandmark.watermark.util.EveryBlockMarker,BRANCH,0.07692307692307693,0.07692307692307693,2,26
sandmark.watermark.util.InsnCountMarker,BRANCH,1.0,1.0,2,2
sandmark.watermark.util.MD5Marker,BRANCH,0.10989010989010989,0.10989010989010989,10,91
sandmark.watermark.util.MethodMarker,BRANCH,1.0,1.0,2,2
sandmark.watermark.util.PutstaticCountMarker,BRANCH,0.9230769230769231,0.9230769230769231,12,13
sandmark.watermark.util.StaticWriteParityMarker,BRANCH,0.1836734693877551,0.1836734693877551,9,49
sandmark.watermark.WatermarkingException,BRANCH,1.0,1.0,2,2
sandmark.wizard.AppProvider,BRANCH,1.0,1.0,7,7
sandmark.wizard.ChoiceRunner,BRANCH,0.9473684210526315,0.9473684210526315,18,19
sandmark.wizard.decision.AllAlgsOnce,BRANCH,0.5,0.5,4,8
sandmark.wizard.decision.priority.MaxPriorityStrategy,BRANCH,0.375,0.375,9,24
sandmark.wizard.decision.random.Random,BRANCH,0.14285714285714285,0.14285714285714285,1,7
sandmark.wizard.DefaultAlgorithmProvider,BRANCH,0.8571428571428571,1.0,6,7
sandmark.wizard.DefaultObjectProvider,BRANCH,1.0,1.0,15,15
sandmark.wizard.evaluation.FixedChange,BRANCH,1.0,1.0,12,12
sandmark.wizard.evaluation.hprof.Hprof,BRANCH,0.041666666666666664,0.041666666666666664,2,48
sandmark.wizard.evaluation.swmetric.MetricChange,BRANCH,0.974025974025974,0.974025974025974,75,77
sandmark.wizard.evaluation.swmetric.Metrics,BRANCH,1.0,1.0,8,8
sandmark.wizard.evaluation.swmetric.MetricSummary,BRANCH,0.2857142857142857,0.2857142857142857,2,7
sandmark.wizard.evaluation.swmetric.StatisticsPrimer,BRANCH,0.36363636363636365,0.36363636363636365,4,11
sandmark.wizard.executive.DAGWatermark,BRANCH,0.1111111111111111,0.1111111111111111,1,9
sandmark.wizard.executive.RandomWatermark,BRANCH,0.8571428571428571,0.8571428571428571,24,28
sandmark.wizard.modeling.Choice,BRANCH,1.0,1.0,5,5
sandmark.wizard.modeling.CorruptStateException,BRANCH,1.0,1.0,2,2
sandmark.wizard.modeling.dfa.DFA,BRANCH,0.8421052631578947,0.8421052631578947,144,171
sandmark.wizard.modeling.dfa.DFAEdge,BRANCH,0.8888888888888888,1.0,8,9
sandmark.wizard.modeling.dfa.DFAModel,BRANCH,0.3132530120481928,0.3132530120481928,26,83
sandmark.wizard.modeling.dfa.DFANode,BRANCH,1.0,1.0,4,4
sandmark.wizard.modeling.dfa.PostprohibitDFA,BRANCH,0.7741935483870968,0.7741935483870968,24,31
sandmark.wizard.modeling.dfa.PostreqDFA,BRANCH,0.851063829787234,0.851063829787234,40,47
sandmark.wizard.modeling.dfa.PreprohibitDFA,BRANCH,1.0,1.0,33,33
sandmark.wizard.modeling.dfa.PrereqDFA,BRANCH,0.9354838709677419,0.9354838709677419,29,31
sandmark.wizard.modeling.dfa.WeightMap,BRANCH,1.0,1.0,5,5
sandmark.wizard.modeling.dfa.WeightPrimer,BRANCH,0.06976744186046512,0.06976744186046512,3,43
sandmark.wizard.modeling.lazydfa.LazyDFA,BRANCH,0.821917808219178,0.821917808219178,60,73
sandmark.wizard.modeling.lazydfa.LazyDFAEdge,BRANCH,1.0,1.0,7,7
sandmark.wizard.modeling.lazydfa.LazyDFAModel,BRANCH,0.8297872340425532,0.8297872340425532,39,47
sandmark.wizard.modeling.lazydfa.LazyDFANode,BRANCH,0.9090909090909091,0.9090909090909091,40,44
sandmark.wizard.modeling.set.CandidateSet,BRANCH,0.03571428571428571,0.03571428571428571,1,28
sandmark.wizard.modeling.set.PriorityQueue,BRANCH,0.5,0.5,10,20
sandmark.wizard.modeling.set.SetModel,BRANCH,0.6521739130434783,0.6521739130434783,75,115
sandmark.wizard.modeling.Util,BRANCH,0.4421052631578947,0.6421052631578947,42,95
sandmark.wizard.modeling.wmdag.WMDAG,BRANCH,0.48695652173913045,0.48695652173913045,56,115
sandmark.wizard.modeling.wmdag.WMDAGNode,BRANCH,0.9166666666666666,0.9166666666666666,11,12
sandmark.wizard.quickprotect.AllAlgsOnce,BRANCH,0.8333333333333334,0.8333333333333334,5,6
sandmark.wizard.quickprotect.DefaultQuickProtect,BRANCH,1.0,1.0,6,6
sandmark.wizard.quickprotect.StaticWatermark,BRANCH,1.0,1.0,9,9
sandmark.wizard.StaticWatermarkProvider,BRANCH,1.0,1.0,1,1
sandmark.wizard.Wizard,BRANCH,0.9230769230769231,0.9230769230769231,12,13
