TARGET_CLASS,criterion,BranchCoverage,Coverage,Covered_Goals,Total_Goals
org.apache.xpath.XPathException,BRANCH,0.7291666666666666,0.7291666666666666,35,48
org.apache.xpath.res.XPATHErrorResources_ru,BRANCH,0.8,0.8,4,5
org.apache.xpath.res.XPATHErrorResources_zh,BRANCH,0.8,0.8,4,5
org.apache.xpath.res.XPATHErrorResources_ca,BRANCH,0.8,0.8,4,5
org.apache.xpath.res.XPATHErrorResources_ja,BRANCH,0.8,0.8,4,5
org.apache.xpath.res.XPATHErrorResources_pl,BRANCH,0.8,0.8,4,5
org.apache.xpath.res.XPATHErrorResources_sl,BRANCH,0.8,0.8,4,5
org.apache.xpath.res.XPATHErrorResources,BRANCH,0.8,0.8,4,5
org.apache.xpath.res.XPATHErrorResources_tr,BRANCH,0.8,0.8,4,5
org.apache.xpath.res.XPATHErrorResources_sk,BRANCH,0.8,0.8,4,5
org.apache.xpath.res.XPATHErrorResources_sv,BRANCH,1.0,1.0,2,2
org.apache.xpath.res.XPATHMessages,BRANCH,0.9047619047619048,0.9047619047619048,19,21
org.apache.xpath.res.XPATHErrorResources_de,BRANCH,0.8,0.8,4,5
org.apache.xpath.res.XPATHErrorResources_zh_TW,BRANCH,0.8,0.8,4,5
org.apache.xpath.res.XPATHErrorResources_it,BRANCH,0.8,0.8,4,5
org.apache.xpath.res.XPATHErrorResources_en,BRANCH,1.0,1.0,1,1
org.apache.xpath.res.XPATHErrorResources_hu,BRANCH,0.8,0.8,4,5
org.apache.xpath.res.XPATHErrorResources_pt_BR,BRANCH,0.8,0.8,4,5
org.apache.xpath.res.XPATHErrorResources_zh_CN,BRANCH,1.0,1.0,1,1
org.apache.xpath.res.XPATHErrorResources_cs,BRANCH,0.8,0.8,4,5
org.apache.xpath.res.XPATHErrorResources_es,BRANCH,0.8,0.8,4,5
org.apache.xpath.res.XPATHErrorResources_ko,BRANCH,0.8,0.8,4,5
org.apache.xpath.res.XPATHErrorResources_fr,BRANCH,0.8,0.8,4,5
org.apache.xpath.operations.Neg,BRANCH,1.0,1.0,3,3
org.apache.xpath.operations.Mult,BRANCH,1.0,1.0,3,3
org.apache.xpath.operations.Operation,BRANCH,0.8571428571428571,0.8571428571428571,24,28
org.apache.xpath.operations.Plus,BRANCH,1.0,1.0,3,3
org.apache.xpath.operations.Or,BRANCH,0.7777777777777778,0.7777777777777778,7,9
org.apache.xpath.operations.Quo,BRANCH,1.0,1.0,2,2
org.apache.xpath.operations.Gt,BRANCH,1.0,1.0,3,3
org.apache.xpath.operations.VariableSafeAbsRef,BRANCH,0.3333333333333333,0.3333333333333333,1,3
org.apache.xpath.operations.String,BRANCH,1.0,1.0,2,2
org.apache.xpath.operations.Variable,BRANCH,0.4666666666666667,0.4666666666666667,28,60
org.apache.xpath.operations.Mod,BRANCH,1.0,1.0,3,3
org.apache.xpath.operations.Lte,BRANCH,1.0,1.0,3,3
org.apache.xpath.operations.Div,BRANCH,1.0,1.0,3,3
org.apache.xpath.operations.Minus,BRANCH,1.0,1.0,3,3
org.apache.xpath.operations.Equals,BRANCH,1.0,1.0,5,5
org.apache.xpath.operations.Gte,BRANCH,1.0,1.0,3,3
org.apache.xpath.operations.NotEquals,BRANCH,1.0,1.0,3,3
org.apache.xpath.operations.Number,BRANCH,1.0,1.0,4,4
org.apache.xpath.operations.Bool,BRANCH,1.0,1.0,6,6
org.apache.xpath.operations.UnaryOperation,BRANCH,0.8823529411764706,0.8823529411764706,15,17
org.apache.xpath.operations.Lt,BRANCH,1.0,1.0,3,3
org.apache.xpath.operations.And,BRANCH,1.0,1.0,9,9
org.apache.xpath.functions.FunctionMultiArgs,BRANCH,0.7692307692307693,0.7692307692307693,30,39
org.apache.xpath.functions.FuncNot,BRANCH,1.0,1.0,3,3
org.apache.xpath.functions.FuncCurrent,BRANCH,0.875,0.875,7,8
org.apache.xpath.functions.FuncCeiling,BRANCH,1.0,1.0,2,2
org.apache.xpath.functions.FuncExtFunction,BRANCH,0.9393939393939394,0.9393939393939394,31,33
org.apache.xpath.functions.FuncString,BRANCH,1.0,1.0,2,2
org.apache.xpath.functions.FuncSubstringAfter,BRANCH,1.0,1.0,3,3
org.apache.xpath.functions.FunctionDef1Arg,BRANCH,1.0,1.0,18,18
org.apache.xpath.functions.FunctionOneArg,BRANCH,1.0,1.0,24,24
org.apache.xpath.functions.FuncExtFunctionAvailable,BRANCH,0.5714285714285714,0.5714285714285714,8,14
org.apache.xpath.functions.FuncLast,BRANCH,0.9090909090909091,0.9090909090909091,10,11
org.apache.xpath.functions.FuncCount,BRANCH,1.0,1.0,2,2
org.apache.xpath.functions.FuncRound,BRANCH,1.0,1.0,7,7
org.apache.xpath.functions.FuncDoclocation,BRANCH,0.4444444444444444,0.4444444444444444,4,9
org.apache.xpath.functions.FuncFloor,BRANCH,1.0,1.0,2,2
org.apache.xpath.functions.FuncFalse,BRANCH,1.0,1.0,3,3
org.apache.xpath.functions.FuncPosition,BRANCH,0.7894736842105263,0.7894736842105263,15,19
org.apache.xpath.functions.FuncNumber,BRANCH,1.0,1.0,2,2
org.apache.xpath.functions.FuncSubstring,BRANCH,0.2,0.2,4,20
org.apache.xpath.functions.WrongNumberArgsException,BRANCH,1.0,1.0,1,1
org.apache.xpath.functions.FuncStartsWith,BRANCH,1.0,1.0,3,3
org.apache.xpath.functions.FuncQname,BRANCH,0.6,0.6,3,5
org.apache.xpath.functions.FuncNormalizeSpace,BRANCH,1.0,1.0,6,6
org.apache.xpath.functions.FuncConcat,BRANCH,1.0,1.0,10,10
org.apache.xpath.functions.FuncContains,BRANCH,1.0,1.0,7,7
org.apache.xpath.functions.ObjectFactory,BRANCH,0.684931506849315,0.684931506849315,50,73
org.apache.xpath.functions.FuncGenerateId,BRANCH,1.0,1.0,3,3
org.apache.xpath.functions.FuncSystemProperty,BRANCH,0.18181818181818182,0.18181818181818182,4,22
org.apache.xpath.functions.FuncSum,BRANCH,0.8,0.8,4,5
org.apache.xpath.functions.FuncLocalPart,BRANCH,0.4444444444444444,0.4444444444444444,4,9
org.apache.xpath.functions.FuncBoolean,BRANCH,1.0,1.0,3,3
org.apache.xpath.functions.FuncNamespace,BRANCH,0.23076923076923078,0.23076923076923078,3,13
org.apache.xpath.functions.FuncId,BRANCH,0.034482758620689655,0.034482758620689655,1,29
org.apache.xpath.functions.Function,BRANCH,0.9166666666666666,0.9166666666666666,11,12
org.apache.xpath.functions.FuncTranslate,BRANCH,0.14285714285714285,0.14285714285714285,1,7
org.apache.xpath.functions.SecuritySupport,BRANCH,1.0,1.0,11,11
org.apache.xpath.functions.FuncLang,BRANCH,0.26666666666666666,0.26666666666666666,4,15
org.apache.xpath.functions.Function2Args,BRANCH,0.8928571428571429,0.8928571428571429,25,28
org.apache.xpath.functions.SecuritySupport12,BRANCH,0.9629629629629629,0.9629629629629629,26,27
org.apache.xpath.functions.FuncTrue,BRANCH,1.0,1.0,3,3
org.apache.xpath.functions.FuncUnparsedEntityURI,BRANCH,1.0,1.0,2,2
org.apache.xpath.functions.Function3Args,BRANCH,0.9285714285714286,0.9285714285714286,26,28
org.apache.xpath.functions.FuncExtElementAvailable,BRANCH,0.3076923076923077,0.3076923076923077,4,13
org.apache.xpath.functions.FuncSubstringBefore,BRANCH,1.0,1.0,3,3
org.apache.xpath.functions.FuncStringLength,BRANCH,1.0,1.0,2,2
org.apache.xpath.XPathVisitor,BRANCH,1.0,1.0,13,13
org.apache.xpath.SourceTree,BRANCH,1.0,1.0,1,1
org.apache.xpath.CachedXPathAPI,BRANCH,1.0,1.0,13,13
org.apache.xpath.axes.LocPathIterator,BRANCH,0.8247422680412371,0.8041237113402062,80,97
org.apache.xpath.axes.RTFIterator,BRANCH,1.0,1.0,1,1
org.apache.xpath.axes.PredicatedNodeTest,BRANCH,0.5473684210526316,0.5473684210526316,52,95
org.apache.xpath.axes.MatchPatternIterator,BRANCH,0.0,0.0,0,43
org.apache.xpath.axes.FilterExprIterator,BRANCH,1.0,1.0,22,22
org.apache.xpath.axes.WalkerFactory,BRANCH,0.5287234042553192,0.5287234042553192,497,940
org.apache.xpath.axes.OneStepIteratorForward,BRANCH,1.0,1.0,10,10
org.apache.xpath.axes.AxesWalker,BRANCH,0.8208955223880597,0.8208955223880597,55,67
org.apache.xpath.axes.FilterExprIteratorSimple,BRANCH,0.9354838709677419,0.9354838709677419,29,31
org.apache.xpath.axes.IteratorPool,BRANCH,1.0,1.0,10,10
org.apache.xpath.axes.ChildIterator,BRANCH,0.7777777777777778,0.7777777777777778,7,9
org.apache.xpath.axes.UnionChildIterator,BRANCH,0.5333333333333333,0.5333333333333333,8,15
org.apache.xpath.axes.WalkingIterator,BRANCH,0.8888888888888888,0.8888888888888888,40,45
org.apache.xpath.axes.AttributeIterator,BRANCH,0.25,0.25,1,4
org.apache.xpath.axes.OneStepIterator,BRANCH,0.5,0.5,24,48
org.apache.xpath.axes.UnionPathIterator,BRANCH,0.5851063829787234,0.5851063829787234,55,94
org.apache.xpath.axes.NodeSequence,BRANCH,0.9141104294478528,0.9141104294478528,149,163
org.apache.xpath.axes.FilterExprWalker,BRANCH,0.5952380952380952,0.5952380952380952,25,42
org.apache.xpath.axes.ChildTestIterator,BRANCH,1.0,1.0,9,9
org.apache.xpath.axes.HasPositionalPredChecker,BRANCH,0.9642857142857143,0.9642857142857143,27,28
org.apache.xpath.axes.SelfIteratorNoPredicate,BRANCH,1.0,1.0,10,10
org.apache.xpath.axes.DescendantIterator,BRANCH,0.3561643835616438,0.3561643835616438,26,73
org.apache.xpath.axes.BasicTestIterator,BRANCH,0.5357142857142857,0.5357142857142857,15,28
org.apache.xpath.axes.WalkingIteratorSorted,BRANCH,0.972972972972973,0.972972972972973,36,37
org.apache.xpath.axes.ReverseAxesWalker,BRANCH,0.8095238095238095,0.8095238095238095,17,21
org.apache.xpath.compiler.Compiler,BRANCH,0.706140350877193,0.706140350877193,161,228
org.apache.xpath.compiler.Keywords,BRANCH,1.0,1.0,5,5
org.apache.xpath.compiler.FunctionTable,BRANCH,1.0,1.0,15,15
org.apache.xpath.compiler.PsuedoNames,BRANCH,1.0,1.0,1,1
org.apache.xpath.compiler.XPathDumper,BRANCH,1.0,1.0,1,1
org.apache.xpath.compiler.Lexer,BRANCH,0.8781725888324873,0.883248730964467,173,197
org.apache.xpath.compiler.OpMap,BRANCH,0.8709677419354839,0.8870967741935484,54,62
org.apache.xpath.compiler.OpMapVector,BRANCH,1.0,1.0,5,5
org.apache.xpath.compiler.OpCodes,BRANCH,1.0,1.0,1,1
org.apache.xpath.NodeSet,BRANCH,0.926829268292683,0.926829268292683,190,205
org.apache.xpath.XPath,BRANCH,0.7068965517241379,0.7758620689655172,41,58
org.apache.xpath.Arg,BRANCH,1.0,1.0,19,19
org.apache.xpath.NodeSetDTM,BRANCH,0.9826086956521739,0.9826086956521739,113,115
org.apache.xpath.FoundIndex,BRANCH,1.0,1.0,1,1
org.apache.xpath.VariableStack,BRANCH,0.8035714285714286,0.8035714285714286,45,56
org.apache.xpath.patterns.StepPattern,BRANCH,0.6505376344086021,0.6505376344086021,121,186
org.apache.xpath.patterns.ContextMatchStepPattern,BRANCH,0.12903225806451613,0.12903225806451613,4,31
org.apache.xpath.patterns.FunctionPattern,BRANCH,0.90625,0.90625,29,32
org.apache.xpath.patterns.UnionPattern,BRANCH,0.9111111111111111,0.9111111111111111,41,45
org.apache.xpath.patterns.NodeTest,BRANCH,0.615,0.615,123,200
org.apache.xpath.Expression,BRANCH,0.9761904761904762,0.9761904761904762,41,42
org.apache.xpath.jaxp.JAXPPrefixResolver,BRANCH,0.9615384615384616,0.9615384615384616,25,26
org.apache.xpath.jaxp.JAXPExtensionsProvider,BRANCH,0.84,0.84,21,25
org.apache.xpath.jaxp.XPathImpl,BRANCH,0.6885245901639344,0.6885245901639344,42,61
org.apache.xpath.jaxp.XPathFactoryImpl,BRANCH,0.95,0.95,19,20
org.apache.xpath.jaxp.JAXPVariableStack,BRANCH,0.6,0.6,3,5
org.apache.xpath.jaxp.XPathExpressionImpl,BRANCH,0.8085106382978723,0.8085106382978723,38,47
org.apache.xpath.domapi.XPathNamespaceImpl,BRANCH,1.0,1.0,39,39
org.apache.xpath.domapi.XPathResultImpl,BRANCH,0.9166666666666666,0.9166666666666666,121,132
org.apache.xpath.domapi.XPathStylesheetDOM3Exception,BRANCH,1.0,1.0,1,1
org.apache.xpath.domapi.XPathNSResolverImpl,BRANCH,1.0,1.0,2,2
org.apache.xpath.domapi.XPathEvaluatorImpl,BRANCH,0.9285714285714286,0.9285714285714286,13,14
org.apache.xpath.domapi.XPathExpressionImpl,BRANCH,0.9629629629629629,0.9629629629629629,26,27
org.apache.xpath.SourceTreeManager,BRANCH,0.9361702127659575,0.9361702127659575,44,47
org.apache.xpath.objects.Comparator,BRANCH,1.0,1.0,1,1
org.apache.xpath.objects.XStringForFSB,BRANCH,0.7724137931034483,0.7724137931034483,112,145
org.apache.xpath.objects.XBoolean,BRANCH,1.0,1.0,15,15
org.apache.xpath.objects.XBooleanStatic,BRANCH,1.0,1.0,3,3
org.apache.xpath.objects.XNodeSet,BRANCH,0.9418604651162791,0.9418604651162791,81,86
org.apache.xpath.objects.GreaterThanComparator,BRANCH,1.0,1.0,5,5
org.apache.xpath.objects.XObjectFactory,BRANCH,1.0,1.0,29,29
org.apache.xpath.objects.GreaterThanOrEqualComparator,BRANCH,1.0,1.0,5,5
org.apache.xpath.objects.XNull,BRANCH,1.0,1.0,9,9
org.apache.xpath.objects.XMLStringFactoryImpl,BRANCH,1.0,1.0,6,6
org.apache.xpath.objects.EqualComparator,BRANCH,1.0,1.0,4,4
org.apache.xpath.objects.LessThanOrEqualComparator,BRANCH,1.0,1.0,5,5
org.apache.xpath.objects.XStringForChars,BRANCH,1.0,1.0,14,14
org.apache.xpath.objects.XRTreeFrag,BRANCH,0.7435897435897436,0.7435897435897436,29,39
org.apache.xpath.objects.LessThanComparator,BRANCH,1.0,1.0,5,5
org.apache.xpath.objects.XNodeSetForDOM,BRANCH,1.0,1.0,10,10
org.apache.xpath.objects.XNumber,BRANCH,0.78,0.92,39,50
org.apache.xpath.objects.NotEqualComparator,BRANCH,1.0,1.0,5,5
org.apache.xpath.objects.XRTreeFragSelectWrapper,BRANCH,1.0,1.0,11,11
org.apache.xpath.objects.XString,BRANCH,1.0,1.0,122,122
org.apache.xpath.objects.DTMXRTreeFrag,BRANCH,1.0,1.0,10,10
org.apache.xpath.objects.XObject,BRANCH,0.9876543209876543,1.0,80,81
org.apache.xpath.XPathContext,BRANCH,0.950354609929078,0.950354609929078,134,141
org.apache.xpath.XPathProcessorException,BRANCH,1.0,1.0,2,2
org.apache.xpath.XPathAPI,BRANCH,1.0,1.0,11,11
org.apache.xalan.res.XSLTErrorResources_sl,BRANCH,0.8,0.8,4,5
org.apache.xalan.res.XSLTErrorResources_de,BRANCH,0.8,0.8,4,5
org.apache.xalan.res.XSLTErrorResources_es,BRANCH,0.8,0.8,4,5
org.apache.xalan.res.XSLTErrorResources_sk,BRANCH,0.8,0.8,4,5
org.apache.xalan.res.XSLTErrorResources_sv,BRANCH,1.0,1.0,2,2
org.apache.xalan.res.XSLTErrorResources_tr,BRANCH,0.8,0.8,4,5
org.apache.xalan.res.XSLTErrorResources_it,BRANCH,0.8,0.8,4,5
org.apache.xalan.res.XSLTErrorResources_ja,BRANCH,0.8,0.8,4,5
org.apache.xalan.res.XSLTErrorResources_pt_BR,BRANCH,0.8,0.8,4,5
org.apache.xalan.res.XSLTErrorResources_fr,BRANCH,0.8,0.8,4,5
org.apache.xalan.res.XSLTErrorResources_cs,BRANCH,0.8,0.8,4,5
org.apache.xalan.res.XSLTErrorResources_en,BRANCH,1.0,1.0,1,1
org.apache.xalan.res.XSLTErrorResources,BRANCH,0.8,0.8,4,5
org.apache.xalan.res.XSLTErrorResources_ko,BRANCH,0.8,0.8,4,5
org.apache.xalan.res.XSLTErrorResources_zh_CN,BRANCH,1.0,1.0,1,1
org.apache.xalan.res.XSLMessages,BRANCH,0.7777777777777778,0.7777777777777778,7,9
org.apache.xalan.res.XSLTErrorResources_ru,BRANCH,0.8,0.8,4,5
org.apache.xalan.res.XSLTErrorResources_hu,BRANCH,0.8,0.8,4,5
org.apache.xalan.res.XSLTErrorResources_pl,BRANCH,0.8,0.8,4,5
org.apache.xalan.res.XSLTErrorResources_zh_TW,BRANCH,0.8,0.8,4,5
org.apache.xalan.res.XSLTErrorResources_zh,BRANCH,0.8,0.8,4,5
org.apache.xalan.res.XSLTErrorResources_ca,BRANCH,0.8,0.8,4,5
org.apache.xalan.lib.ExsltCommon,BRANCH,1.0,1.0,12,12
org.apache.xalan.lib.ExsltMath,BRANCH,0.984375,0.984375,63,64
org.apache.xalan.lib.NodeInfo,BRANCH,0.5151515151515151,0.5151515151515151,17,33
org.apache.xalan.lib.ObjectFactory,BRANCH,0.684931506849315,0.684931506849315,50,73
org.apache.xalan.lib.ExsltBase,BRANCH,1.0,1.0,8,8
org.apache.xalan.lib.ExsltDynamic,BRANCH,0.8450704225352113,0.8450704225352113,60,71
org.apache.xalan.lib.ExsltDatetime,BRANCH,0.781021897810219,0.781021897810219,107,137
org.apache.xalan.lib.sql.QueryParameter,BRANCH,1.0,1.0,16,16
org.apache.xalan.lib.sql.ConnectionPoolManager,BRANCH,0.9,0.9,9,10
org.apache.xalan.lib.sql.SQLErrorDocument,BRANCH,1.0,1.0,25,25
org.apache.xalan.lib.sql.JNDIConnectionPool,BRANCH,1.0,1.0,36,36
org.apache.xalan.lib.sql.PooledConnection,BRANCH,0.8333333333333334,0.8333333333333334,5,6
org.apache.xalan.lib.sql.ObjectFactory,BRANCH,0.684931506849315,0.684931506849315,50,73
org.apache.xalan.lib.sql.ObjectArray,BRANCH,1.0,1.0,14,14
org.apache.xalan.lib.sql.DefaultConnectionPool,BRANCH,0.4528301886792453,0.4528301886792453,24,53
org.apache.xalan.lib.sql.DTMDocument,BRANCH,0.46206896551724136,0.46206896551724136,134,290
org.apache.xalan.lib.sql.SecuritySupport,BRANCH,1.0,1.0,11,11
org.apache.xalan.lib.sql.SecuritySupport12,BRANCH,0.9629629629629629,0.9629629629629629,26,27
org.apache.xalan.lib.sql.SQLDocument,BRANCH,0.13333333333333333,0.13333333333333333,16,120
org.apache.xalan.lib.sql.SQLQueryParser,BRANCH,0.8888888888888888,0.905982905982906,104,117
org.apache.xalan.lib.sql.XConnection,BRANCH,0.7421052631578947,0.7473684210526316,141,190
org.apache.xalan.lib.SecuritySupport,BRANCH,1.0,1.0,11,11
org.apache.xalan.lib.ExsltSets,BRANCH,0.975609756097561,0.975609756097561,40,41
org.apache.xalan.lib.SecuritySupport12,BRANCH,0.9629629629629629,0.9629629629629629,26,27
org.apache.xalan.lib.Redirect,BRANCH,0.05263157894736842,0.05263157894736842,4,76
org.apache.xalan.lib.PipeDocument,BRANCH,0.12,0.12,3,25
org.apache.xalan.client.XSLTProcessorApplet,BRANCH,0.017857142857142856,0.017857142857142856,1,56
org.apache.xalan.trace.GenerateEvent,BRANCH,1.0,1.0,5,5
org.apache.xalan.trace.PrintTraceListener,BRANCH,0.7922077922077922,0.7922077922077922,61,77
org.apache.xalan.trace.EndSelectionEvent,BRANCH,1.0,1.0,1,1
org.apache.xalan.trace.TraceManager,BRANCH,0.9701492537313433,0.9850746268656716,65,67
org.apache.xalan.trace.ExtensionEvent,BRANCH,1.0,1.0,3,3
org.apache.xalan.trace.TracerEvent,BRANCH,0.9411764705882353,0.9411764705882353,16,17
org.apache.xalan.trace.SelectionEvent,BRANCH,1.0,1.0,1,1
org.apache.xalan.xslt.EnvironmentCheck,BRANCH,0.9279279279279279,0.9279279279279279,103,111
org.apache.xalan.xslt.ObjectFactory,BRANCH,0.7397260273972602,0.7397260273972602,54,73
org.apache.xalan.xslt.Process,BRANCH,0.6498316498316499,0.6498316498316499,193,297
org.apache.xalan.xslt.SecuritySupport,BRANCH,1.0,1.0,11,11
org.apache.xalan.xslt.SecuritySupport12,BRANCH,0.9629629629629629,0.9629629629629629,26,27
org.apache.xalan.processor.ProcessorLRE,BRANCH,0.7936507936507936,0.7936507936507936,50,63
org.apache.xalan.processor.XSLTElementProcessor,BRANCH,0.7419354838709677,0.7419354838709677,46,62
org.apache.xalan.processor.ProcessorNamespaceAlias,BRANCH,0.1111111111111111,0.1111111111111111,1,9
org.apache.xalan.processor.ProcessorStylesheetDoc,BRANCH,1.0,1.0,1,1
org.apache.xalan.processor.ProcessorGlobalVariableDecl,BRANCH,1.0,1.0,3,3
org.apache.xalan.processor.ProcessorStylesheetElement,BRANCH,0.875,0.875,7,8
org.apache.xalan.processor.ProcessorText,BRANCH,1.0,1.0,3,3
org.apache.xalan.processor.XSLTSchema,BRANCH,1.0,1.0,5,5
org.apache.xalan.processor.StylesheetHandler,BRANCH,0.7640449438202247,0.7640449438202247,136,178
org.apache.xalan.processor.ProcessorTemplateElem,BRANCH,1.0,1.0,5,5
org.apache.xalan.processor.ProcessorUnknown,BRANCH,1.0,1.0,1,1
org.apache.xalan.processor.ProcessorAttributeSet,BRANCH,1.0,1.0,3,3
org.apache.xalan.processor.XSLTAttributeDef,BRANCH,0.9262672811059908,0.9539170506912442,201,217
org.apache.xalan.processor.WhitespaceInfoPaths,BRANCH,1.0,1.0,4,4
org.apache.xalan.processor.ProcessorStripSpace,BRANCH,0.3333333333333333,0.3333333333333333,1,3
org.apache.xalan.processor.TransformerFactoryImpl,BRANCH,0.85,0.7833333333333333,102,120
org.apache.xalan.processor.ProcessorImport,BRANCH,1.0,1.0,3,3
org.apache.xalan.processor.ProcessorInclude,BRANCH,0.3888888888888889,0.3888888888888889,14,36
org.apache.xalan.processor.ProcessorPreserveSpace,BRANCH,0.3333333333333333,0.3333333333333333,1,3
org.apache.xalan.processor.XSLProcessorVersion,BRANCH,1.0,1.0,2,2
org.apache.xalan.processor.ProcessorTemplate,BRANCH,1.0,1.0,2,2
org.apache.xalan.processor.ProcessorOutputElem,BRANCH,0.9333333333333333,0.9333333333333333,14,15
org.apache.xalan.processor.ProcessorGlobalParamDecl,BRANCH,1.0,1.0,3,3
org.apache.xalan.processor.XSLTElementDef,BRANCH,0.9407894736842105,0.9407894736842105,143,152
org.apache.xalan.processor.ProcessorCharacters,BRANCH,0.9473684210526315,0.9473684210526315,18,19
org.apache.xalan.processor.ProcessorExsltFuncResult,BRANCH,0.07692307692307693,0.07692307692307693,1,13
org.apache.xalan.processor.ProcessorExsltFunction,BRANCH,0.8,0.8,52,65
org.apache.xalan.processor.ProcessorDecimalFormat,BRANCH,1.0,1.0,2,2
org.apache.xalan.processor.ProcessorKey,BRANCH,0.9545454545454546,0.9545454545454546,21,22
org.apache.xalan.extensions.XSLProcessorContext,BRANCH,0.7962962962962963,0.7962962962962963,43,54
org.apache.xalan.extensions.XPathFunctionImpl,BRANCH,1.0,1.0,6,6
org.apache.xalan.extensions.XPathFunctionResolverImpl,BRANCH,0.8974358974358975,0.8974358974358975,35,39
org.apache.xalan.extensions.ExtensionNamespacesManager,BRANCH,0.9705882352941176,0.9705882352941176,33,34
org.apache.xalan.extensions.ExtensionHandler,BRANCH,1.0,1.0,3,3
org.apache.xalan.extensions.ExtensionNamespaceContext,BRANCH,0.92,0.92,46,50
org.apache.xalan.extensions.ObjectFactory,BRANCH,0.7397260273972602,0.7397260273972602,54,73
org.apache.xalan.extensions.ExpressionVisitor,BRANCH,0.7142857142857143,0.7142857142857143,5,7
org.apache.xalan.extensions.ExtensionsTable,BRANCH,0.0,0.0,0,22
org.apache.xalan.extensions.ExtensionHandlerExsltFunction,BRANCH,0.24390243902439024,0.24390243902439024,10,41
org.apache.xalan.extensions.ExtensionHandlerJavaClass,BRANCH,0.5,0.5,50,100
org.apache.xalan.extensions.ExtensionHandlerJava,BRANCH,1.0,1.0,3,3
org.apache.xalan.extensions.SecuritySupport,BRANCH,1.0,1.0,11,11
org.apache.xalan.extensions.ExtensionNamespaceSupport,BRANCH,1.0,1.0,13,13
org.apache.xalan.extensions.ExtensionHandlerGeneral,BRANCH,0.43902439024390244,0.43902439024390244,18,41
org.apache.xalan.extensions.SecuritySupport12,BRANCH,0.9629629629629629,0.9629629629629629,26,27
org.apache.xalan.extensions.ExtensionHandlerJavaPackage,BRANCH,0.6046511627906976,0.6046511627906976,52,86
org.apache.xalan.extensions.MethodResolver,BRANCH,0.7256637168141593,0.7256637168141593,164,226
org.apache.xalan.Version,BRANCH,0.8181818181818182,0.8181818181818182,9,11
org.apache.xalan.transformer.CountersTable,BRANCH,0.46153846153846156,0.46153846153846156,12,26
org.apache.xalan.transformer.TreeWalker2Result,BRANCH,0.25,0.25,3,12
org.apache.xalan.transformer.TrAXFilter,BRANCH,0.7142857142857143,0.7142857142857143,15,21
org.apache.xalan.transformer.QueuedEvents,BRANCH,0.0,0.0,0,7
org.apache.xalan.transformer.TransformerHandlerImpl,BRANCH,0.6814814814814815,0.6814814814814815,92,135
org.apache.xalan.transformer.ResultNameSpace,BRANCH,1.0,1.0,1,1
org.apache.xalan.transformer.ClonerToResultTree,BRANCH,0.9090909090909091,0.9090909090909091,30,33
org.apache.xalan.transformer.XalanTransformState,BRANCH,1.0,1.0,19,19
org.apache.xalan.transformer.MsgMgr,BRANCH,0.6666666666666666,0.6666666666666666,12,18
org.apache.xalan.transformer.NodeSortKey,BRANCH,0.75,0.75,6,8
org.apache.xalan.transformer.KeyTable,BRANCH,0.03571428571428571,0.03571428571428571,1,28
org.apache.xalan.transformer.KeyIterator,BRANCH,0.5454545454545454,0.5454545454545454,6,11
org.apache.xalan.transformer.Counter,BRANCH,1.0,1.0,9,9
org.apache.xalan.transformer.SerializerSwitcher,BRANCH,0.6875,0.6875,22,32
org.apache.xalan.transformer.StackGuard,BRANCH,0.37037037037037035,0.37037037037037035,10,27
org.apache.xalan.transformer.TransformSnapshotImpl,BRANCH,0.0,0.0,0,10
org.apache.xalan.transformer.TransformerImpl,BRANCH,0.5531914893617021,0.5531914893617021,260,470
org.apache.xalan.transformer.KeyRefIterator,BRANCH,0.13043478260869565,0.13043478260869565,3,23
org.apache.xalan.transformer.TransformerIdentityImpl,BRANCH,0.842391304347826,0.842391304347826,155,184
org.apache.xalan.transformer.XalanProperties,BRANCH,1.0,1.0,1,1
org.apache.xalan.transformer.NumeratorFormatter,BRANCH,0.9591836734693877,0.9591836734693877,47,49
org.apache.xalan.transformer.KeyManager,BRANCH,0.38095238095238093,0.38095238095238093,8,21
org.apache.xalan.transformer.NodeSorter,BRANCH,0.24050632911392406,0.24050632911392406,19,79
org.apache.xalan.transformer.XSLInfiniteLoopException,BRANCH,1.0,1.0,2,2
org.apache.xalan.transformer.DecimalToRoman,BRANCH,1.0,1.0,1,1
org.apache.xalan.serialize.SerializerFactory,BRANCH,0.14285714285714285,0.14285714285714285,2,14
org.apache.xalan.serialize.SerializerUtils,BRANCH,0.3023255813953488,0.3023255813953488,13,43
org.apache.xalan.templates.FuncDocument,BRANCH,0.42528735632183906,0.42528735632183906,37,87
org.apache.xalan.templates.ElemUse,BRANCH,0.75,0.75,12,16
org.apache.xalan.templates.ElemOtherwise,BRANCH,1.0,1.0,3,3
org.apache.xalan.templates.ElemCopyOf,BRANCH,0.717948717948718,0.717948717948718,28,39
org.apache.xalan.templates.ElemFallback,BRANCH,1.0,1.0,12,12
org.apache.xalan.templates.ElemMessage,BRANCH,1.0,1.0,11,11
org.apache.xalan.templates.ElemCallTemplate,BRANCH,0.40816326530612246,0.40816326530612246,20,49
org.apache.xalan.templates.RedundentExprEliminator,BRANCH,0.6387959866220736,0.6387959866220736,191,299
org.apache.xalan.templates.NamespaceAlias,BRANCH,1.0,1.0,10,10
org.apache.xalan.templates.FuncKey,BRANCH,0.05263157894736842,0.05263157894736842,1,19
org.apache.xalan.templates.TemplateList,BRANCH,0.6602870813397129,0.6602870813397129,138,209
org.apache.xalan.templates.ElemExtensionDecl,BRANCH,0.37777777777777777,0.37777777777777777,17,45
org.apache.xalan.templates.ElemSort,BRANCH,0.6,0.6,15,25
org.apache.xalan.templates.XUnresolvedVariable,BRANCH,0.9230769230769231,0.9230769230769231,12,13
org.apache.xalan.templates.AVT,BRANCH,0.9438202247191011,0.9438202247191011,84,89
org.apache.xalan.templates.ElemParam,BRANCH,0.7142857142857143,0.7142857142857143,10,14
org.apache.xalan.templates.FuncFormatNumb,BRANCH,0.3684210526315789,0.3684210526315789,7,19
org.apache.xalan.templates.Constants,BRANCH,1.0,1.0,1,1
org.apache.xalan.templates.VarNameCollector,BRANCH,1.0,1.0,5,5
org.apache.xalan.templates.ElemExtensionCall,BRANCH,0.16279069767441862,0.16279069767441862,7,43
org.apache.xalan.templates.ElemTemplateElement,BRANCH,0.7735042735042735,0.7735042735042735,181,234
org.apache.xalan.templates.ElemExtensionScript,BRANCH,1.0,1.0,6,6
org.apache.xalan.templates.ElemAttributeSet,BRANCH,0.8333333333333334,0.8333333333333334,15,18
org.apache.xalan.templates.ElemExsltFunction,BRANCH,0.8421052631578947,0.8421052631578947,16,19
org.apache.xalan.templates.ElemLiteralResult,BRANCH,0.7478991596638656,0.7531914893617021,178,238
org.apache.xalan.templates.ElemChoose,BRANCH,0.7058823529411765,0.7058823529411765,24,34
org.apache.xalan.templates.XUnresolvedVariableSimple,BRANCH,1.0,1.0,4,4
org.apache.xalan.templates.TemplateSubPatternAssociation,BRANCH,0.6666666666666666,0.6666666666666666,18,27
org.apache.xalan.templates.StylesheetRoot,BRANCH,0.7191780821917808,0.7191780821917808,105,146
org.apache.xalan.templates.ElemPI,BRANCH,0.7450980392156863,0.7450980392156863,38,51
org.apache.xalan.templates.ElemForEach,BRANCH,0.5964912280701754,0.5964912280701754,34,57
org.apache.xalan.templates.AVTPartXPath,BRANCH,0.875,1.0,7,8
org.apache.xalan.templates.ElemApplyImport,BRANCH,0.9166666666666666,0.9166666666666666,11,12
org.apache.xalan.templates.AVTPart,BRANCH,1.0,1.0,3,3
org.apache.xalan.templates.ElemCopy,BRANCH,0.17647058823529413,0.17647058823529413,3,17
org.apache.xalan.templates.ElemVariable,BRANCH,0.5507246376811594,0.5507246376811594,38,69
org.apache.xalan.templates.ElemEmpty,BRANCH,1.0,1.0,1,1
org.apache.xalan.templates.ElemUnknown,BRANCH,0.625,0.625,10,16
org.apache.xalan.templates.ElemExsltFuncResult,BRANCH,0.7777777777777778,0.7777777777777778,7,9
org.apache.xalan.templates.ElemApplyTemplates,BRANCH,0.40869565217391307,0.40869565217391307,47,115
org.apache.xalan.templates.ElemIf,BRANCH,0.42857142857142855,0.42857142857142855,9,21
org.apache.xalan.templates.AVTPartSimple,BRANCH,1.0,1.0,5,5
org.apache.xalan.templates.ElemNumber,BRANCH,0.32798165137614677,0.32798165137614677,143,436
org.apache.xalan.templates.ElemAttribute,BRANCH,0.9841269841269841,0.9841269841269841,62,63
org.apache.xalan.templates.ElemComment,BRANCH,0.9743589743589743,0.9743589743589743,38,39
org.apache.xalan.templates.ElemValueOf,BRANCH,0.7741935483870968,0.7741935483870968,24,31
org.apache.xalan.templates.ElemElement,BRANCH,0.4666666666666667,0.4666666666666667,28,60
org.apache.xalan.templates.ElemWhen,BRANCH,0.7777777777777778,0.7777777777777778,7,9
org.apache.xalan.templates.XSLTVisitor,BRANCH,1.0,1.0,9,9
org.apache.xalan.templates.OutputProperties,BRANCH,1.0,1.0,105,105
org.apache.xalan.templates.KeyDeclaration,BRANCH,0.8571428571428571,0.8571428571428571,12,14
org.apache.xalan.templates.Stylesheet,BRANCH,0.7741935483870968,0.7795698924731183,144,186
org.apache.xalan.templates.ElemVariablePsuedo,BRANCH,1.0,1.0,3,3
org.apache.xalan.templates.ElemWithParam,BRANCH,0.7142857142857143,0.7142857142857143,20,28
org.apache.xalan.templates.DecimalFormatProperties,BRANCH,1.0,1.0,28,28
org.apache.xalan.templates.AbsPathChecker,BRANCH,1.0,1.0,7,7
org.apache.xalan.templates.ElemTemplate,BRANCH,0.9615384615384616,0.9615384615384616,25,26
org.apache.xalan.templates.ElemText,BRANCH,1.0,1.0,9,9
org.apache.xalan.templates.StylesheetComposed,BRANCH,0.9782608695652174,0.9782608695652174,45,46
org.apache.xalan.templates.ElemTextLiteral,BRANCH,0.7142857142857143,0.7142857142857143,15,21
org.apache.xalan.templates.WhiteSpaceInfo,BRANCH,1.0,1.0,4,4
org.apache.xalan.templates.XMLNSDecl,BRANCH,1.0,1.0,4,4
