TARGET_CLASS,criterion,BranchCoverage,Coverage,Covered_Goals,Total_Goals
org.quilt.cl.CodeVertex,BRANCH,0.06451612903225806,0.06451612903225806,2,31
org.quilt.cl.ClassTransformer,BRANCH,0.7,0.7,28,40
org.quilt.cl.QuiltClassLoader,BRANCH,0.9076923076923077,0.9076923076923077,118,130
org.quilt.cl.GraphBuildException,BRANCH,1.0,1.0,4,4
org.quilt.cl.ControlFlowGraph,BRANCH,1.0,1.0,9,9
org.quilt.cl.BytecodeCollector,BRANCH,0.22535211267605634,0.22535211267605634,16,71
org.quilt.cl.GraphTransformer,BRANCH,0.8390804597701149,0.8390804597701149,73,87
org.quilt.cl.ClassFactory,BRANCH,0.75,0.75,15,20
org.quilt.cl.GraphTalker,BRANCH,0.6538461538461539,0.6538461538461539,17,26
org.quilt.cl.SortedBlocks,BRANCH,0.3333333333333333,0.3333333333333333,7,21
org.quilt.cl.CatchData,BRANCH,1.0,1.0,1,1
org.quilt.cl.MethodTransformer,BRANCH,0.3333333333333333,0.3333333333333333,11,33
org.quilt.cl.TryStacks,BRANCH,0.08771929824561403,0.08771929824561403,5,57
org.quilt.frontend.ant.TaskControl,BRANCH,1.0,1.0,95,95
org.quilt.frontend.ant.MockExec,BRANCH,1.0,1.0,5,5
org.quilt.frontend.ant.QuiltTask,BRANCH,0.9384615384615385,0.9384615384615385,61,65
org.quilt.frontend.ant.Scheduler,BRANCH,1.0,1.0,11,11
org.quilt.frontend.ant.SummaryAttribute,BRANCH,1.0,1.0,17,17
org.quilt.frontend.ant.TestExec,BRANCH,0.7272727272727273,0.7272727272727273,24,33
org.quilt.frontend.ant.BatchTest,BRANCH,0.42857142857142855,0.42857142857142855,6,14
org.quilt.runner.BaseTestRunner,BRANCH,0.7321428571428571,0.7321428571428571,41,56
org.quilt.runner.MockTestRunner,BRANCH,1.0,1.0,2,2
org.quilt.runner.Msg,BRANCH,1.0,1.0,15,15
org.quilt.runner.Runner,BRANCH,1.0,1.0,12,12
org.quilt.cover.stmt.GraphAction,BRANCH,0.3333333333333333,0.3333333333333333,18,54
org.quilt.cover.stmt.CounterVertex,BRANCH,1.0,1.0,8,8
org.quilt.cover.stmt.ClassAction,BRANCH,0.7666666666666667,0.7666666666666667,23,30
org.quilt.cover.stmt.MethodAction,BRANCH,0.6,0.6,6,10
org.quilt.cover.stmt.Ephemera,BRANCH,0.8666666666666667,0.8666666666666667,13,15
org.quilt.cover.stmt.StmtRunTest,BRANCH,0.0,0.0,0,1
org.quilt.cover.stmt.StmtRegistry,BRANCH,0.9433962264150944,0.9433962264150944,50,53
org.quilt.cover.seg.Segment,BRANCH,1.0,1.0,15,15
org.quilt.graph.Connector,BRANCH,1.0,1.0,1,1
org.quilt.graph.BinaryConnector,BRANCH,0.11538461538461539,0.11538461538461539,3,26
org.quilt.graph.Edge,BRANCH,0.12903225806451613,0.12903225806451613,4,31
org.quilt.graph.MultiConnector,BRANCH,0.09090909090909091,0.09090909090909091,2,22
org.quilt.graph.Exit,BRANCH,0.14285714285714285,0.14285714285714285,1,7
org.quilt.graph.ComplexConnector,BRANCH,0.09090909090909091,0.09090909090909091,2,22
org.quilt.graph.Walker,BRANCH,0.9722222222222222,0.9722222222222222,35,36
org.quilt.graph.UnaryConnector,BRANCH,0.16666666666666666,0.16666666666666666,1,6
org.quilt.graph.Entry,BRANCH,0.125,0.125,1,8
org.quilt.graph.Directed,BRANCH,0.9,0.925,36,40
org.quilt.graph.Vertex,BRANCH,0.6153846153846154,0.6153846153846154,16,26
org.quilt.framework.QuiltTest,BRANCH,0.9722222222222222,0.9722222222222222,70,72
org.quilt.reports.XMLFormatter,BRANCH,0.4444444444444444,0.4444444444444444,20,45
org.quilt.reports.PlainFormatter,BRANCH,0.5172413793103449,0.5172413793103449,15,29
org.quilt.reports.SummaryFormatter,BRANCH,0.7096774193548387,0.7096774193548387,22,31
org.quilt.reports.BaseFormatter,BRANCH,0.4117647058823529,0.4117647058823529,7,17
org.quilt.reports.FmtSelector,BRANCH,1.0,1.0,19,19
org.quilt.reports.BriefFormatter,BRANCH,0.625,0.625,15,24
org.quilt.QIC,BRANCH,1.0,1.0,1,1
org.quilt.textui.Textui,BRANCH,0.8787878787878788,0.8787878787878788,29,33
org.quilt.textui.MockTestRunner,BRANCH,1.0,1.0,3,3
org.quilt.textui.TestRunner,BRANCH,1.0,1.0,10,10
org.quilt.bytecode.LabeledNOP,BRANCH,1.0,1.0,3,3
org.quilt.exception.QuiltException,BRANCH,1.0,1.0,2,2
org.quilt.reg.QuiltRegistry,BRANCH,0.7857142857142857,0.7857142857142857,11,14
org.quilt.reg.Registry,BRANCH,1.0,1.0,31,31
