TARGET_CLASS,criterion,BranchCoverage,Coverage,Covered_Goals,Total_Goals
com.opensymphony.oscache.hibernate.OSCache,BRANCH,1.0,1.0,18,18
com.opensymphony.oscache.hibernate.OSCacheProvider,BRANCH,0.8666666666666667,0.8666666666666667,13,15
com.opensymphony.oscache.plugins.clustersupport.JavaGroupsBroadcastingListener,BRANCH,0.391304347826087,0.391304347826087,9,23
com.opensymphony.oscache.plugins.clustersupport.JMSBroadcastingListener,BRANCH,0.2777777777777778,0.2777777777777778,5,18
com.opensymphony.oscache.plugins.clustersupport.AbstractBroadcastingListener,BRANCH,0.7346938775510204,0.7346938775510204,36,49
com.opensymphony.oscache.plugins.clustersupport.ClusterNotification,BRANCH,1.0,1.0,4,4
com.opensymphony.oscache.plugins.clustersupport.JMS10BroadcastingListener,BRANCH,0.23529411764705882,0.23529411764705882,4,17
com.opensymphony.oscache.plugins.diskpersistence.AbstractDiskPersistenceListener,BRANCH,0.7647058823529411,0.7647058823529411,52,68
com.opensymphony.oscache.plugins.diskpersistence.HashDiskPersistenceListener,BRANCH,0.9333333333333333,0.9333333333333333,14,15
com.opensymphony.oscache.plugins.diskpersistence.DiskPersistenceListener,BRANCH,1.0,1.0,9,9
com.opensymphony.oscache.extra.CacheMapAccessEventListenerImpl,BRANCH,1.0,1.0,12,12
com.opensymphony.oscache.extra.StatisticListenerImpl,BRANCH,1.0,1.0,28,28
com.opensymphony.oscache.extra.CacheEntryEventListenerImpl,BRANCH,1.0,1.0,16,16
com.opensymphony.oscache.extra.ScopeEventListenerImpl,BRANCH,1.0,1.0,15,15
com.opensymphony.oscache.base.persistence.CachePersistenceException,BRANCH,1.0,1.0,2,2
com.opensymphony.oscache.base.EntryUpdateState,BRANCH,1.0,1.0,21,21
com.opensymphony.oscache.base.events.ScopeEventType,BRANCH,1.0,0.0,0,0
com.opensymphony.oscache.base.events.CachewideEventType,BRANCH,1.0,0.0,0,0
com.opensymphony.oscache.base.events.CacheMapAccessEventType,BRANCH,1.0,0.0,0,0
com.opensymphony.oscache.base.events.CacheMapAccessEvent,BRANCH,1.0,1.0,5,5
com.opensymphony.oscache.base.events.CacheEvent,BRANCH,0.6666666666666666,0.6666666666666666,2,3
com.opensymphony.oscache.base.events.CacheEntryEventType,BRANCH,1.0,0.0,0,0
com.opensymphony.oscache.base.events.CacheEntryEvent,BRANCH,1.0,1.0,6,6
com.opensymphony.oscache.base.events.CachePatternEvent,BRANCH,1.0,1.0,5,5
com.opensymphony.oscache.base.events.CachewideEvent,BRANCH,1.0,1.0,3,3
com.opensymphony.oscache.base.events.ScopeEvent,BRANCH,1.0,1.0,5,5
com.opensymphony.oscache.base.events.CacheGroupEvent,BRANCH,1.0,1.0,5,5
com.opensymphony.oscache.base.algorithm.FIFOCache,BRANCH,1.0,1.0,9,9
com.opensymphony.oscache.base.algorithm.UnlimitedCache,BRANCH,1.0,1.0,6,6
com.opensymphony.oscache.base.algorithm.AbstractConcurrentReadCache,BRANCH,0.5238095238095238,0.5374149659863946,231,441
com.opensymphony.oscache.base.algorithm.LRUCache,BRANCH,0.6153846153846154,0.6153846153846154,8,13
com.opensymphony.oscache.base.NeedsRefreshException,BRANCH,1.0,1.0,3,3
com.opensymphony.oscache.base.CacheEntry,BRANCH,1.0,1.0,40,40
com.opensymphony.oscache.base.InitializationException,BRANCH,1.0,1.0,2,2
com.opensymphony.oscache.base.Cache,BRANCH,0.8176795580110497,0.861878453038674,148,181
com.opensymphony.oscache.base.Config,BRANCH,0.6451612903225806,0.6451612903225806,20,31
com.opensymphony.oscache.base.FinalizationException,BRANCH,1.0,1.0,2,2
com.opensymphony.oscache.base.AbstractCacheAdministrator,BRANCH,0.37777777777777777,0.37777777777777777,17,45
com.opensymphony.oscache.general.GeneralCacheAdministrator,BRANCH,1.0,1.0,20,20
com.opensymphony.oscache.util.ClassLoaderUtil,BRANCH,0.5,0.5,1,2
com.opensymphony.oscache.util.StringUtil,BRANCH,1.0,1.0,14,14
com.opensymphony.oscache.util.ValueSet,BRANCH,1.0,1.0,1,1
com.opensymphony.oscache.util.FastCronParser,BRANCH,0.29484029484029484,0.29484029484029484,120,407
com.opensymphony.oscache.web.ServletCache,BRANCH,0.18181818181818182,0.18181818181818182,2,11
com.opensymphony.oscache.web.CacheContextListener,BRANCH,1.0,1.0,3,3
com.opensymphony.oscache.web.ServletCacheAdministrator,BRANCH,0.04,0.04,5,125
com.opensymphony.oscache.web.tag.FlushTag,BRANCH,0.4444444444444444,0.4444444444444444,12,27
com.opensymphony.oscache.web.tag.CacheTag,BRANCH,0.730593607305936,0.730593607305936,160,219
com.opensymphony.oscache.web.tag.GroupsTag,BRANCH,1.0,1.0,6,6
com.opensymphony.oscache.web.tag.UseCachedTag,BRANCH,1.0,1.0,8,8
com.opensymphony.oscache.web.tag.GroupTag,BRANCH,1.0,1.0,6,6
com.opensymphony.oscache.web.filter.ResponseContent,BRANCH,0.5777777777777777,0.5777777777777777,26,45
com.opensymphony.oscache.web.filter.CacheFilter,BRANCH,0.32275132275132273,0.32275132275132273,61,189
com.opensymphony.oscache.web.filter.SplitServletOutputStream,BRANCH,1.0,1.0,6,6
com.opensymphony.oscache.web.filter.CacheHttpServletResponseWrapper,BRANCH,0.012658227848101266,0.012658227848101266,1,79
com.opensymphony.oscache.web.filter.ExpiresRefreshPolicy,BRANCH,1.0,1.0,11,11
