TARGET_CLASS,criterion,BranchCoverage,Coverage,Covered_Goals,Total_Goals
org.apache.lucene.search.join.TermsQuery,BRANCH,0.45161290322580644,0.45161290322580644,14,31
org.apache.lucene.search.join.ToParentBlockJoinQuery,BRANCH,0.43564356435643564,0.43564356435643564,44,101
org.apache.lucene.search.join.ScoreMode,BRANCH,1.0,1.0,0,0
org.apache.lucene.search.join.TermsIncludingScoreQuery,BRANCH,0.5576923076923077,0.5576923076923077,58,104
org.apache.lucene.search.join.ToParentBlockJoinFieldComparator,BRANCH,0.20588235294117646,0.20588235294117646,28,136
org.apache.lucene.search.join.ToChildBlockJoinQuery,BRANCH,0.32608695652173914,0.32608695652173914,30,92
org.apache.lucene.search.join.TermsCollector,BRANCH,0.8461538461538461,0.8461538461538461,11,13
org.apache.lucene.search.join.JoinUtil,BRANCH,0.7,0.9,7,10
