TARGET_CLASS,criterion,BranchCoverage,Coverage,Covered_Goals,Total_Goals
org.apache.batik.gvt.MarkerShapePainter,BRANCH,0.4069767441860465,0.5058139534883721,70,172
org.apache.batik.ext.awt.image.codec.util.SimpleRenderedImage,BRANCH,0.9821428571428571,0.9821428571428571,55,56
org.apache.batik.util.io.AbstractCharDecoder,BRANCH,1.0,1.0,5,5
org.apache.batik.bridge.SVGShapeElementBridge,BRANCH,0.6822429906542056,0.6822429906542056,73,107
org.apache.batik.dom.svg.SVGTestsSupport,BRANCH,1.0,1.0,5,5
org.apache.batik.extension.svg.BatikStarElement,BRANCH,1.0,1.0,5,5
org.apache.batik.ext.awt.AreaOfInterestHintKey,BRANCH,0.2,1.0,1,5
org.apache.batik.ext.awt.image.renderable.CompositeRable8Bit,BRANCH,0.35,0.35,14,40
org.apache.batik.swing.svg.GVTTreeBuilder,BRANCH,0.6842105263157895,0.6842105263157895,13,19
org.apache.batik.anim.values.AnimatableTransformListValue,BRANCH,0.9195402298850575,0.9252873563218391,160,174
org.apache.batik.swing.gvt.AbstractRotateInteractor,BRANCH,1.0,1.0,9,9
org.apache.batik.parser.LengthListParser,BRANCH,1.0,1.0,5,5
org.apache.batik.swing.svg.SVGUserAgentAdapter,BRANCH,0.9701492537313433,0.9701492537313433,65,67
org.apache.batik.parser.DefaultLengthListHandler,BRANCH,1.0,1.0,3,3
org.apache.batik.svggen.CachedImageHandlerPNGEncoder,BRANCH,1.0,1.0,4,4
org.apache.batik.ext.awt.image.rendered.AffineRed,BRANCH,0.9705882352941176,0.9705882352941176,33,34
org.apache.batik.util.DoublyIndexedSet,BRANCH,0.8571428571428571,1.0,6,7
org.apache.batik.bridge.svg12.SVG12ScriptingEnvironment,BRANCH,0.025,0.025,1,40
org.apache.batik.dom.svg12.SVGOMWheelEvent,BRANCH,1.0,1.0,4,4
org.apache.batik.dom.svg.SVGOMFEOffsetElement,BRANCH,1.0,1.0,10,10
org.apache.batik.extension.svg.RegionInfo,BRANCH,1.0,1.0,3,3
org.apache.batik.apps.svgbrowser.JSVGViewerFrame,BRANCH,0.026694045174537988,0.026694045174537988,13,487
org.apache.batik.script.rhino.BatikSecurityController,BRANCH,1.0,1.0,9,9
org.apache.batik.bridge.RepaintManager,BRANCH,1.0,1.0,5,5
org.apache.batik.svggen.font.table.KernSubtableFormat2,BRANCH,0.3333333333333333,0.3333333333333333,1,3
org.apache.batik.ext.awt.image.renderable.PadRable8Bit,BRANCH,0.75,0.75,24,32
org.apache.batik.svggen.AbstractSVGConverter,BRANCH,1.0,1.0,4,4
org.apache.batik.svggen.font.table.Panose,BRANCH,1.0,1.0,12,12
org.apache.batik.transcoder.image.ImageTranscoder,BRANCH,0.2,0.2,2,10
org.apache.batik.svggen.font.table.KernSubtableFormat0,BRANCH,0.0,0.0,0,4
org.apache.batik.css.engine.value.css2.VisibilityManager,BRANCH,1.0,1.0,8,8
org.apache.batik.bridge.SVGAElementBridge,BRANCH,0.7213114754098361,0.7213114754098361,44,61
org.apache.batik.parser.AbstractParser,BRANCH,0.7608695652173914,0.7608695652173914,35,46
org.apache.batik.dom.svg.SVGOMEvent,BRANCH,1.0,1.0,1,1
org.apache.batik.dom.svg.AbstractSVGAnimatedLength,BRANCH,1.0,1.0,63,63
org.apache.batik.ext.awt.geom.AbstractSegment,BRANCH,1.0,1.0,95,95
org.apache.batik.css.engine.value.svg12.LineHeightValue,BRANCH,1.0,1.0,2,2
org.apache.batik.parser.TimingParser,BRANCH,0.4272300469483568,0.4413145539906103,91,213
org.apache.batik.dom.AbstractElementNS,BRANCH,0.9444444444444444,0.9444444444444444,17,18
org.apache.batik.ext.awt.image.PointLight,BRANCH,1.0,1.0,7,7
org.apache.batik.css.engine.SystemColorSupport,BRANCH,1.0,1.0,2,2
org.apache.batik.ext.awt.image.codec.tiff.TIFFFaxDecoder,BRANCH,0.8769230769230769,0.882051282051282,171,195
org.apache.batik.css.parser.DefaultClassCondition,BRANCH,1.0,1.0,3,3
org.apache.batik.svggen.font.table.LangSysRecord,BRANCH,0.3333333333333333,0.3333333333333333,1,3
org.apache.batik.anim.timing.TimedDocumentRoot,BRANCH,0.0,0.0,0,36
org.apache.batik.dom.svg.SVGOMLineElement,BRANCH,1.0,1.0,11,11
org.apache.batik.dom.svg.AbstractSVGNormPathSegList,BRANCH,0.9824561403508771,0.9824561403508771,56,57
org.apache.batik.extension.svg.BatikHistogramNormalizationElement,BRANCH,1.0,1.0,5,5
org.apache.batik.bridge.SVGHKernElementBridge,BRANCH,1.0,1.0,2,2
org.apache.batik.dom.svg.SVGOMFEMergeNodeElement,BRANCH,1.0,1.0,8,8
org.apache.batik.util.ParsedURLJarProtocolHandler,BRANCH,1.0,1.0,3,3
org.apache.batik.css.engine.value.svg.StrokeDashoffsetManager,BRANCH,1.0,1.0,10,10
org.apache.batik.bridge.SVGAnimateElementBridge,BRANCH,0.16981132075471697,0.16981132075471697,18,106
org.apache.batik.svggen.font.table.PrepTable,BRANCH,0.5,0.5,1,2
org.apache.batik.css.engine.value.svg.StrokeWidthManager,BRANCH,1.0,1.0,10,10
org.apache.batik.ext.awt.geom.ExtendedGeneralPath,BRANCH,0.9593908629441624,0.9593908629441624,189,197
org.apache.batik.css.dom.CSSOMSVGStyleDeclaration,BRANCH,0.6451612903225806,0.6451612903225806,20,31
org.apache.batik.anim.timing.TimegraphAdapter,BRANCH,1.0,1.0,12,12
org.apache.batik.bridge.SVGPatternElementBridge,BRANCH,0.35294117647058826,0.35294117647058826,18,51
org.apache.batik.dom.svg12.SVGOMSubImageRefElement,BRANCH,1.0,1.0,4,4
org.apache.batik.transcoder.TranscoderOutput,BRANCH,1.0,1.0,16,16
org.apache.batik.svggen.SVGAlphaComposite,BRANCH,0.9285714285714286,0.9285714285714286,26,28
org.apache.batik.util.gui.xmleditor.XMLDocument,BRANCH,0.8928571428571429,0.8928571428571429,25,28
org.apache.batik.apps.svgbrowser.HistoryBrowserInterface,BRANCH,0.9784172661870504,0.9784172661870504,136,139
org.apache.batik.transcoder.wmf.tosvg.WMFPainter,BRANCH,0.0075,0.0075,3,400
org.apache.batik.dom.svg.SVGOMDocument,BRANCH,0.8068181818181818,0.8181818181818182,71,88
org.apache.batik.ext.awt.image.codec.jpeg.JPEGRegistryEntry,BRANCH,0.5,0.5,3,6
org.apache.batik.dom.svg.SVGOMPathElement,BRANCH,0.25961538461538464,0.25961538461538464,54,208
org.apache.batik.css.parser.DefaultDirectAdjacentSelector,BRANCH,1.0,1.0,3,3
org.apache.batik.util.gui.MemoryMonitor,BRANCH,0.5660377358490566,0.5660377358490566,30,53
org.apache.batik.ext.swing.JAffineTransformChooser,BRANCH,0.5128205128205128,0.5128205128205128,20,39
org.apache.batik.svggen.SVGCustomComposite,BRANCH,0.6,0.6,6,10
org.apache.batik.anim.AnimationEngine,BRANCH,0.03333333333333333,0.03333333333333333,5,150
org.apache.batik.extension.svg.FlowExtTextNode,BRANCH,0.6666666666666666,1.0,2,3
org.apache.batik.transcoder.keys.DOMImplementationKey,BRANCH,1.0,1.0,2,2
org.apache.batik.ext.awt.image.codec.png.PNGImage,BRANCH,0.06751824817518248,0.06751824817518248,37,548
org.apache.batik.dom.svg.SVGOMFEImageElement,BRANCH,1.0,1.0,15,15
org.apache.batik.dom.svg.AbstractSVGAnimatedValue,BRANCH,1.0,1.0,14,14
org.apache.batik.css.parser.DefaultPseudoClassCondition,BRANCH,1.0,1.0,6,6
org.apache.batik.anim.values.AnimatableNumberValue,BRANCH,1.0,1.0,15,15
org.apache.batik.css.parser.Parser,BRANCH,0.4336283185840708,0.4336283185840708,392,904
org.apache.batik.util.gui.resource.JToolbarSeparator,BRANCH,1.0,1.0,2,2
org.apache.batik.transcoder.TranscoderSupport,BRANCH,1.0,1.0,8,8
org.apache.batik.bridge.SVGImageElementBridge,BRANCH,0.291044776119403,0.291044776119403,39,134
org.apache.batik.gvt.RootGraphicsNode,BRANCH,1.0,1.0,6,6
org.apache.batik.svggen.font.table.HmtxTable,BRANCH,0.05555555555555555,0.05555555555555555,1,18
org.apache.batik.svggen.SVGGraphicObjectConverter,BRANCH,1.0,1.0,3,3
org.apache.batik.apps.svgbrowser.StatusBar,BRANCH,0.8666666666666667,0.8666666666666667,26,30
org.apache.batik.dom.svg.SVGOMAnimateTransformElement,BRANCH,1.0,1.0,5,5
org.apache.batik.dom.GenericEntity,BRANCH,1.0,1.0,5,5
org.apache.batik.ext.awt.image.codec.png.PNGImageWriter,BRANCH,1.0,1.0,4,4
org.apache.batik.dom.svg.SVGOMElement,BRANCH,0.6912751677852349,0.7248322147651006,103,149
org.apache.batik.css.engine.value.svg.MaskManager,BRANCH,1.0,1.0,25,25
org.apache.batik.gvt.filter.BackgroundRable8Bit,BRANCH,0.6395348837209303,0.6627906976744186,55,86
org.apache.batik.anim.InterpolatingAnimation,BRANCH,1.0,1.0,45,45
org.apache.batik.dom.svg.SVGPointShapeElement,BRANCH,1.0,1.0,8,8
org.apache.batik.bridge.SVGFontUtilities,BRANCH,0.1836734693877551,0.1836734693877551,9,49
org.apache.batik.bridge.NoLoadScriptSecurity,BRANCH,1.0,1.0,2,2
org.apache.batik.bridge.AbstractGraphicsNodeBridge,BRANCH,0.5368421052631579,0.5263157894736842,51,95
org.apache.batik.svggen.font.table.LangSys,BRANCH,0.0,0.0,0,6
org.apache.batik.ext.awt.image.renderable.ColorMatrixRable8Bit,BRANCH,0.8571428571428571,0.8571428571428571,18,21
org.apache.batik.swing.JSVGScrollPane,BRANCH,0.7007299270072993,0.7007299270072993,96,137
org.apache.batik.ext.awt.image.rendered.TranslateRed,BRANCH,1.0,1.0,10,10
org.apache.batik.bridge.RelaxedExternalResourceSecurity,BRANCH,1.0,1.0,2,2
org.apache.batik.svggen.font.Messages,BRANCH,1.0,1.0,4,4
org.apache.batik.apps.svgbrowser.TransformHistory,BRANCH,0.9285714285714286,0.9285714285714286,13,14
org.apache.batik.dom.GenericDocumentFragment,BRANCH,1.0,1.0,5,5
org.apache.batik.dom.svg.SVGOMCursorElement,BRANCH,1.0,1.0,15,15
org.apache.batik.svggen.DefaultCachedImageHandler,BRANCH,0.75,0.75,42,56
org.apache.batik.dom.traversal.TraversalSupport,BRANCH,1.0,1.0,12,12
org.apache.batik.ext.awt.image.codec.png.PNGImageDecoder,BRANCH,1.0,1.0,3,3
org.apache.batik.bridge.AnimationSupport,BRANCH,0.7272727272727273,0.7272727272727273,8,11
org.apache.batik.dom.svg.SVGOMRect,BRANCH,1.0,1.0,10,10
org.apache.batik.ext.awt.image.rendered.FilterAlphaRed,BRANCH,0.6666666666666666,0.6666666666666666,2,3
org.apache.batik.svggen.font.table.LookupSubtable,BRANCH,1.0,1.0,1,1
org.apache.batik.bridge.SVGBridgeExtension,BRANCH,0.875,0.875,14,16
org.apache.batik.svggen.SVGComposite,BRANCH,1.0,1.0,7,7
org.apache.batik.svggen.font.table.HheaTable,BRANCH,0.0,0.0,0,14
org.apache.batik.ext.awt.image.rendered.Any2LsRGBRed,BRANCH,0.6923076923076923,0.6923076923076923,36,52
org.apache.batik.gvt.GVTTreeWalker,BRANCH,0.9242424242424242,0.9242424242424242,61,66
org.apache.batik.script.rhino.RhinoClassLoader,BRANCH,0.782608695652174,0.782608695652174,18,23
org.apache.batik.ext.awt.image.rendered.FilterAsAlphaRed,BRANCH,0.6153846153846154,0.6153846153846154,8,13
org.apache.batik.parser.PathParser,BRANCH,0.6606060606060606,0.6606060606060606,436,660
org.apache.batik.dom.svg.SVGOMURIReferenceElement,BRANCH,1.0,1.0,6,6
org.apache.batik.css.engine.Messages,BRANCH,1.0,1.0,4,4
org.apache.batik.util.gui.resource.MissingListenerException,BRANCH,1.0,1.0,4,4
org.apache.batik.svggen.SwingSVGPrettyPrint,BRANCH,0.06153846153846154,0.06153846153846154,4,65
org.apache.batik.css.engine.value.svg.ShapeRenderingManager,BRANCH,1.0,1.0,8,8
org.apache.batik.swing.gvt.AbstractResetTransformInteractor,BRANCH,0.0,0.0,0,13
org.apache.batik.svggen.DOMTreeManager,BRANCH,0.8545454545454545,0.8545454545454545,47,55
org.apache.batik.gvt.font.MultiGlyphVector,BRANCH,0.02666666666666667,0.02666666666666667,2,75
org.apache.batik.bridge.AbstractSVGBridge,BRANCH,0.6666666666666666,0.6666666666666666,2,3
org.apache.batik.dom.svg.SVGGraphicsElement,BRANCH,1.0,1.0,28,28
org.apache.batik.dom.svg.SVGOMFontFaceUriElement,BRANCH,1.0,1.0,4,4
org.apache.batik.gvt.StrokeShapePainter,BRANCH,1.0,1.0,31,31
org.apache.batik.dom.svg.SVGOMUseElement,BRANCH,1.0,1.0,19,19
org.apache.batik.util.EventDispatcher,BRANCH,0.7391304347826086,0.7391304347826086,17,23
org.apache.batik.gvt.svg12.MultiResGraphicsNode,BRANCH,0.5,0.5476190476190477,21,42
org.apache.batik.transcoder.svg2svg.PrettyPrinter,BRANCH,0.08149171270718232,0.08149171270718232,59,724
org.apache.batik.apps.svgbrowser.Main,BRANCH,0.051094890510948905,0.051094890510948905,7,137
org.apache.batik.css.parser.DefaultAndCondition,BRANCH,1.0,1.0,3,3
org.apache.batik.dom.svg12.SVGOMSolidColorElement,BRANCH,1.0,1.0,4,4
org.apache.batik.apps.rasterizer.DestinationType,BRANCH,0.9166666666666666,0.9166666666666666,22,24
org.apache.batik.apps.svgbrowser.DOMViewer,BRANCH,0.02881844380403458,0.02881844380403458,10,347
org.apache.batik.gvt.font.GVTGlyphMetrics,BRANCH,1.0,1.0,13,13
org.apache.batik.util.gui.LocationBar,BRANCH,0.8333333333333334,0.8333333333333334,5,6
org.apache.batik.apps.rasterizer.SVGConverterURLSource,BRANCH,0.9259259259259259,0.9259259259259259,25,27
org.apache.batik.css.dom.CSSOMSVGViewCSS,BRANCH,1.0,1.0,3,3
org.apache.batik.dom.svg.SVGOMEllipseElement,BRANCH,1.0,1.0,11,11
org.apache.batik.anim.values.AnimatableBooleanValue,BRANCH,1.0,1.0,16,16
org.apache.batik.svggen.SVGColor,BRANCH,1.0,1.0,4,4
org.apache.batik.dom.AbstractText,BRANCH,0.8309859154929577,0.8309859154929577,59,71
org.apache.batik.apps.svgbrowser.JAuthenticator,BRANCH,0.25,0.25,4,16
org.apache.batik.swing.svg.Messages,BRANCH,1.0,1.0,4,4
org.apache.batik.ext.awt.image.renderable.AffineRable8Bit,BRANCH,0.8947368421052632,0.9473684210526315,17,19
org.apache.batik.ext.awt.image.rendered.SpecularLightingRed,BRANCH,0.6511627906976745,0.6511627906976745,28,43
org.apache.batik.dom.svg12.SVGOMFlowRegionBreakElement,BRANCH,1.0,1.0,4,4
org.apache.batik.dom.svg.SVGOMAnimatedLength,BRANCH,1.0,1.0,2,2
org.apache.batik.ext.awt.image.rendered.DisplacementMapRed,BRANCH,0.4727272727272727,0.4727272727272727,26,55
org.apache.batik.css.parser.DefaultOneOfAttributeCondition,BRANCH,1.0,1.0,3,3
org.apache.batik.ext.awt.image.rendered.ComponentTransferRed,BRANCH,1.0,1.0,3,3
org.apache.batik.transcoder.keys.StringKey,BRANCH,1.0,1.0,2,2
org.apache.batik.ext.awt.image.codec.imageio.ImageIOJPEGRegistryEntry,BRANCH,1.0,1.0,1,1
org.apache.batik.css.engine.value.css2.FontShorthandManager,BRANCH,0.753731343283582,0.8059701492537313,101,134
org.apache.batik.util.ParsedURLData,BRANCH,0.803347280334728,0.803347280334728,192,239
org.apache.batik.parser.LengthParser,BRANCH,0.6388059701492538,0.6388059701492538,214,335
org.apache.batik.ext.awt.image.GraphicsUtil,BRANCH,0.3569482288828338,0.3569482288828338,131,367
org.apache.batik.transcoder.wmf.tosvg.WMFUtilities,BRANCH,1.0,1.0,43,43
org.apache.batik.util.ParsedURL,BRANCH,0.9882352941176471,0.9882352941176471,84,85
org.apache.batik.util.io.StringNormalizingReader,BRANCH,0.6111111111111112,0.6111111111111112,11,18
org.apache.batik.dom.svg.SVGOMAnimatedPreserveAspectRatio,BRANCH,0.9583333333333334,1.0,46,48
org.apache.batik.css.parser.ParseException,BRANCH,1.0,1.0,10,10
org.apache.batik.anim.values.AnimatablePaintValue,BRANCH,1.0,1.0,63,63
org.apache.batik.bridge.SVGFeDiffuseLightingElementBridge,BRANCH,0.5,0.5,2,4
org.apache.batik.util.SVGTypes,BRANCH,0.0,0.0,0,1
org.apache.batik.dom.svg.SVGURIReferenceTextPositioningElement,BRANCH,1.0,1.0,6,6
org.apache.batik.util.gui.resource.JToolbarToggleButton,BRANCH,0.7777777777777778,0.7777777777777778,7,9
org.apache.batik.dom.svg.SVGOMDescElement,BRANCH,1.0,1.0,4,4
org.apache.batik.dom.AbstractCharacterData,BRANCH,1.0,1.0,36,36
org.apache.batik.anim.AnimationException,BRANCH,1.0,1.0,5,5
org.apache.batik.css.engine.sac.CSSDirectAdjacentSelector,BRANCH,0.6666666666666666,0.6666666666666666,8,12
org.apache.batik.svggen.AbstractImageHandlerEncoder,BRANCH,0.47368421052631576,0.47368421052631576,9,19
org.apache.batik.bridge.SVGGlyphElementBridge,BRANCH,0.18421052631578946,0.18421052631578946,7,38
org.apache.batik.util.gui.CSSMediaPanel,BRANCH,0.463768115942029,0.463768115942029,32,69
org.apache.batik.svggen.font.table.CoverageFormat1,BRANCH,0.0,0.0,0,7
org.apache.batik.gvt.renderer.DynamicRenderer,BRANCH,0.1509433962264151,0.20754716981132076,8,53
org.apache.batik.svggen.font.table.CoverageFormat2,BRANCH,0.0,0.0,0,7
org.apache.batik.dom.svg.SVGOMStyleElement,BRANCH,0.6333333333333333,0.6333333333333333,19,30
org.apache.batik.dom.svg.SVGOMFETileElement,BRANCH,1.0,1.0,8,8
org.apache.batik.bridge.SVGPolygonElementBridge,BRANCH,0.7333333333333333,0.7333333333333333,11,15
org.apache.batik.script.rhino.svg12.GlobalWrapper,BRANCH,0.0,0.6666666666666666,0,12
org.apache.batik.svggen.SVGLine,BRANCH,1.0,1.0,2,2
org.apache.batik.bridge.SVGMaskElementBridge,BRANCH,0.2222222222222222,0.2222222222222222,4,18
org.apache.batik.parser.DefaultAngleHandler,BRANCH,1.0,1.0,7,7
org.apache.batik.util.ClassFileUtilities,BRANCH,0.21511627906976744,0.21511627906976744,37,172
org.apache.batik.ext.awt.image.codec.util.SeekableStream,BRANCH,0.5909090909090909,0.5909090909090909,39,66
org.apache.batik.anim.timing.MediaMarkerTimingSpecifier,BRANCH,0.3333333333333333,0.3333333333333333,1,3
org.apache.batik.bridge.SVGFilterElementBridge,BRANCH,0.3333333333333333,0.3333333333333333,9,27
org.apache.batik.apps.svgbrowser.AboutDialog,BRANCH,0.1111111111111111,0.1111111111111111,2,18
org.apache.batik.svggen.DefaultStyleHandler,BRANCH,0.9230769230769231,0.9230769230769231,12,13
org.apache.batik.dom.AbstractParentNode,BRANCH,0.6972111553784861,0.6972111553784861,175,251
org.apache.batik.ext.awt.image.rendered.TileBlock,BRANCH,0.9711538461538461,0.9711538461538461,101,104
org.apache.batik.bridge.SVGAnimationEngine,BRANCH,0.11406844106463879,0.11153846153846154,30,263
org.apache.batik.util.Messages,BRANCH,1.0,1.0,7,7
org.apache.batik.css.parser.DefaultConditionFactory,BRANCH,1.0,1.0,15,15
org.apache.batik.dom.svg.SVGOMAnimatedNumberList,BRANCH,0.9787234042553191,0.9787234042553191,92,94
org.apache.batik.bridge.SVGDescriptiveElementBridge,BRANCH,0.9523809523809523,0.9523809523809523,20,21
org.apache.batik.dom.events.DOMKeyEvent,BRANCH,1.0,1.0,8,8
org.apache.batik.dom.svg.SVGOMColorProfileElement,BRANCH,0.8780487804878049,0.8780487804878049,36,41
org.apache.batik.dom.svg.SVGOMAltGlyphElement,BRANCH,1.0,1.0,9,9
org.apache.batik.bridge.svg12.SVG12URIResolver,BRANCH,0.2727272727272727,0.2727272727272727,3,11
org.apache.batik.dom.events.DOMMutationNameEvent,BRANCH,1.0,1.0,5,5
org.apache.batik.css.engine.value.svg12.TextAlignManager,BRANCH,1.0,1.0,8,8
org.apache.batik.bridge.DocumentLoader,BRANCH,0.5714285714285714,0.5714285714285714,12,21
org.apache.batik.css.engine.value.css2.FontSizeAdjustManager,BRANCH,0.96,0.96,24,25
org.apache.batik.anim.TransformAnimation,BRANCH,0.8714285714285714,0.8714285714285714,61,70
org.apache.batik.dom.svg.SVGOMAltGlyphDefElement,BRANCH,1.0,1.0,4,4
org.apache.batik.svggen.SVGTransformDescriptor,BRANCH,1.0,1.0,5,5
org.apache.batik.anim.values.AnimatableMotionPointValue,BRANCH,1.0,1.0,23,23
org.apache.batik.bridge.Messages,BRANCH,1.0,1.0,5,5
org.apache.batik.css.parser.DefaultIdCondition,BRANCH,1.0,1.0,6,6
org.apache.batik.util.gui.DropDownComponent,BRANCH,0.7222222222222222,0.7222222222222222,65,90
org.apache.batik.dom.svg.SVGOMStopElement,BRANCH,1.0,1.0,8,8
org.apache.batik.ext.awt.image.codec.util.MemoryCacheSeekableStream,BRANCH,1.0,1.0,29,29
org.apache.batik.ext.awt.image.spi.MagicNumberRegistryEntry,BRANCH,0.7741935483870968,0.7741935483870968,24,31
org.apache.batik.bridge.ScriptingEnvironment,BRANCH,0.0,0.0,0,200
org.apache.batik.ext.awt.image.renderable.RedRable,BRANCH,0.5666666666666667,0.7666666666666667,17,30
org.apache.batik.transcoder.print.PrintTranscoder,BRANCH,0.4852941176470588,0.4852941176470588,33,68
org.apache.batik.svggen.SVGGraphics2DIOException,BRANCH,1.0,1.0,8,8
org.apache.batik.apps.ttf2svg.Main,BRANCH,1.0,1.0,2,2
org.apache.batik.ext.awt.image.SVGComposite,BRANCH,0.5436241610738255,0.5436241610738255,162,298
org.apache.batik.ext.awt.geom.SegmentList,BRANCH,0.9347826086956522,0.9347826086956522,43,46
org.apache.batik.script.rhino.WindowWrapper,BRANCH,0.06944444444444445,0.4305555555555556,5,72
org.apache.batik.css.engine.MediaRule,BRANCH,1.0,1.0,10,10
org.apache.batik.dom.GenericEntityReference,BRANCH,1.0,1.0,5,5
org.apache.batik.extension.svg.BatikStarElementBridge,BRANCH,0.5,0.5,10,20
org.apache.batik.dom.svg.SVGOMPatternElement,BRANCH,0.9629629629629629,1.0,26,27
org.apache.batik.ext.awt.image.rendered.TileCacheRed,BRANCH,1.0,1.0,22,22
org.apache.batik.extension.ExtensionElement,BRANCH,1.0,1.0,4,4
org.apache.batik.parser.ParseException,BRANCH,1.0,1.0,10,10
org.apache.batik.bridge.svg12.SVGSolidColorElementBridge,BRANCH,0.36363636363636365,0.36363636363636365,8,22
org.apache.batik.apps.rasterizer.SVGConverterFileSource,BRANCH,1.0,1.0,21,21
org.apache.batik.css.parser.DefaultLangCondition,BRANCH,1.0,1.0,4,4
org.apache.batik.bridge.SVGTextElementBridge,BRANCH,0.2303422756706753,0.2303422756706753,249,1081
org.apache.batik.anim.timing.WallclockTimingSpecifier,BRANCH,1.0,1.0,4,4
org.apache.batik.bridge.FocusManager,BRANCH,0.8181818181818182,0.8181818181818182,18,22
org.apache.batik.dom.svg.AbstractSVGNumber,BRANCH,1.0,1.0,3,3
org.apache.batik.swing.gvt.AbstractPanInteractor,BRANCH,0.0,0.0,0,11
org.apache.batik.dom.svg.SVGOMFEDistantLightElement,BRANCH,1.0,1.0,9,9
org.apache.batik.gvt.event.AbstractAWTEventDispatcher,BRANCH,0.6225165562913907,0.6225165562913907,94,151
org.apache.batik.gvt.renderer.ConcreteImageRendererFactory,BRANCH,0.6666666666666666,0.6666666666666666,4,6
org.apache.batik.ext.awt.g2d.AbstractGraphics2D,BRANCH,1.0,1.0,65,65
org.apache.batik.bridge.SVGClipPathElementBridge,BRANCH,0.2647058823529412,0.2647058823529412,9,34
org.apache.batik.swing.svg.AbstractJSVGComponent,BRANCH,0.3554140127388535,0.40364188163884673,245,785
org.apache.batik.ext.awt.TranscodingHintKey,BRANCH,0.8,1.0,4,5
org.apache.batik.bridge.SVGDocumentBridge,BRANCH,0.8571428571428571,0.8571428571428571,24,28
org.apache.batik.dom.svg.AbstractSVGNumberList,BRANCH,0.875,1.0,21,24
org.apache.batik.parser.PathArrayProducer,BRANCH,1.0,1.0,37,37
org.apache.batik.css.engine.value.svg12.MarginLengthManager,BRANCH,1.0,1.0,10,10
org.apache.batik.gvt.font.AWTGlyphGeometryCache,BRANCH,0.9318181818181818,0.9318181818181818,41,44
org.apache.batik.transcoder.wmf.tosvg.RecordStore,BRANCH,0.74,0.74,37,50
org.apache.batik.util.io.StreamNormalizingReader,BRANCH,0.875,0.875,28,32
org.apache.batik.css.parser.DefaultChildSelector,BRANCH,1.0,1.0,4,4
org.apache.batik.gvt.flow.WordInfo,BRANCH,1.0,1.0,22,22
org.apache.batik.anim.values.AnimatablePointListValue,BRANCH,1.0,1.0,7,7
org.apache.batik.css.engine.value.css2.ClipManager,BRANCH,1.0,1.0,19,19
org.apache.batik.svggen.font.table.ClassDef,BRANCH,0.2,0.2,1,5
org.apache.batik.dom.svg12.SVGOMFlowSpanElement,BRANCH,1.0,1.0,4,4
org.apache.batik.gvt.ShapeNode,BRANCH,0.6774193548387096,0.6774193548387096,126,186
org.apache.batik.Version,BRANCH,0.47058823529411764,0.47058823529411764,8,17
org.apache.batik.dom.svg.SVGOMGradientElement,BRANCH,0.8333333333333334,0.8333333333333334,10,12
org.apache.batik.swing.gvt.AbstractImageZoomInteractor,BRANCH,1.0,1.0,12,12
org.apache.batik.util.gui.xmleditor.XMLView,BRANCH,0.5,0.5,4,8
org.apache.batik.css.engine.value.LengthManager,BRANCH,0.8831168831168831,0.922077922077922,68,77
org.apache.batik.swing.svg.SVGDocumentLoaderAdapter,BRANCH,0.0,0.0,0,5
org.apache.batik.util.resources.ResourceManager,BRANCH,0.6666666666666666,0.6666666666666666,10,15
org.apache.batik.dom.svg.SVGOMToBeImplementedElement,BRANCH,1.0,1.0,8,8
org.apache.batik.util.SoftReferenceCache,BRANCH,0.5238095238095238,0.5238095238095238,22,42
org.apache.batik.bridge.SVGLinearGradientElementBridge,BRANCH,0.35714285714285715,0.35714285714285715,10,28
org.apache.batik.svggen.SVGTransform,BRANCH,0.9523809523809523,0.9761904761904762,40,42
org.apache.batik.css.engine.value.IdentifierManager,BRANCH,0.8461538461538461,0.8461538461538461,11,13
org.apache.batik.util.ApplicationSecurityEnforcer,BRANCH,0.20588235294117646,0.20588235294117646,7,34
org.apache.batik.apps.svgbrowser.OptionPanel,BRANCH,0.4,0.4,2,5
org.apache.batik.dom.GenericDocument,BRANCH,0.9259259259259259,1.0,25,27
org.apache.batik.ext.awt.geom.Linear,BRANCH,1.0,1.0,63,63
org.apache.batik.dom.svg.SVGOMAnimatedPathData,BRANCH,0.859375,0.859375,165,192
org.apache.batik.ext.awt.image.codec.util.SeekableOutputStream,BRANCH,1.0,1.0,9,9
org.apache.batik.anim.AbstractAnimation,BRANCH,0.7241379310344828,0.7586206896551724,21,29
org.apache.batik.bridge.SVGEllipseElementBridge,BRANCH,0.9444444444444444,0.9444444444444444,17,18
org.apache.batik.bridge.svg12.SVG12TextElementBridge,BRANCH,0.8,0.8,16,20
org.apache.batik.css.engine.value.svg.FillRuleManager,BRANCH,1.0,1.0,8,8
org.apache.batik.dom.AbstractChildNode,BRANCH,1.0,1.0,7,7
org.apache.batik.i18n.LocalizableSupport,BRANCH,0.9137931034482759,0.9482758620689655,53,58
org.apache.batik.ext.awt.image.renderable.ClipRable8Bit,BRANCH,0.5714285714285714,0.5714285714285714,12,21
org.apache.batik.ext.awt.image.rendered.TileRed,BRANCH,0.8734177215189873,0.8734177215189873,69,79
org.apache.batik.anim.timing.TimingSpecifierListProducer,BRANCH,1.0,1.0,14,14
org.apache.batik.bridge.SVGPathElementBridge,BRANCH,1.0,1.0,17,17
org.apache.batik.parser.FloatArrayProducer,BRANCH,1.0,1.0,10,10
org.apache.batik.ext.awt.image.codec.tiff.TIFFDecodeParam,BRANCH,1.0,1.0,9,9
org.apache.batik.parser.AbstractScanner,BRANCH,0.19047619047619047,0.19047619047619047,4,21
org.apache.batik.ext.awt.image.codec.util.SingleTileRenderedImage,BRANCH,1.0,1.0,5,5
org.apache.batik.dom.svg.AttributeInitializer,BRANCH,0.2222222222222222,1.0,2,9
org.apache.batik.gvt.flow.FlowTextLayoutFactory,BRANCH,1.0,1.0,2,2
org.apache.batik.gvt.event.SelectionAdapter,BRANCH,1.0,1.0,5,5
org.apache.batik.bridge.EmbededExternalResourceSecurity,BRANCH,0.16666666666666666,0.16666666666666666,1,6
org.apache.batik.ext.awt.image.rendered.CompositeRed,BRANCH,0.9090909090909091,0.9090909090909091,70,77
org.apache.batik.bridge.SVGAnimationElementBridge,BRANCH,0.6631578947368421,0.6631578947368421,63,95
org.apache.batik.bridge.svg12.BindableElementBridge,BRANCH,0.4528301886792453,0.4528301886792453,24,53
org.apache.batik.dom.svg.SVGOMCircleElement,BRANCH,0.9,1.0,9,10
org.apache.batik.ext.awt.image.IdentityTransfer,BRANCH,1.0,1.0,2,2
org.apache.batik.css.engine.value.svg.SpacingManager,BRANCH,1.0,1.0,20,20
org.apache.batik.bridge.SVGFeImageElementBridge,BRANCH,0.21052631578947367,0.21052631578947367,4,19
org.apache.batik.dom.svg.SVGOMTextPositioningElement,BRANCH,1.0,1.0,12,12
org.apache.batik.css.engine.value.FloatValue,BRANCH,1.0,1.0,11,11
org.apache.batik.svggen.SVGTexturePaint,BRANCH,0.875,0.875,14,16
org.apache.batik.anim.timing.Interval,BRANCH,0.8888888888888888,0.8888888888888888,16,18
org.apache.batik.gvt.event.GraphicsNodeChangeAdapter,BRANCH,0.6666666666666666,0.6666666666666666,2,3
org.apache.batik.dom.svg12.SVGOMFlowRootElement,BRANCH,1.0,1.0,4,4
org.apache.batik.bridge.DefaultExternalResourceSecurity,BRANCH,0.21428571428571427,0.21428571428571427,3,14
org.apache.batik.gvt.flow.RegionInfo,BRANCH,1.0,1.0,5,5
org.apache.batik.dom.svg.SVGOMLength,BRANCH,1.0,1.0,2,2
org.apache.batik.dom.svg.AbstractSVGPreserveAspectRatio,BRANCH,1.0,1.0,42,42
org.apache.batik.swing.svg.SVGDocumentLoaderEvent,BRANCH,1.0,1.0,2,2
org.apache.batik.dom.util.SAXDocumentFactory,BRANCH,0.64,0.648,80,125
org.apache.batik.extension.svg.HistogramRed,BRANCH,1.0,1.0,16,16
org.apache.batik.css.engine.value.svg.ColorInterpolationFiltersManager,BRANCH,1.0,1.0,3,3
org.apache.batik.svggen.DefaultExtensionHandler,BRANCH,1.0,1.0,4,4
org.apache.batik.anim.ColorAnimation,BRANCH,1.0,1.0,1,1
org.apache.batik.css.engine.sac.CSSPseudoElementSelector,BRANCH,1.0,1.0,5,5
org.apache.batik.svggen.SVGCustomPaint,BRANCH,0.5,0.5,4,8
org.apache.batik.svggen.font.table.CvtTable,BRANCH,0.0,0.0,0,4
org.apache.batik.svggen.font.table.CmapTable,BRANCH,0.0,0.0,0,15
org.apache.batik.transcoder.XMLAbstractTranscoder,BRANCH,0.7727272727272727,0.7727272727272727,17,22
org.apache.batik.transcoder.wmf.tosvg.AbstractWMFPainter,BRANCH,0.23529411764705882,0.23529411764705882,12,51
org.apache.batik.extension.svg.FlowExtTextLayoutFactory,BRANCH,1.0,1.0,2,2
org.apache.batik.ext.awt.image.codec.imageio.ImageIOPNGImageWriter,BRANCH,1.0,1.0,1,1
org.apache.batik.css.engine.sac.CSSOneOfAttributeCondition,BRANCH,0.8666666666666667,0.8666666666666667,13,15
org.apache.batik.xml.XMLUtilities,BRANCH,0.36645962732919257,0.36645962732919257,59,161
org.apache.batik.bridge.SVGFeComponentTransferElementBridge,BRANCH,0.2459016393442623,0.2459016393442623,15,61
org.apache.batik.swing.gvt.InteractorAdapter,BRANCH,1.0,1.0,13,13
org.apache.batik.script.rhino.BatikWrapFactory,BRANCH,0.3333333333333333,0.6666666666666666,1,3
org.apache.batik.svggen.DOMGroupManager,BRANCH,0.8333333333333334,0.8333333333333334,30,36
org.apache.batik.dom.AbstractNode,BRANCH,0.7862407862407862,0.7862407862407862,320,407
org.apache.batik.swing.svg.SVGLoadEventDispatcherEvent,BRANCH,1.0,1.0,2,2
org.apache.batik.ext.awt.image.ConcreteComponentTransferFunction,BRANCH,1.0,1.0,18,18
org.apache.batik.extension.PrefixableStylableExtensionElement,BRANCH,0.9285714285714286,0.9285714285714286,13,14
org.apache.batik.bridge.URIResolver,BRANCH,0.44,0.44,11,25
org.apache.batik.dom.GenericNotation,BRANCH,1.0,1.0,5,5
org.apache.batik.gvt.font.Glyph,BRANCH,0.7125,0.7125,57,80
org.apache.batik.anim.values.AnimatableLengthListValue,BRANCH,0.9047619047619048,0.9047619047619048,57,63
org.apache.batik.dom.AbstractProcessingInstruction,BRANCH,1.0,1.0,15,15
org.apache.batik.gvt.font.AWTGVTGlyphVector,BRANCH,0.45662100456621,0.45662100456621,100,219
org.apache.batik.css.engine.sac.CSSSelectorFactory,BRANCH,1.0,1.0,14,14
org.apache.batik.apps.svgbrowser.ElementOverlayManager,BRANCH,0.631578947368421,0.631578947368421,24,38
org.apache.batik.bridge.svg12.ContentSelectionChangedEvent,BRANCH,1.0,1.0,2,2
org.apache.batik.ext.awt.image.rendered.IndexImage,BRANCH,0.48026315789473684,0.48026315789473684,73,152
org.apache.batik.ext.awt.image.codec.tiff.TIFFImage,BRANCH,0.007155635062611807,0.007155635062611807,4,559
org.apache.batik.parser.DefaultErrorHandler,BRANCH,1.0,1.0,2,2
org.apache.batik.swing.gvt.GVTTreeRendererEvent,BRANCH,1.0,1.0,2,2
org.apache.batik.css.engine.sac.AbstractCombinatorCondition,BRANCH,1.0,1.0,12,12
org.apache.batik.gvt.text.GlyphLayout,BRANCH,0.5380710659898477,0.5380710659898477,318,591
org.apache.batik.bridge.TextUtilities,BRANCH,0.1111111111111111,0.1111111111111111,8,72
org.apache.batik.ext.awt.geom.ShapeExtender,BRANCH,1.0,1.0,19,19
org.apache.batik.dom.AbstractDOMImplementation,BRANCH,0.5,0.8333333333333334,12,24
org.apache.batik.css.parser.DefaultDescendantSelector,BRANCH,1.0,1.0,3,3
org.apache.batik.parser.UnitProcessor,BRANCH,0.9893617021276596,0.9893617021276596,93,94
org.apache.batik.util.gui.resource.ButtonFactory,BRANCH,0.625,0.625,10,16
org.apache.batik.dom.svg.SVGOMDefsElement,BRANCH,1.0,1.0,4,4
org.apache.batik.svggen.ClipKey,BRANCH,1.0,1.0,6,6
org.apache.batik.extension.svg.FlowParaElement,BRANCH,1.0,1.0,5,5
org.apache.batik.swing.svg.GVTTreeBuilderEvent,BRANCH,1.0,1.0,2,2
org.apache.batik.gvt.text.ArabicTextHandler,BRANCH,0.35335689045936397,0.35335689045936397,100,283
org.apache.batik.svggen.font.table.CmapFormat0,BRANCH,0.0,0.0,0,12
org.apache.batik.svggen.font.table.PostTable,BRANCH,0.0,0.0,0,19
org.apache.batik.dom.svg12.XBLOMShadowTreeElement,BRANCH,1.0,1.0,14,14
org.apache.batik.dom.svg.AbstractSVGPathSegList,BRANCH,1.0,1.0,208,208
org.apache.batik.dom.svg.SVGOMTextElement,BRANCH,1.0,1.0,23,23
org.apache.batik.swing.JSVGCanvas,BRANCH,0.5775862068965517,0.5775862068965517,134,232
org.apache.batik.css.parser.DefaultSelectorFactory,BRANCH,1.0,1.0,14,14
org.apache.batik.svggen.font.table.CmapFormat6,BRANCH,0.25,0.25,1,4
org.apache.batik.util.Service,BRANCH,0.05128205128205128,0.1794871794871795,2,39
org.apache.batik.svggen.font.table.CmapFormat4,BRANCH,0.0,0.0,0,35
org.apache.batik.dom.svg.SVGOMFESpotLightElement,BRANCH,1.0,1.0,15,15
org.apache.batik.svggen.font.table.CmapFormat2,BRANCH,0.25,0.25,1,4
org.apache.batik.svggen.font.table.Device,BRANCH,0.0,0.0,0,16
org.apache.batik.dom.svg.TraitInformation,BRANCH,1.0,1.0,5,5
org.apache.batik.swing.JSVGCanvasBeanInfo,BRANCH,1.0,1.0,11,11
org.apache.batik.bridge.SVGMarkerElementBridge,BRANCH,0.1111111111111111,0.1111111111111111,4,36
org.apache.batik.bridge.SVGFontFaceElementBridge,BRANCH,0.35,0.35,21,60
org.apache.batik.svggen.font.table.Os2Table,BRANCH,0.029411764705882353,0.029411764705882353,1,34
org.apache.batik.util.SVGFeatureStrings,BRANCH,1.0,1.0,2,2
org.apache.batik.css.engine.sac.AbstractAttributeCondition,BRANCH,1.0,1.0,9,9
org.apache.batik.ext.awt.image.renderable.DisplacementMapRable8Bit,BRANCH,0.7,0.7333333333333333,21,30
org.apache.batik.bridge.GVTBuilder,BRANCH,0.1568627450980392,0.1568627450980392,8,51
org.apache.batik.dom.svg.SVGOMPolygonElement,BRANCH,1.0,1.0,4,4
org.apache.batik.css.dom.CSSOMStoredStyleDeclaration,BRANCH,1.0,1.0,14,14
org.apache.batik.dom.events.AbstractEvent,BRANCH,1.0,1.0,34,34
org.apache.batik.gvt.text.GVTACIImpl,BRANCH,0.4339622641509434,0.4339622641509434,23,53
org.apache.batik.ext.awt.image.rendered.Any2LumRed,BRANCH,0.44,0.44,11,25
org.apache.batik.transcoder.TranscoderInput,BRANCH,1.0,1.0,16,16
org.apache.batik.transcoder.keys.PaintKey,BRANCH,1.0,1.0,2,2
org.apache.batik.dom.events.DocumentEventSupport,BRANCH,0.9545454545454546,1.0,21,22
org.apache.batik.dom.svg.SVGOMFECompositeElement,BRANCH,1.0,1.0,14,14
org.apache.batik.gvt.font.KerningTable,BRANCH,1.0,1.0,7,7
org.apache.batik.anim.values.AnimatablePreserveAspectRatioValue,BRANCH,0.9259259259259259,1.0,25,27
org.apache.batik.svggen.SVGRescaleOp,BRANCH,0.9047619047619048,0.9047619047619048,19,21
org.apache.batik.transcoder.image.TIFFTranscoder,BRANCH,0.6666666666666666,0.6666666666666666,8,12
org.apache.batik.transcoder.keys.BooleanKey,BRANCH,1.0,1.0,5,5
org.apache.batik.svggen.ImageHandlerPNGEncoder,BRANCH,1.0,1.0,5,5
org.apache.batik.css.engine.value.svg.StrokeLinecapManager,BRANCH,1.0,1.0,8,8
org.apache.batik.bridge.svg12.SVGFlowRootElementBridge,BRANCH,0.3108108108108108,0.3108108108108108,92,296
org.apache.batik.anim.values.AnimatableStringValue,BRANCH,1.0,1.0,17,17
org.apache.batik.dom.svg12.SVGOMFlowRegionExcludeElement,BRANCH,1.0,1.0,4,4
org.apache.batik.bridge.UserAgentAdapter,BRANCH,0.9302325581395349,0.9302325581395349,80,86
org.apache.batik.css.parser.DefaultAttributeCondition,BRANCH,1.0,1.0,7,7
org.apache.batik.gvt.font.GVTFontFace,BRANCH,0.9852941176470589,0.9852941176470589,67,68
org.apache.batik.bridge.AnimatableSVGBridge,BRANCH,0.9166666666666666,0.9166666666666666,11,12
org.apache.batik.dom.svg.SVGOMFontFaceElement,BRANCH,1.0,1.0,4,4
org.apache.batik.css.parser.DefaultElementSelector,BRANCH,1.0,1.0,4,4
org.apache.batik.dom.util.IntTable,BRANCH,0.8421052631578947,0.8421052631578947,80,95
org.apache.batik.transcoder.keys.FloatKey,BRANCH,1.0,1.0,2,2
org.apache.batik.transcoder.wmf.tosvg.TextureFactory,BRANCH,0.9259259259259259,0.9259259259259259,50,54
org.apache.batik.dom.svg.SVGOMAnimatedMarkerOrientValue,BRANCH,1.0,1.0,69,69
org.apache.batik.extension.svg.FlowLineElement,BRANCH,1.0,1.0,5,5
org.apache.batik.ext.awt.image.codec.png.PNGRed,BRANCH,0.08377896613190731,0.08377896613190731,47,561
org.apache.batik.extension.svg.GlyphIterator,BRANCH,0.009615384615384616,0.009615384615384616,1,104
org.apache.batik.dom.svg.SVGStylableElement,BRANCH,0.5078125,0.5078125,65,128
org.apache.batik.ext.awt.image.codec.tiff.TIFFField,BRANCH,1.0,1.0,115,115
org.apache.batik.dom.svg.SVGOMSwitchElement,BRANCH,1.0,1.0,4,4
org.apache.batik.dom.svg.SVGDOMImplementation,BRANCH,0.9782608695652174,0.9782608695652174,180,184
org.apache.batik.extension.svg.FlowExtTextPainter,BRANCH,0.4,0.4,4,10
org.apache.batik.swing.Messages,BRANCH,1.0,1.0,4,4
org.apache.batik.css.engine.sac.AbstractDescendantSelector,BRANCH,1.0,1.0,8,8
org.apache.batik.dom.svg.SVGLocatableSupport,BRANCH,0.46875,0.46875,15,32
org.apache.batik.css.dom.CSSOMStyleDeclaration,BRANCH,0.5384615384615384,0.5384615384615384,21,39
org.apache.batik.anim.values.AnimatableLengthValue,BRANCH,1.0,1.0,38,38
org.apache.batik.bridge.SVGFeCompositeElementBridge,BRANCH,0.2,0.2,4,20
org.apache.batik.ext.awt.image.rendered.AbstractRed,BRANCH,0.7380952380952381,0.7380952380952381,93,126
org.apache.batik.ext.awt.image.codec.imageio.ImageIOPNGRegistryEntry,BRANCH,1.0,1.0,1,1
org.apache.batik.svggen.font.Point,BRANCH,1.0,1.0,1,1
org.apache.batik.svggen.ImageHandlerBase64Encoder,BRANCH,0.7058823529411765,0.7058823529411765,12,17
org.apache.batik.css.engine.value.svg12.LineHeightManager,BRANCH,1.0,1.0,24,24
org.apache.batik.util.Platform,BRANCH,0.6666666666666666,0.6666666666666666,2,3
org.apache.batik.svggen.SVGFilterDescriptor,BRANCH,1.0,1.0,4,4
org.apache.batik.dom.GenericText,BRANCH,1.0,1.0,8,8
org.apache.batik.extension.svg.BatikRegularPolygonElementBridge,BRANCH,0.5555555555555556,0.5555555555555556,10,18
org.apache.batik.bridge.svg12.SVG12FocusManager,BRANCH,1.0,1.0,13,13
org.apache.batik.apps.svgbrowser.ThumbnailDialog,BRANCH,0.018867924528301886,0.018867924528301886,1,53
org.apache.batik.svggen.AbstractSVGFilterConverter,BRANCH,1.0,1.0,4,4
org.apache.batik.dom.svg.SVGOMFEFloodElement,BRANCH,1.0,1.0,8,8
org.apache.batik.gvt.flow.LineInfo,BRANCH,0.23703703703703705,0.23703703703703705,32,135
org.apache.batik.bridge.UpdateManager,BRANCH,0.006944444444444444,0.006944444444444444,1,144
org.apache.batik.parser.AngleParser,BRANCH,0.5897435897435898,0.5897435897435898,23,39
org.apache.batik.dom.util.SAXIOException,BRANCH,1.0,1.0,3,3
org.apache.batik.dom.svg.SVGOMFontFaceNameElement,BRANCH,1.0,1.0,4,4
org.apache.batik.parser.AWTPolygonProducer,BRANCH,1.0,1.0,3,3
org.apache.batik.ext.awt.LinearGradientPaintContext,BRANCH,0.0,0.0,0,130
org.apache.batik.bridge.svg12.SVG12BridgeContext,BRANCH,0.5569620253164557,0.5569620253164557,44,79
org.apache.batik.css.engine.value.AbstractValue,BRANCH,1.0,1.0,18,18
org.apache.batik.svggen.DefaultImageHandler,BRANCH,1.0,1.0,7,7
org.apache.batik.css.dom.CSSOMComputedStyle,BRANCH,0.9090909090909091,0.9090909090909091,20,22
org.apache.batik.svggen.SVGRectangle,BRANCH,0.8333333333333334,0.8333333333333334,15,18
org.apache.batik.bridge.SVGDecoratedShapeElementBridge,BRANCH,0.7647058823529411,0.7647058823529411,13,17
org.apache.batik.ext.awt.image.renderable.ConvolveMatrixRable8Bit,BRANCH,0.2857142857142857,0.2857142857142857,20,70
org.apache.batik.apps.svgbrowser.NodeTemplates,BRANCH,1.0,1.0,20,20
org.apache.batik.bridge.SVGFeTileElementBridge,BRANCH,1.0,1.0,4,4
org.apache.batik.bridge.CursorManager,BRANCH,0.1651376146788991,0.1651376146788991,18,109
org.apache.batik.anim.MotionAnimation,BRANCH,0.7604166666666666,0.8229166666666666,73,96
org.apache.batik.css.engine.value.svg.KerningManager,BRANCH,0.95,0.95,19,20
org.apache.batik.gvt.flow.FlowTextPainter,BRANCH,0.15942028985507245,0.15942028985507245,22,138
org.apache.batik.util.gui.xmleditor.XMLContext,BRANCH,1.0,1.0,32,32
org.apache.batik.svggen.font.table.SingleSubst,BRANCH,0.2,0.2,1,5
org.apache.batik.ext.awt.image.codec.png.PNGChunk,BRANCH,1.0,1.0,11,11
org.apache.batik.script.rhino.RhinoInterpreter,BRANCH,0.15625,0.15625,10,64
org.apache.batik.transcoder.TranscodingHints,BRANCH,1.0,1.0,14,14
org.apache.batik.dom.AbstractEntity,BRANCH,1.0,1.0,41,41
org.apache.batik.bridge.EmbededScriptSecurity,BRANCH,0.3,0.3,3,10
org.apache.batik.dom.GenericDocumentType,BRANCH,1.0,1.0,12,12
org.apache.batik.bridge.SVGTitleElementBridge,BRANCH,1.0,1.0,3,3
org.apache.batik.gvt.filter.GraphicsNodeRed8Bit,BRANCH,0.8421052631578947,0.8947368421052632,16,19
org.apache.batik.svggen.SVGAttributeMap,BRANCH,1.0,1.0,2,2
org.apache.batik.ext.awt.image.codec.tiff.TIFFDirectory,BRANCH,0.225,0.225,27,120
org.apache.batik.parser.DefaultPathHandler,BRANCH,1.0,1.0,22,22
org.apache.batik.svggen.SVGBasicStroke,BRANCH,0.88,0.88,22,25
org.apache.batik.ext.awt.image.codec.png.PNGTranscoderInternalCodecWriteAdapter,BRANCH,0.23529411764705882,0.23529411764705882,4,17
org.apache.batik.ext.awt.image.codec.tiff.TIFFEncodeParam,BRANCH,0.8787878787878788,0.8787878787878788,29,33
org.apache.batik.svggen.font.table.LigatureSet,BRANCH,0.0,0.0,0,4
org.apache.batik.css.engine.ImportRule,BRANCH,1.0,1.0,8,8
org.apache.batik.dom.svg.SVGOMAnimatedEnumeration,BRANCH,1.0,1.0,40,40
org.apache.batik.dom.svg.SVGTextContentSupport,BRANCH,0.36538461538461536,0.36538461538461536,19,52
org.apache.batik.xml.XMLScanner,BRANCH,0.42894507410636445,0.4280732345248474,492,1147
org.apache.batik.dom.svg.SVGOMAnimateMotionElement,BRANCH,1.0,1.0,5,5
org.apache.batik.ext.awt.image.codec.png.ChunkStream,BRANCH,1.0,1.0,20,20
org.apache.batik.dom.svg.SVGOMClipPathElement,BRANCH,1.0,1.0,8,8
org.apache.batik.bridge.DocumentJarClassLoader,BRANCH,0.8,0.8,8,10
org.apache.batik.util.gui.resource.ToolBarFactory,BRANCH,0.3333333333333333,0.3333333333333333,2,6
org.apache.batik.anim.values.AnimatableLengthOrIdentValue,BRANCH,0.9464285714285714,0.9464285714285714,53,56
org.apache.batik.ext.awt.image.codec.tiff.TIFFLZWDecoder,BRANCH,1.0,1.0,40,40
org.apache.batik.util.gui.UserStyleDialog,BRANCH,0.3333333333333333,0.3333333333333333,9,27
org.apache.batik.css.engine.value.svg.WritingModeManager,BRANCH,1.0,1.0,8,8
org.apache.batik.util.io.ASCIIDecoder,BRANCH,1.0,1.0,7,7
org.apache.batik.extension.svg.FlowExtGlyphLayout,BRANCH,0.06666666666666667,0.06666666666666667,8,120
org.apache.batik.parser.DefaultPointsHandler,BRANCH,1.0,1.0,4,4
org.apache.batik.ext.awt.geom.Polygon2D,BRANCH,1.0,1.0,65,65
org.apache.batik.dom.svg.AbstractSVGList,BRANCH,0.9107142857142857,0.9107142857142857,51,56
org.apache.batik.gvt.event.SelectionEvent,BRANCH,1.0,1.0,4,4
org.apache.batik.extension.svg.LineInfo,BRANCH,1.0,1.0,13,13
org.apache.batik.css.engine.value.svg.SVGColorManager,BRANCH,0.7105263157894737,0.7105263157894737,27,38
org.apache.batik.ext.awt.image.spi.JDKRegistryEntry,BRANCH,0.05454545454545454,0.05454545454545454,3,55
org.apache.batik.css.engine.sac.CSSBeginHyphenAttributeCondition,BRANCH,1.0,1.0,4,4
org.apache.batik.css.engine.value.svg.ColorManager,BRANCH,1.0,1.0,7,7
org.apache.batik.dom.svg.SVGOMScriptElement,BRANCH,1.0,1.0,11,11
org.apache.batik.css.engine.sac.CSSLangCondition,BRANCH,0.8888888888888888,0.8888888888888888,16,18
org.apache.batik.ext.awt.g2d.GraphicContext,BRANCH,0.9054054054054054,0.9054054054054054,67,74
org.apache.batik.transcoder.image.PNGTranscoder,BRANCH,0.7142857142857143,0.7142857142857143,10,14
org.apache.batik.bridge.DynamicGVTBuilder,BRANCH,1.0,1.0,1,1
org.apache.batik.dom.events.DOMKeyboardEvent,BRANCH,1.0,1.0,12,12
org.apache.batik.svggen.font.table.SingleSubstFormat2,BRANCH,0.0,0.0,0,5
org.apache.batik.dom.xbl.GenericXBLManager,BRANCH,1.0,1.0,30,30
org.apache.batik.dom.svg.SVGOMAnimateElement,BRANCH,1.0,1.0,4,4
org.apache.batik.gvt.event.GraphicsNodeKeyEvent,BRANCH,1.0,1.0,4,4
org.apache.batik.svggen.font.table.SingleSubstFormat1,BRANCH,0.25,0.25,1,4
org.apache.batik.css.engine.value.svg12.MarginShorthandManager,BRANCH,1.0,1.0,18,18
org.apache.batik.gvt.event.GraphicsNodeKeyAdapter,BRANCH,0.0,0.0,0,4
org.apache.batik.css.engine.value.StringMap,BRANCH,1.0,1.0,26,26
org.apache.batik.ext.awt.image.rendered.ColorMatrixRed,BRANCH,0.8048780487804879,0.8048780487804879,33,41
org.apache.batik.css.parser.CSSSelectorList,BRANCH,1.0,1.0,8,8
org.apache.batik.gvt.AbstractGraphicsNode,BRANCH,0.5128205128205128,0.5170940170940171,120,234
org.apache.batik.extension.svg.BatikFlowTextElementBridge,BRANCH,0.2635135135135135,0.2635135135135135,78,296
org.apache.batik.css.engine.value.svg.ImageRenderingManager,BRANCH,1.0,1.0,8,8
org.apache.batik.dom.traversal.DOMNodeIterator,BRANCH,0.6981132075471698,0.6981132075471698,74,106
org.apache.batik.swing.gvt.JGVTComponentAdapter,BRANCH,1.0,1.0,2,2
org.apache.batik.css.engine.sac.AbstractElementSelector,BRANCH,1.0,1.0,12,12
org.apache.batik.parser.AWTPathProducer,BRANCH,1.0,1.0,26,26
org.apache.batik.bridge.SVGSVGElementBridge,BRANCH,0.1617161716171617,0.1617161716171617,49,303
org.apache.batik.svggen.SVGGraphics2DRuntimeException,BRANCH,1.0,1.0,8,8
org.apache.batik.script.InterpreterException,BRANCH,1.0,1.0,9,9
org.apache.batik.apps.svgbrowser.NodePickerPanel,BRANCH,0.5353982300884956,0.5353982300884956,121,226
org.apache.batik.bridge.RelaxedScriptSecurity,BRANCH,1.0,1.0,2,2
org.apache.batik.anim.timing.SyncbaseTimingSpecifier,BRANCH,0.06666666666666667,0.06666666666666667,1,15
org.apache.batik.dom.svg.SVGOMFEFuncBElement,BRANCH,1.0,1.0,4,4
org.apache.batik.css.parser.DefaultErrorHandler,BRANCH,1.0,1.0,4,4
org.apache.batik.css.engine.value.svg.PointerEventsManager,BRANCH,1.0,1.0,8,8
org.apache.batik.css.parser.AbstractElementSelector,BRANCH,1.0,1.0,3,3
org.apache.batik.bridge.SVGCircleElementBridge,BRANCH,0.625,0.625,10,16
org.apache.batik.util.gui.xmleditor.XMLToken,BRANCH,1.0,1.0,4,4
org.apache.batik.css.engine.value.InheritValue,BRANCH,1.0,1.0,4,4
org.apache.batik.css.parser.AbstractAttributeCondition,BRANCH,1.0,1.0,2,2
org.apache.batik.apps.svgbrowser.PNGOptionPanel,BRANCH,0.3333333333333333,1.0,1,3
org.apache.batik.ext.awt.image.rendered.BufferedImageCachableRed,BRANCH,1.0,1.0,11,11
org.apache.batik.bridge.svg12.XPathPatternContentSelector,BRANCH,0.6153846153846154,0.6153846153846154,24,39
org.apache.batik.bridge.DefaultScriptSecurity,BRANCH,0.0625,0.1875,1,16
org.apache.batik.bridge.PaintServer,BRANCH,0.368,0.368,46,125
org.apache.batik.bridge.AbstractSVGLightingElementBridge,BRANCH,0.41379310344827586,0.41379310344827586,12,29
org.apache.batik.dom.svg.SVGURIReferenceGraphicsElement,BRANCH,0.8333333333333334,0.8333333333333334,5,6
org.apache.batik.dom.svg.SVGOMUseShadowRoot,BRANCH,1.0,1.0,13,13
org.apache.batik.svggen.CachedImageHandlerBase64Encoder,BRANCH,0.9090909090909091,0.9090909090909091,10,11
org.apache.batik.svggen.font.table.TableFactory,BRANCH,0.014084507042253521,0.014084507042253521,1,71
org.apache.batik.dom.svg.SVGOMAnimatedString,BRANCH,1.0,1.0,14,14
org.apache.batik.gvt.text.AttributedCharacterSpanIterator,BRANCH,0.9130434782608695,0.9130434782608695,21,23
org.apache.batik.apps.rasterizer.DefaultSVGConverterController,BRANCH,1.0,1.0,5,5
org.apache.batik.svggen.SVGPaintDescriptor,BRANCH,1.0,1.0,11,11
org.apache.batik.css.parser.ScannerUtilities,BRANCH,1.0,1.0,25,25
org.apache.batik.dom.svg.SVGOMAnimatedPoints,BRANCH,0.975609756097561,0.975609756097561,80,82
org.apache.batik.parser.NumberParser,BRANCH,0.8392282958199357,0.8392282958199357,261,311
org.apache.batik.dom.svg.SVGOMAnimatedBoolean,BRANCH,1.0,1.0,26,26
org.apache.batik.bridge.svg12.ContentManager,BRANCH,0.05747126436781609,0.05747126436781609,5,87
org.apache.batik.anim.timing.OffsetTimingSpecifier,BRANCH,1.0,1.0,5,5
org.apache.batik.ext.awt.image.DiscreteTransfer,BRANCH,1.0,1.0,6,6
org.apache.batik.bridge.SVGFeTurbulenceElementBridge,BRANCH,0.23076923076923078,0.23076923076923078,6,26
org.apache.batik.dom.svg.SVGPathSupport,BRANCH,0.5454545454545454,0.5454545454545454,6,11
org.apache.batik.anim.timing.EventLikeTimingSpecifier,BRANCH,1.0,1.0,2,2
org.apache.batik.bridge.SVGKernElementBridge,BRANCH,0.14545454545454545,0.14545454545454545,8,55
org.apache.batik.ext.swing.Resources,BRANCH,1.0,1.0,6,6
org.apache.batik.ext.awt.image.URLImageCache,BRANCH,1.0,1.0,7,7
org.apache.batik.bridge.svg12.XBLShadowTreeElementBridge,BRANCH,0.38461538461538464,0.38461538461538464,10,26
org.apache.batik.apps.svgbrowser.WindowsAltFileSystemView,BRANCH,0.6956521739130435,0.6956521739130435,16,23
org.apache.batik.bridge.AbstractSVGFilterPrimitiveElementBridge,BRANCH,0.11764705882352941,0.11764705882352941,6,51
org.apache.batik.svggen.font.table.Ligature,BRANCH,0.0,0.0,0,5
org.apache.batik.ext.awt.image.codec.imageio.ImageIOImageWriter,BRANCH,0.2222222222222222,0.2222222222222222,8,36
org.apache.batik.svggen.SVGArc,BRANCH,0.5217391304347826,0.5217391304347826,12,23
org.apache.batik.ext.awt.image.codec.jpeg.JPEGImageWriter,BRANCH,1.0,1.0,9,9
org.apache.batik.dom.svg.SVGOMFEGaussianBlurElement,BRANCH,1.0,1.0,11,11
org.apache.batik.extension.svg.ColorSwitchBridge,BRANCH,0.5333333333333333,0.5333333333333333,8,15
org.apache.batik.dom.svg.AbstractSVGLengthList,BRANCH,1.0,1.0,33,33
org.apache.batik.util.io.NormalizingReader,BRANCH,1.0,1.0,9,9
org.apache.batik.dom.AbstractNotation,BRANCH,1.0,1.0,13,13
org.apache.batik.ext.awt.image.codec.tiff.TIFFImageEncoder,BRANCH,0.4682274247491639,0.4682274247491639,280,598
org.apache.batik.dom.svg.SVGOMTSpanElement,BRANCH,1.0,1.0,4,4
org.apache.batik.svggen.font.table.GlyfSimpleDescript,BRANCH,0.06451612903225806,0.06451612903225806,2,31
org.apache.batik.css.engine.StyleMap,BRANCH,1.0,1.0,55,55
org.apache.batik.css.engine.value.URIValue,BRANCH,1.0,1.0,2,2
org.apache.batik.anim.timing.TimingSpecifier,BRANCH,0.875,0.875,7,8
org.apache.batik.anim.values.AnimatableNumberOrPercentageValue,BRANCH,1.0,1.0,25,25
org.apache.batik.ext.awt.image.renderable.FilterResRable8Bit,BRANCH,0.38333333333333336,0.38333333333333336,23,60
org.apache.batik.bridge.svg12.XPathSubsetContentSelector,BRANCH,0.7448453608247423,0.7448453608247423,289,388
org.apache.batik.anim.values.AnimatablePathDataValue,BRANCH,0.9795918367346939,0.9795918367346939,48,49
org.apache.batik.svggen.font.table.Lookup,BRANCH,0.0,0.0,0,7
org.apache.batik.gvt.text.TextPaintInfo,BRANCH,0.8928571428571429,0.8928571428571429,25,28
org.apache.batik.apps.svgbrowser.FindDialog,BRANCH,0.03636363636363636,0.03636363636363636,2,55
org.apache.batik.anim.values.AnimatableColorValue,BRANCH,1.0,1.0,18,18
org.apache.batik.ext.awt.image.renderable.FilterChainRable8Bit,BRANCH,0.9615384615384616,0.9615384615384616,25,26
org.apache.batik.util.gui.ExtendedGridBagConstraints,BRANCH,1.0,1.0,3,3
org.apache.batik.dom.svg.SVGOMTransform,BRANCH,0.4,0.4,4,10
org.apache.batik.svggen.SVGClipDescriptor,BRANCH,1.0,1.0,8,8
org.apache.batik.ext.awt.image.spi.ImageWriterParams,BRANCH,1.0,1.0,9,9
org.apache.batik.ext.awt.geom.Polyline2D,BRANCH,0.9818181818181818,0.9818181818181818,54,55
org.apache.batik.svggen.font.table.Program,BRANCH,1.0,1.0,6,6
org.apache.batik.ext.awt.image.AbstractLight,BRANCH,0.9230769230769231,0.9230769230769231,12,13
org.apache.batik.gvt.RasterImageNode,BRANCH,1.0,1.0,16,16
org.apache.batik.util.io.GenericDecoder,BRANCH,1.0,1.0,5,5
org.apache.batik.bridge.SVGDescElementBridge,BRANCH,1.0,1.0,3,3
org.apache.batik.bridge.UpdateManagerEvent,BRANCH,1.0,1.0,5,5
org.apache.batik.ext.awt.image.renderable.SpecularLightingRable8Bit,BRANCH,0.8421052631578947,0.8421052631578947,32,38
org.apache.batik.swing.gvt.AbstractJGVTComponent,BRANCH,0.7012987012987013,0.7012987012987013,162,231
org.apache.batik.bridge.SVGFeOffsetElementBridge,BRANCH,0.75,0.75,3,4
org.apache.batik.css.engine.value.css2.OverflowManager,BRANCH,1.0,1.0,8,8
org.apache.batik.css.parser.AbstractSiblingSelector,BRANCH,1.0,1.0,4,4
org.apache.batik.bridge.SVGTextPathElementBridge,BRANCH,0.15789473684210525,0.15789473684210525,3,19
org.apache.batik.svggen.font.table.KerningPair,BRANCH,0.25,0.25,1,4
org.apache.batik.css.engine.sac.AbstractSiblingSelector,BRANCH,1.0,1.0,9,9
org.apache.batik.bridge.InterruptedBridgeException,BRANCH,1.0,1.0,1,1
org.apache.batik.svggen.SVGRenderingHints,BRANCH,0.575,0.575,23,40
org.apache.batik.util.HaltingThread,BRANCH,1.0,1.0,13,13
org.apache.batik.apps.svgbrowser.DOMDocumentTree,BRANCH,0.16129032258064516,0.16129032258064516,25,155
org.apache.batik.css.engine.value.css2.FontStyleManager,BRANCH,1.0,1.0,8,8
org.apache.batik.dom.svg12.SVGOMFlowParaElement,BRANCH,1.0,1.0,4,4
org.apache.batik.css.engine.value.RectValue,BRANCH,1.0,1.0,8,8
org.apache.batik.css.engine.StringIntMap,BRANCH,0.9,0.9,18,20
org.apache.batik.dom.svg12.SVGOMFlowLineElement,BRANCH,1.0,1.0,4,4
org.apache.batik.css.engine.value.css2.FontWeightManager,BRANCH,0.8928571428571429,0.8928571428571429,75,84
org.apache.batik.svggen.SVGAttribute,BRANCH,1.0,1.0,8,8
org.apache.batik.gvt.ProxyGraphicsNode,BRANCH,1.0,1.0,21,21
org.apache.batik.util.RunnableQueue,BRANCH,0.3627450980392157,0.35294117647058826,36,102
org.apache.batik.ext.awt.color.NamedProfileCache,BRANCH,1.0,1.0,7,7
org.apache.batik.ext.awt.image.rendered.TileLRUMember,BRANCH,0.9444444444444444,0.9444444444444444,17,18
org.apache.batik.ext.awt.image.spi.ImageTagRegistry,BRANCH,0.46017699115044247,0.5309734513274337,52,113
org.apache.batik.dom.svg.SVGOMAnimateColorElement,BRANCH,1.0,1.0,4,4
org.apache.batik.dom.util.ListNodeList,BRANCH,1.0,1.0,6,6
org.apache.batik.anim.SetAnimation,BRANCH,1.0,1.0,5,5
org.apache.batik.gvt.Marker,BRANCH,1.0,1.0,7,7
org.apache.batik.ext.swing.JGridBagPanel,BRANCH,0.9230769230769231,1.0,12,13
org.apache.batik.dom.StyleSheetProcessingInstruction,BRANCH,0.9166666666666666,0.9166666666666666,11,12
org.apache.batik.css.dom.CSSOMValue,BRANCH,0.6421052631578947,0.6421052631578947,183,285
org.apache.batik.dom.svg.SVGOMFontFaceFormatElement,BRANCH,1.0,1.0,4,4
org.apache.batik.dom.svg12.SVGOMFlowRegionElement,BRANCH,1.0,1.0,4,4
org.apache.batik.dom.svg.SVGOMVKernElement,BRANCH,1.0,1.0,4,4
org.apache.batik.dom.events.DOMUIEvent,BRANCH,1.0,1.0,15,15
org.apache.batik.dom.svg.SVGOMTitleElement,BRANCH,1.0,1.0,4,4
org.apache.batik.svggen.font.table.KernSubtable,BRANCH,0.14285714285714285,0.14285714285714285,1,7
org.apache.batik.bridge.svg12.DefaultXBLManager,BRANCH,0.5046728971962616,0.5046728971962616,216,428
org.apache.batik.util.CleanerThread,BRANCH,0.5,0.5,4,8
org.apache.batik.anim.values.AnimatableAngleValue,BRANCH,1.0,1.0,26,26
org.apache.batik.css.parser.Scanner,BRANCH,0.49295774647887325,0.5020712510356256,595,1207
org.apache.batik.ext.awt.MultipleGradientPaintContext,BRANCH,0.12937062937062938,0.13286713286713286,37,286
org.apache.batik.ext.awt.image.GammaTransfer,BRANCH,1.0,1.0,8,8
org.apache.batik.parser.PreserveAspectRatioParser,BRANCH,0.27419354838709675,0.27419354838709675,34,124
org.apache.batik.dom.svg.SVGOMTRefElement,BRANCH,1.0,1.0,4,4
org.apache.batik.gvt.text.ConcreteTextLayoutFactory,BRANCH,1.0,1.0,2,2
org.apache.batik.svggen.font.table.Coverage,BRANCH,0.2,0.2,1,5
org.apache.batik.ext.awt.image.codec.util.PropertyUtil,BRANCH,1.0,1.0,2,2
org.apache.batik.svggen.SVGCompositeDescriptor,BRANCH,1.0,1.0,11,11
org.apache.batik.gvt.filter.ConcreteGraphicsNodeRableFactory,BRANCH,1.0,1.0,2,2
org.apache.batik.util.PreferenceManager,BRANCH,0.863905325443787,0.863905325443787,146,169
org.apache.batik.ext.awt.RadialGradientPaintContext,BRANCH,0.0,0.0,0,90
org.apache.batik.extension.svg.FlowRegionElement,BRANCH,1.0,1.0,5,5
org.apache.batik.bridge.SVGRadialGradientElementBridge,BRANCH,0.42857142857142855,0.42857142857142855,12,28
org.apache.batik.i18n.LocaleGroup,BRANCH,1.0,1.0,3,3
org.apache.batik.svggen.font.table.GlyfCompositeDescript,BRANCH,0.41025641025641024,0.4358974358974359,16,39
org.apache.batik.ext.awt.geom.PathLength,BRANCH,0.8981481481481481,0.9074074074074074,97,108
org.apache.batik.dom.svg12.SVG12DOMImplementation,BRANCH,0.9090909090909091,0.9090909090909091,60,66
org.apache.batik.ext.awt.ColorSpaceHintKey,BRANCH,0.07692307692307693,1.0,1,13
org.apache.batik.css.parser.AbstractDescendantSelector,BRANCH,1.0,1.0,3,3
org.apache.batik.ext.awt.font.TextPathLayout,BRANCH,0.16,0.16,4,25
org.apache.batik.ext.awt.image.ARGBChannel,BRANCH,0.9166666666666666,0.9166666666666666,11,12
org.apache.batik.ext.awt.BufferedImageHintKey,BRANCH,0.6666666666666666,1.0,6,9
org.apache.batik.svggen.SVGFontDescriptor,BRANCH,1.0,1.0,19,19
org.apache.batik.css.parser.CSSSACMediaList,BRANCH,1.0,1.0,8,8
org.apache.batik.ext.awt.image.codec.imageio.ImageIOTIFFImageWriter,BRANCH,1.0,1.0,1,1
org.apache.batik.ext.awt.image.rendered.TileCache,BRANCH,1.0,1.0,5,5
org.apache.batik.css.engine.value.svg.TextRenderingManager,BRANCH,1.0,1.0,8,8
org.apache.batik.dom.svg.SVGOMFEMorphologyElement,BRANCH,1.0,1.0,11,11
org.apache.batik.transcoder.wmf.tosvg.MetaRecord,BRANCH,1.0,1.0,8,8
org.apache.batik.bridge.UserAgentViewport,BRANCH,1.0,1.0,3,3
org.apache.batik.gvt.TextNode,BRANCH,0.4583333333333333,0.5729166666666666,44,96
org.apache.batik.gvt.renderer.StaticRenderer,BRANCH,0.5375,0.5375,43,80
org.apache.batik.dom.GenericProcessingInstruction,BRANCH,1.0,1.0,12,12
org.apache.batik.gvt.text.ConcreteTextSelector,BRANCH,0.7870370370370371,0.7870370370370371,85,108
org.apache.batik.ext.awt.image.renderable.ComponentTransferRable8Bit,BRANCH,0.34285714285714286,0.34285714285714286,12,35
org.apache.batik.dom.svg.SVGOMFESpecularLightingElement,BRANCH,1.0,1.0,11,11
org.apache.batik.transcoder.svg2svg.OutputManager,BRANCH,0.786046511627907,0.786046511627907,169,215
org.apache.batik.dom.util.TriplyIndexedTable,BRANCH,1.0,1.0,44,44
org.apache.batik.css.engine.value.ComputedValue,BRANCH,1.0,1.0,21,21
org.apache.batik.gvt.event.GraphicsNodeFocusEvent,BRANCH,1.0,1.0,1,1
org.apache.batik.xml.XMLStreamNormalizingReader,BRANCH,0.5416666666666666,0.4375,26,48
org.apache.batik.extension.svg.FlowTextElement,BRANCH,1.0,1.0,5,5
org.apache.batik.dom.svg.SVGOMFEBlendElement,BRANCH,1.0,1.0,10,10
org.apache.batik.ext.swing.AffineTransformTracker,BRANCH,1.0,1.0,4,4
org.apache.batik.dom.svg.SVGOMFEFuncGElement,BRANCH,1.0,1.0,4,4
org.apache.batik.css.engine.value.svg.GlyphOrientationHorizontalManager,BRANCH,1.0,1.0,3,3
org.apache.batik.dom.svg.SVGOMFontElement,BRANCH,1.0,1.0,8,8
org.apache.batik.swing.gvt.TextSelectionManager,BRANCH,0.9629629629629629,0.9629629629629629,52,54
org.apache.batik.ext.awt.g2d.TransformType,BRANCH,0.9285714285714286,0.9285714285714286,13,14
org.apache.batik.gvt.UpdateTracker,BRANCH,0.75,0.7608695652173914,69,92
org.apache.batik.dom.svg.SVGOMRectElement,BRANCH,0.7567567567567568,0.8918918918918919,28,37
org.apache.batik.bridge.SVGFeSpecularLightingElementBridge,BRANCH,0.2,0.2,2,10
org.apache.batik.util.AbstractParsedURLProtocolHandler,BRANCH,1.0,1.0,2,2
org.apache.batik.gvt.font.UnicodeRange,BRANCH,1.0,1.0,14,14
org.apache.batik.css.parser.ExtendedParserWrapper,BRANCH,1.0,1.0,25,25
org.apache.batik.svggen.font.table.HeadTable,BRANCH,0.05263157894736842,0.05263157894736842,1,19
org.apache.batik.gvt.PatternPaintContext,BRANCH,0.5757575757575758,0.6363636363636364,19,33
org.apache.batik.bridge.svg12.XBLContentElementBridge,BRANCH,0.3793103448275862,0.3793103448275862,11,29
org.apache.batik.bridge.AbstractSVGGradientElementBridge,BRANCH,0.32608695652173914,0.32608695652173914,15,46
org.apache.batik.dom.GenericComment,BRANCH,1.0,1.0,5,5
org.apache.batik.anim.timing.EventbaseTimingSpecifier,BRANCH,0.0,0.0,0,10
org.apache.batik.gvt.text.BidiAttributedCharacterIterator,BRANCH,0.8176943699731903,0.8176943699731903,305,373
org.apache.batik.dom.svg.SVGOMAnimatedLengthList,BRANCH,0.776595744680851,0.9574468085106383,73,94
org.apache.batik.dom.svg.AbstractSVGTransform,BRANCH,1.0,1.0,14,14
org.apache.batik.anim.values.AnimatableValue,BRANCH,1.0,1.0,6,6
org.apache.batik.parser.DefaultFragmentIdentifierHandler,BRANCH,1.0,1.0,20,20
org.apache.batik.css.engine.value.svg.ClipPathManager,BRANCH,1.0,1.0,25,25
org.apache.batik.dom.util.XMLSupport,BRANCH,0.7272727272727273,0.7045454545454546,32,44
org.apache.batik.anim.timing.AccesskeyTimingSpecifier,BRANCH,1.0,1.0,19,19
org.apache.batik.css.engine.sac.CSSIdCondition,BRANCH,1.0,1.0,10,10
org.apache.batik.css.engine.value.css2.UnicodeBidiManager,BRANCH,1.0,1.0,8,8
org.apache.batik.gvt.renderer.BasicTextPainter,BRANCH,1.0,1.0,10,10
org.apache.batik.dom.svg.SVGOMImageElement,BRANCH,1.0,1.0,13,13
org.apache.batik.gvt.PatternPaint,BRANCH,0.8787878787878788,0.8787878787878788,29,33
org.apache.batik.swing.gvt.GVTTreeRenderer,BRANCH,0.6,0.65,12,20
org.apache.batik.css.engine.CSSEngine,BRANCH,0.34202898550724636,0.34202898550724636,236,690
org.apache.batik.ext.awt.image.renderable.ProfileRable,BRANCH,0.7142857142857143,0.7142857142857143,5,7
org.apache.batik.svggen.SVGPolygon,BRANCH,0.8125,0.8125,13,16
org.apache.batik.ext.awt.image.codec.png.IDATOutputStream,BRANCH,1.0,1.0,11,11
org.apache.batik.ext.awt.image.codec.tiff.TIFFImageDecoder,BRANCH,0.6666666666666666,0.6666666666666666,4,6
org.apache.batik.extension.StylableExtensionElement,BRANCH,0.9545454545454546,0.9545454545454546,21,22
org.apache.batik.transcoder.keys.IntegerKey,BRANCH,1.0,1.0,2,2
org.apache.batik.ext.awt.MultipleGradientPaint,BRANCH,0.8888888888888888,0.8888888888888888,32,36
org.apache.batik.dom.svg.SVGAnimatedPathDataSupport,BRANCH,0.9767441860465116,0.9767441860465116,42,43
org.apache.batik.ext.awt.image.codec.util.FileCacheSeekableStream,BRANCH,0.9642857142857143,0.9642857142857143,27,28
org.apache.batik.util.XMLResourceDescriptor,BRANCH,1.0,1.0,9,9
org.apache.batik.dom.svg.SVGOMAElement,BRANCH,1.0,1.0,9,9
org.apache.batik.gvt.font.GVTLineMetrics,BRANCH,0.8823529411764706,0.8823529411764706,15,17
org.apache.batik.ext.awt.image.renderable.TurbulenceRable8Bit,BRANCH,1.0,1.0,27,27
org.apache.batik.css.engine.SVG12CSSEngine,BRANCH,1.0,1.0,2,2
org.apache.batik.svggen.font.SVGFont,BRANCH,0.3466666666666667,0.3466666666666667,52,150
org.apache.batik.css.engine.sac.CSSClassCondition,BRANCH,0.6,0.6,9,15
org.apache.batik.css.engine.value.AbstractValueManager,BRANCH,1.0,1.0,7,7
org.apache.batik.css.engine.value.css2.FontSizeManager,BRANCH,0.9577464788732394,0.9577464788732394,68,71
org.apache.batik.script.InterpreterPool,BRANCH,0.6666666666666666,0.6666666666666666,6,9
org.apache.batik.swing.svg.GVTTreeBuilderAdapter,BRANCH,0.0,0.0,0,5
org.apache.batik.bridge.StyleReference,BRANCH,1.0,1.0,3,3
org.apache.batik.swing.gvt.JGVTComponent,BRANCH,1.0,1.0,8,8
org.apache.batik.css.engine.value.css2.TextDecorationManager,BRANCH,1.0,1.0,25,25
org.apache.batik.gvt.event.GraphicsNodeChangeEvent,BRANCH,1.0,1.0,3,3
org.apache.batik.bridge.SVGPolylineElementBridge,BRANCH,0.8,0.8,12,15
org.apache.batik.parser.NumberListParser,BRANCH,1.0,1.0,5,5
org.apache.batik.css.engine.value.svg.EnableBackgroundManager,BRANCH,0.7560975609756098,0.7804878048780488,31,41
org.apache.batik.gvt.flow.FlowGlyphLayout,BRANCH,1.0,1.0,1,1
org.apache.batik.gvt.flow.FlowRegions,BRANCH,1.0,1.0,55,55
org.apache.batik.extension.svg.FlowDivElement,BRANCH,1.0,1.0,5,5
org.apache.batik.extension.svg.BatikRegularPolygonElement,BRANCH,1.0,1.0,5,5
org.apache.batik.svggen.font.table.FeatureList,BRANCH,0.0,0.0,0,12
org.apache.batik.dom.events.DOMTimeEvent,BRANCH,1.0,1.0,6,6
org.apache.batik.script.rhino.RhinoClassShutter,BRANCH,1.0,1.0,15,15
org.apache.batik.css.engine.value.svg.StrokeLinejoinManager,BRANCH,1.0,1.0,8,8
org.apache.batik.svggen.font.table.CmapIndexEntry,BRANCH,0.03571428571428571,0.03571428571428571,1,28
org.apache.batik.ext.awt.image.rendered.DiffuseLightingRed,BRANCH,0.05555555555555555,0.05555555555555555,2,36
org.apache.batik.ext.awt.image.CompositeRule,BRANCH,0.5208333333333334,0.5208333333333334,25,48
org.apache.batik.dom.util.HashTableStack,BRANCH,0.9375,1.0,15,16
org.apache.batik.css.engine.value.AbstractColorManager,BRANCH,0.5,0.5,10,20
org.apache.batik.bridge.svg12.AbstractContentSelector,BRANCH,0.7777777777777778,0.7777777777777778,7,9
org.apache.batik.svggen.font.table.LigatureSubst,BRANCH,0.3333333333333333,0.3333333333333333,1,3
org.apache.batik.gvt.renderer.MacRenderer,BRANCH,0.9076923076923077,0.9538461538461539,59,65
org.apache.batik.dom.AbstractAttrNS,BRANCH,0.8928571428571429,0.8928571428571429,25,28
org.apache.batik.dom.events.DOMMouseEvent,BRANCH,1.0,1.0,26,26
org.apache.batik.ext.awt.image.rendered.FormatRed,BRANCH,0.9090909090909091,0.9090909090909091,50,55
org.apache.batik.anim.timing.TimeContainer,BRANCH,0.0,0.0,0,17
org.apache.batik.transcoder.wmf.tosvg.GdiObject,BRANCH,1.0,1.0,7,7
org.apache.batik.bridge.SVGFeConvolveMatrixElementBridge,BRANCH,0.21212121212121213,0.21212121212121213,14,66
org.apache.batik.transcoder.keys.LengthKey,BRANCH,1.0,1.0,5,5
org.apache.batik.ext.awt.image.codec.png.CRC,BRANCH,1.0,1.0,3,3
org.apache.batik.dom.svg.SVGOMMarkerElement,BRANCH,0.875,1.0,21,24
org.apache.batik.bridge.BaseScriptingEnvironment,BRANCH,0.00980392156862745,0.00980392156862745,2,204
org.apache.batik.bridge.FontFace,BRANCH,0.16666666666666666,0.16666666666666666,6,36
org.apache.batik.parser.DefaultTimingSpecifierListHandler,BRANCH,1.0,1.0,3,3
org.apache.batik.anim.values.AnimatableIntegerValue,BRANCH,0.9333333333333333,1.0,14,15
org.apache.batik.ext.awt.image.codec.imageio.AbstractImageIORegistryEntry,BRANCH,0.5714285714285714,0.5714285714285714,4,7
org.apache.batik.css.engine.value.StringValue,BRANCH,1.0,1.0,19,19
org.apache.batik.ext.awt.image.rendered.LRUCache,BRANCH,1.0,1.0,33,33
org.apache.batik.bridge.BridgeContext,BRANCH,0.2572944297082228,0.2572944297082228,97,377
org.apache.batik.css.engine.value.ListValue,BRANCH,1.0,1.0,13,13
org.apache.batik.dom.svg12.XBLEventSupport,BRANCH,0.6695652173913044,0.7130434782608696,77,115
org.apache.batik.ext.awt.image.codec.png.PNGRegistryEntry,BRANCH,0.5,0.5,3,6
org.apache.batik.apps.svgbrowser.SVGOptionPanel,BRANCH,1.0,1.0,4,4
org.apache.batik.apps.svgbrowser.XMLInputHandler,BRANCH,0.5813953488372093,0.5813953488372093,25,43
org.apache.batik.svggen.SVGGeneratorContext,BRANCH,1.0,1.0,52,52
org.apache.batik.css.engine.value.svg.ColorInterpolationManager,BRANCH,1.0,1.0,8,8
org.apache.batik.svggen.font.table.GlyfCompositeComp,BRANCH,1.0,1.0,26,26
org.apache.batik.gvt.text.TextHit,BRANCH,1.0,1.0,3,3
org.apache.batik.dom.svg.SVGOMFEPointLightElement,BRANCH,1.0,1.0,10,10
org.apache.batik.ext.awt.image.codec.tiff.TIFFTranscoderInternalCodecWriteAdapter,BRANCH,0.4444444444444444,0.4444444444444444,4,9
org.apache.batik.css.engine.SVGCSSEngine,BRANCH,1.0,1.0,5,5
org.apache.batik.css.engine.sac.CSSPseudoClassCondition,BRANCH,1.0,1.0,12,12
org.apache.batik.transcoder.DefaultErrorHandler,BRANCH,1.0,1.0,4,4
org.apache.batik.bridge.SVGUseElementBridge,BRANCH,0.29333333333333333,0.29333333333333333,22,75
org.apache.batik.ext.awt.image.PadMode,BRANCH,0.1111111111111111,0.1111111111111111,1,9
org.apache.batik.gvt.event.GraphicsNodeMouseEvent,BRANCH,1.0,1.0,14,14
org.apache.batik.dom.svg.AbstractSVGLength,BRANCH,1.0,1.0,22,22
org.apache.batik.dom.svg.SVGOMGElement,BRANCH,1.0,1.0,4,4
org.apache.batik.dom.events.DOMTextEvent,BRANCH,1.0,1.0,4,4
org.apache.batik.ext.awt.color.ICCColorSpaceExt,BRANCH,1.0,1.0,30,30
org.apache.batik.ext.awt.image.renderable.TileRable8Bit,BRANCH,0.3,0.3,33,110
org.apache.batik.extension.svg.FlowRegionBreakElement,BRANCH,1.0,1.0,5,5
org.apache.batik.svggen.SVGHintsDescriptor,BRANCH,1.0,1.0,14,14
org.apache.batik.ext.awt.image.renderable.GaussianBlurRable8Bit,BRANCH,0.76,0.76,38,50
org.apache.batik.apps.rasterizer.Messages,BRANCH,1.0,1.0,6,6
org.apache.batik.dom.GenericCDATASection,BRANCH,1.0,1.0,8,8
org.apache.batik.ext.awt.RadialGradientPaint,BRANCH,0.9375,0.9375,15,16
org.apache.batik.anim.timing.RepeatTimingSpecifier,BRANCH,0.16666666666666666,0.16666666666666666,2,12
org.apache.batik.util.gui.xmleditor.XMLTextEditor,BRANCH,0.875,1.0,7,8
org.apache.batik.css.engine.value.css2.DirectionManager,BRANCH,1.0,1.0,8,8
org.apache.batik.svggen.SVGPath,BRANCH,0.7916666666666666,0.7916666666666666,19,24
org.apache.batik.dom.AbstractDocumentFragment,BRANCH,1.0,1.0,27,27
org.apache.batik.dom.events.EventSupport,BRANCH,0.6451612903225806,0.7526881720430108,60,93
org.apache.batik.dom.svg.SVGOMMaskElement,BRANCH,1.0,1.0,13,13
org.apache.batik.parser.DefaultTransformListHandler,BRANCH,1.0,1.0,12,12
org.apache.batik.anim.values.AnimatableNumberOrIdentValue,BRANCH,0.9642857142857143,0.9642857142857143,54,56
org.apache.batik.gvt.CompositeShapePainter,BRANCH,0.8852459016393442,0.8852459016393442,54,61
org.apache.batik.anim.timing.TimedElement,BRANCH,0.015748031496062992,0.015748031496062992,8,508
org.apache.batik.gvt.flow.BlockInfo,BRANCH,0.9523809523809523,0.9523809523809523,20,21
org.apache.batik.svggen.font.table.RangeRecord,BRANCH,0.14285714285714285,0.14285714285714285,1,7
org.apache.batik.script.rhino.EventTargetWrapper,BRANCH,0.4444444444444444,0.4639175257731959,44,99
org.apache.batik.dom.svg.SVGOMException,BRANCH,1.0,1.0,1,1
org.apache.batik.svggen.font.table.GlyfTable,BRANCH,0.06666666666666667,0.06666666666666667,1,15
org.apache.batik.util.SoftDoublyIndexedTable,BRANCH,0.7058823529411765,0.6666666666666666,36,51
org.apache.batik.bridge.svg12.SVG12BridgeExtension,BRANCH,1.0,1.0,20,20
org.apache.batik.dom.GenericAttrNS,BRANCH,1.0,1.0,5,5
org.apache.batik.dom.AbstractElement,BRANCH,0.8544303797468354,0.8607594936708861,270,316
org.apache.batik.bridge.SVGVKernElementBridge,BRANCH,1.0,1.0,2,2
org.apache.batik.gvt.CanvasGraphicsNode,BRANCH,0.9130434782608695,0.9130434782608695,21,23
org.apache.batik.svggen.SVGFont,BRANCH,0.8793103448275862,0.8793103448275862,51,58
org.apache.batik.dom.svg.SVGOMMPathElement,BRANCH,1.0,1.0,9,9
org.apache.batik.gvt.flow.MarginInfo,BRANCH,1.0,1.0,12,12
org.apache.batik.bridge.SVGFontElementBridge,BRANCH,0.42857142857142855,0.42857142857142855,6,14
org.apache.batik.dom.GenericElementNS,BRANCH,1.0,1.0,11,11
org.apache.batik.dom.svg12.XBLOMXBLElement,BRANCH,1.0,1.0,4,4
org.apache.batik.bridge.SVGSetElementBridge,BRANCH,1.0,1.0,6,6
org.apache.batik.bridge.SVGMissingGlyphElementBridge,BRANCH,1.0,1.0,2,2
org.apache.batik.parser.FragmentIdentifierParser,BRANCH,0.16598360655737704,0.16598360655737704,81,488
org.apache.batik.util.ParsedURLDefaultProtocolHandler,BRANCH,0.9868421052631579,0.9868421052631579,225,228
org.apache.batik.dom.svg.SVGOMViewElement,BRANCH,1.0,1.0,14,14
org.apache.batik.parser.LengthArrayProducer,BRANCH,1.0,1.0,22,22
org.apache.batik.ext.awt.image.renderable.FilterAsAlphaRable,BRANCH,0.8181818181818182,0.6363636363636364,9,11
org.apache.batik.ext.awt.image.SpotLight,BRANCH,1.0,1.0,18,18
org.apache.batik.transcoder.svg2svg.SVGTranscoder,BRANCH,0.6857142857142857,0.6857142857142857,24,35
org.apache.batik.bridge.svg12.SVGMultiImageElementBridge,BRANCH,0.32894736842105265,0.32894736842105265,25,76
org.apache.batik.svggen.XmlWriter,BRANCH,0.7671957671957672,0.7671957671957672,145,189
org.apache.batik.css.engine.StyleDeclaration,BRANCH,1.0,1.0,19,19
org.apache.batik.svggen.font.table.NameRecord,BRANCH,0.045454545454545456,0.045454545454545456,1,22
org.apache.batik.dom.svg.SVGOMHKernElement,BRANCH,1.0,1.0,4,4
org.apache.batik.gvt.FillShapePainter,BRANCH,1.0,1.0,24,24
org.apache.batik.swing.svg.SVGLoadEventDispatcherAdapter,BRANCH,1.0,1.0,5,5
org.apache.batik.css.engine.value.css2.CursorManager,BRANCH,0.6857142857142857,0.6857142857142857,24,35
org.apache.batik.dom.svg.SVGOMPoint,BRANCH,1.0,1.0,8,8
org.apache.batik.bridge.SVGFontFace,BRANCH,0.6,0.6,6,10
org.apache.batik.gvt.font.SVGGVTGlyphVector,BRANCH,0.46396396396396394,0.46396396396396394,103,222
org.apache.batik.css.engine.value.svg.ColorProfileManager,BRANCH,1.0,1.0,29,29
org.apache.batik.bridge.svg12.SVG12BridgeEventSupport,BRANCH,0.7076923076923077,0.7230769230769231,46,65
org.apache.batik.gvt.font.FontFamilyResolver,BRANCH,0.7692307692307693,0.8461538461538461,10,13
org.apache.batik.dom.svg.SVGOMFEMergeElement,BRANCH,1.0,1.0,4,4
org.apache.batik.svggen.NullOp,BRANCH,1.0,1.0,8,8
org.apache.batik.css.engine.value.svg.StrokeDasharrayManager,BRANCH,1.0,1.0,32,32
org.apache.batik.util.ParsedURLDataProtocolHandler,BRANCH,0.974025974025974,0.974025974025974,75,77
org.apache.batik.ext.awt.image.rendered.PadRed,BRANCH,1.0,1.0,102,102
org.apache.batik.util.io.Messages,BRANCH,1.0,1.0,4,4
org.apache.batik.util.io.StringDecoder,BRANCH,1.0,1.0,4,4
org.apache.batik.ext.awt.image.renderable.AbstractColorInterpolationRable,BRANCH,0.8333333333333334,0.8333333333333334,10,12
org.apache.batik.bridge.SVGFeColorMatrixElementBridge,BRANCH,0.15,0.15,6,40
org.apache.batik.svggen.SVGLinearGradient,BRANCH,1.0,1.0,6,6
org.apache.batik.bridge.SVGRectElementBridge,BRANCH,0.4482758620689655,0.4482758620689655,13,29
org.apache.batik.ext.awt.image.codec.imageio.PNGTranscoderImageIOWriteAdapter,BRANCH,0.18181818181818182,0.18181818181818182,2,11
org.apache.batik.dom.svg.AbstractSVGItem,BRANCH,1.0,1.0,7,7
org.apache.batik.dom.svg.SVGOMFilterElement,BRANCH,1.0,1.0,23,23
org.apache.batik.dom.svg12.XBLOMTemplateElement,BRANCH,1.0,1.0,4,4
org.apache.batik.css.engine.value.RectManager,BRANCH,0.47058823529411764,0.47058823529411764,40,85
org.apache.batik.util.resources.Messages,BRANCH,0.75,1.0,3,4
org.apache.batik.dom.util.DOMUtilities,BRANCH,0.8401826484018264,0.8401826484018264,184,219
org.apache.batik.bridge.SVGGVTFont,BRANCH,0.0,0.0,0,186
org.apache.batik.svggen.DefaultErrorHandler,BRANCH,1.0,1.0,3,3
org.apache.batik.ext.awt.geom.Cubic,BRANCH,1.0,1.0,57,57
org.apache.batik.css.engine.sac.CSSConditionalSelector,BRANCH,1.0,1.0,19,19
org.apache.batik.util.io.ISO_8859_1Decoder,BRANCH,1.0,1.0,5,5
org.apache.batik.ext.awt.image.rendered.ProfileRed,BRANCH,0.14285714285714285,0.14285714285714285,2,14
org.apache.batik.transcoder.image.JPEGTranscoder,BRANCH,0.43478260869565216,0.43478260869565216,10,23
org.apache.batik.ext.awt.image.rendered.GaussianBlurRed8Bit,BRANCH,0.8645833333333334,0.8645833333333334,83,96
org.apache.batik.anim.values.AnimatableRectValue,BRANCH,1.0,1.0,26,26
org.apache.batik.css.dom.CSSOMSVGPaint,BRANCH,0.24369747899159663,0.24369747899159663,58,238
org.apache.batik.ext.awt.image.codec.util.ForwardSeekableStream,BRANCH,1.0,1.0,16,16
org.apache.batik.swing.svg.SVGUpdateOverlay,BRANCH,1.0,1.0,19,19
org.apache.batik.bridge.BridgeEventSupport,BRANCH,0.5806451612903226,0.5967741935483871,36,62
org.apache.batik.ext.swing.Messages,BRANCH,1.0,1.0,5,5
org.apache.batik.dom.AbstractEntityReference,BRANCH,1.0,1.0,36,36
org.apache.batik.ext.awt.image.codec.imageio.ImageIODebugUtil,BRANCH,1.0,1.0,3,3
org.apache.batik.css.engine.CSSEngineEvent,BRANCH,1.0,1.0,3,3
org.apache.batik.dom.svg.SVGOMAnimatedRect,BRANCH,0.8970588235294118,1.0,61,68
org.apache.batik.bridge.SVGAltGlyphElementBridge,BRANCH,0.02857142857142857,0.02857142857142857,2,70
org.apache.batik.svggen.font.table.GlyfDescript,BRANCH,0.14285714285714285,0.14285714285714285,1,7
org.apache.batik.dom.ExtensibleDOMImplementation,BRANCH,0.8421052631578947,0.8421052631578947,32,38
org.apache.batik.bridge.UnitProcessor,BRANCH,0.9333333333333333,0.9333333333333333,28,30
org.apache.batik.bridge.AnimatableGenericSVGBridge,BRANCH,0.9047619047619048,0.9047619047619048,19,21
org.apache.batik.dom.svg.SVGOMComponentTransferFunctionElement,BRANCH,1.0,1.0,12,12
org.apache.batik.ext.awt.geom.RectListManager,BRANCH,0.8579387186629527,0.8579387186629527,308,359
org.apache.batik.gvt.event.GraphicsNodeEvent,BRANCH,1.0,1.0,5,5
org.apache.batik.parser.DefaultPreserveAspectRatioHandler,BRANCH,1.0,1.0,15,15
org.apache.batik.transcoder.keys.Rectangle2DKey,BRANCH,1.0,1.0,2,2
org.apache.batik.dom.svg.SVGOMPolylineElement,BRANCH,1.0,1.0,4,4
org.apache.batik.util.gui.xmleditor.XMLScanner,BRANCH,0.8484848484848485,0.8484848484848485,112,132
org.apache.batik.dom.svg12.XBLOMDefinitionElement,BRANCH,0.8571428571428571,0.8571428571428571,6,7
org.apache.batik.ext.awt.image.spi.AbstractRegistryEntry,BRANCH,0.7777777777777778,0.7777777777777778,7,9
org.apache.batik.extension.svg.ColorSwitchElement,BRANCH,1.0,1.0,5,5
org.apache.batik.dom.svg.SVGOMMissingGlyphElement,BRANCH,1.0,1.0,4,4
org.apache.batik.dom.AbstractParentChildNode,BRANCH,1.0,1.0,7,7
org.apache.batik.svggen.SVGCustomBufferedImageOp,BRANCH,0.42857142857142855,0.42857142857142855,3,7
org.apache.batik.ext.awt.RenderingHintsKeyExt,BRANCH,1.0,1.0,0,0
org.apache.batik.svggen.font.table.KernTable,BRANCH,0.0,0.0,0,5
org.apache.batik.extension.svg.BatikBridgeExtension,BRANCH,1.0,1.0,9,9
org.apache.batik.dom.svg12.XBLOMImportElement,BRANCH,1.0,1.0,4,4
org.apache.batik.dom.svg.SVGDescriptiveElement,BRANCH,1.0,1.0,6,6
org.apache.batik.gvt.event.GraphicsNodeMouseAdapter,BRANCH,0.0,0.0,0,8
org.apache.batik.gvt.event.AWTEventDispatcher,BRANCH,0.625,0.625,15,24
org.apache.batik.bridge.SVGFeBlendElementBridge,BRANCH,0.2777777777777778,0.2777777777777778,5,18
org.apache.batik.bridge.BridgeException,BRANCH,1.0,1.0,34,34
org.apache.batik.util.DoublyIndexedTable,BRANCH,0.9375,0.95,75,80
org.apache.batik.extension.svg.BatikHistogramNormalizationFilter8Bit,BRANCH,0.8095238095238095,0.8095238095238095,17,21
org.apache.batik.swing.svg.SVGLoadEventDispatcher,BRANCH,0.6666666666666666,0.6666666666666666,12,18
org.apache.batik.dom.svg.AbstractSVGMatrix,BRANCH,1.0,1.0,27,27
org.apache.batik.dom.svg12.XBLOMHandlerGroupElement,BRANCH,1.0,1.0,4,4
org.apache.batik.dom.svg.SVGOMSVGElement,BRANCH,0.8387096774193549,0.8387096774193549,78,93
org.apache.batik.dom.GenericAttr,BRANCH,1.0,1.0,5,5
org.apache.batik.parser.AWTPolylineProducer,BRANCH,1.0,1.0,9,9
org.apache.batik.bridge.CSSUtilities,BRANCH,0.053475935828877004,0.053475935828877004,10,187
org.apache.batik.extension.svg.FlowSpanElement,BRANCH,1.0,1.0,5,5
org.apache.batik.css.engine.sac.CSSElementSelector,BRANCH,1.0,1.0,10,10
org.apache.batik.dom.traversal.DOMTreeWalker,BRANCH,0.8928571428571429,0.8928571428571429,100,112
org.apache.batik.gvt.filter.GraphicsNodeRable8Bit,BRANCH,0.4915254237288136,0.4915254237288136,29,59
org.apache.batik.util.resources.ResourceFormatException,BRANCH,1.0,1.0,4,4
org.apache.batik.dom.svg.SVGOMAnimatedInteger,BRANCH,1.0,1.0,25,25
org.apache.batik.dom.AbstractAttr,BRANCH,0.8947368421052632,0.8947368421052632,51,57
org.apache.batik.css.parser.CSSLexicalUnit,BRANCH,1.0,1.0,89,89
org.apache.batik.dom.svg12.SVGOMHandlerElement,BRANCH,1.0,1.0,4,4
org.apache.batik.extension.svg.MarginInfo,BRANCH,1.0,1.0,10,10
org.apache.batik.parser.DefaultTimingSpecifierHandler,BRANCH,1.0,1.0,11,11
org.apache.batik.ext.awt.g2d.TransformStackElement,BRANCH,0.7142857142857143,0.7142857142857143,40,56
org.apache.batik.dom.svg.SVGOMFEComponentTransferElement,BRANCH,1.0,1.0,8,8
org.apache.batik.css.engine.StyleSheet,BRANCH,1.0,1.0,16,16
org.apache.batik.util.gui.JErrorPane,BRANCH,1.0,1.0,9,9
org.apache.batik.script.rhino.RhinoInterpreterFactory,BRANCH,1.0,1.0,4,4
org.apache.batik.apps.rasterizer.SVGConverterException,BRANCH,1.0,1.0,7,7
org.apache.batik.dom.svg.SVGOMSymbolElement,BRANCH,1.0,1.0,17,17
org.apache.batik.gvt.font.AWTGVTFont,BRANCH,0.8857142857142857,0.9142857142857143,31,35
org.apache.batik.svggen.font.table.CmapFormat,BRANCH,0.8095238095238095,0.8095238095238095,17,21
org.apache.batik.svggen.SVGIDGenerator,BRANCH,1.0,1.0,3,3
org.apache.batik.dom.svg.SVGOMTextPathElement,BRANCH,1.0,1.0,12,12
org.apache.batik.svggen.SimpleImageHandler,BRANCH,0.03333333333333333,0.3333333333333333,1,30
org.apache.batik.bridge.SVGBrokenLinkProvider,BRANCH,1.0,1.0,2,2
org.apache.batik.parser.TimingSpecifierParser,BRANCH,0.6296296296296297,0.6296296296296297,17,27
org.apache.batik.dom.AbstractComment,BRANCH,1.0,1.0,4,4
org.apache.batik.ext.awt.image.rendered.TileGrid,BRANCH,0.6122448979591837,0.6122448979591837,30,49
org.apache.batik.bridge.SVGFontFamily,BRANCH,0.47368421052631576,0.47368421052631576,9,19
org.apache.batik.ext.awt.image.codec.png.PNGEncodeParam,BRANCH,0.9458128078817734,0.9458128078817734,192,203
org.apache.batik.css.engine.value.svg.DominantBaselineManager,BRANCH,1.0,1.0,8,8
org.apache.batik.script.rhino.Messages,BRANCH,1.0,1.0,7,7
org.apache.batik.css.engine.StyleRule,BRANCH,1.0,1.0,12,12
org.apache.batik.xml.XMLCharacters,BRANCH,1.0,1.0,1,1
org.apache.batik.svggen.SVGConvolveOp,BRANCH,1.0,1.0,9,9
org.apache.batik.dom.AbstractDocument,BRANCH,0.5857687420584498,0.5857687420584498,461,787
org.apache.batik.parser.AWTTransformProducer,BRANCH,1.0,1.0,15,15
org.apache.batik.dom.svg.SVGOMForeignObjectElement,BRANCH,1.0,1.0,11,11
org.apache.batik.parser.ClockParser,BRANCH,0.8888888888888888,0.8888888888888888,8,9
org.apache.batik.svggen.font.table.Script,BRANCH,0.0,0.0,0,11
org.apache.batik.css.engine.value.svg.GlyphOrientationVerticalManager,BRANCH,1.0,1.0,11,11
org.apache.batik.gvt.flow.FlowTextNode,BRANCH,1.0,1.0,3,3
org.apache.batik.apps.svgbrowser.AbstractUndoableCommand,BRANCH,0.42857142857142855,0.42857142857142855,3,7
org.apache.batik.dom.events.DOMEvent,BRANCH,1.0,1.0,1,1
org.apache.batik.bridge.SVGAltGlyphHandler,BRANCH,0.5714285714285714,0.5714285714285714,4,7
org.apache.batik.css.engine.value.css2.FontFamilyManager,BRANCH,0.8461538461538461,1.0,33,39
org.apache.batik.dom.svg.SVGOMFEColorMatrixElement,BRANCH,1.0,1.0,10,10
org.apache.batik.bridge.SVGAnimateMotionElementBridge,BRANCH,0.21212121212121213,0.21212121212121213,14,66
org.apache.batik.bridge.CSSFontFace,BRANCH,0.39473684210526316,0.39473684210526316,15,38
org.apache.batik.css.engine.sac.CSSAttributeCondition,BRANCH,0.8636363636363636,0.8636363636363636,19,22
org.apache.batik.svggen.SVGEllipse,BRANCH,0.875,0.875,21,24
org.apache.batik.svggen.font.table.LigatureSubstFormat1,BRANCH,0.0,0.0,0,5
org.apache.batik.dom.svg12.XBLOMContentElement,BRANCH,1.0,1.0,4,4
org.apache.batik.gvt.renderer.StrokingTextPainter,BRANCH,0.1360824742268041,0.1360824742268041,66,485
org.apache.batik.ext.awt.image.codec.util.ImageDecoderImpl,BRANCH,1.0,1.0,9,9
org.apache.batik.ext.awt.image.rendered.AbstractTiledRed,BRANCH,0.5906040268456376,0.5838926174496645,88,149
org.apache.batik.ext.awt.image.rendered.TurbulencePatternRed,BRANCH,0.1175,0.1175,47,400
org.apache.batik.dom.svg.SVGOMAnimatedTransformList,BRANCH,0.9425287356321839,0.9540229885057471,82,87
org.apache.batik.dom.events.EventListenerList,BRANCH,0.8787878787878788,0.9848484848484849,58,66
org.apache.batik.dom.svg.SAXSVGDocumentFactory,BRANCH,0.5303030303030303,0.5303030303030303,35,66
org.apache.batik.css.parser.DefaultBeginHyphenAttributeCondition,BRANCH,1.0,1.0,3,3
org.apache.batik.bridge.SVGFeMergeElementBridge,BRANCH,0.30434782608695654,0.30434782608695654,7,23
org.apache.batik.ext.awt.image.rendered.MultiplyAlphaRed,BRANCH,0.2602739726027397,0.2602739726027397,19,73
org.apache.batik.swing.svg.LinkActivationEvent,BRANCH,1.0,1.0,2,2
org.apache.batik.apps.slideshow.Main,BRANCH,0.5888888888888889,0.5888888888888889,53,90
org.apache.batik.svggen.SVGClip,BRANCH,0.4444444444444444,0.4444444444444444,4,9
org.apache.batik.ext.awt.image.rendered.MorphologyOp,BRANCH,0.4742268041237113,0.4742268041237113,184,388
org.apache.batik.ext.awt.image.renderable.AbstractRable,BRANCH,0.58,0.58,29,50
org.apache.batik.dom.svg.SVGOMMatrix,BRANCH,1.0,1.0,2,2
org.apache.batik.bridge.UpdateManagerAdapter,BRANCH,1.0,1.0,8,8
org.apache.batik.bridge.SVGLineElementBridge,BRANCH,0.8,0.8,12,15
org.apache.batik.svggen.CachedImageHandlerJPEGEncoder,BRANCH,1.0,1.0,4,4
org.apache.batik.parser.TimingSpecifierListParser,BRANCH,0.9090909090909091,0.9090909090909091,10,11
org.apache.batik.dom.svg.SVGOMFEFuncAElement,BRANCH,1.0,1.0,4,4
org.apache.batik.svggen.font.table.LocaTable,BRANCH,0.08333333333333333,0.08333333333333333,1,12
org.apache.batik.dom.svg.SVGOMLinearGradientElement,BRANCH,1.0,1.0,11,11
org.apache.batik.dom.svg.SVGOMRadialGradientElement,BRANCH,0.7777777777777778,0.7777777777777778,14,18
org.apache.batik.dom.svg.SVGOMGlyphElement,BRANCH,1.0,1.0,4,4
org.apache.batik.ext.awt.image.renderable.DeferRable,BRANCH,0.05263157894736842,0.05263157894736842,2,38
org.apache.batik.dom.svg12.SVGOMMultiImageElement,BRANCH,1.0,1.0,4,4
org.apache.batik.gvt.flow.TextLineBreaks,BRANCH,0.7746478873239436,0.7746478873239436,55,71
org.apache.batik.dom.svg12.SVGOMSubImageElement,BRANCH,1.0,1.0,4,4
org.apache.batik.css.engine.FontFaceRule,BRANCH,1.0,1.0,5,5
org.apache.batik.gvt.event.GraphicsNodeMouseWheelEvent,BRANCH,1.0,1.0,2,2
org.apache.batik.css.engine.value.css2.SrcManager,BRANCH,0.8541666666666666,0.875,41,48
org.apache.batik.css.parser.DefaultConditionalSelector,BRANCH,1.0,1.0,5,5
org.apache.batik.transcoder.SVGAbstractTranscoder,BRANCH,0.24324324324324326,0.24324324324324326,27,111
org.apache.batik.css.engine.value.svg.TextAnchorManager,BRANCH,1.0,1.0,8,8
org.apache.batik.dom.svg.SVGOMAngle,BRANCH,1.0,1.0,22,22
org.apache.batik.dom.svg.SVGOMDefinitionSrcElement,BRANCH,1.0,1.0,4,4
org.apache.batik.extension.svg.BatikDomExtension,BRANCH,1.0,1.0,29,29
org.apache.batik.svggen.font.table.GposTable,BRANCH,0.3333333333333333,0.3333333333333333,1,3
org.apache.batik.svggen.font.table.ClassDefFormat1,BRANCH,0.0,0.0,0,3
org.apache.batik.anim.timing.IndefiniteTimingSpecifier,BRANCH,1.0,1.0,5,5
org.apache.batik.ext.awt.image.codec.imageio.TIFFTranscoderImageIOWriteAdapter,BRANCH,0.3076923076923077,0.3076923076923077,4,13
org.apache.batik.svggen.font.table.FpgmTable,BRANCH,0.5,0.5,1,2
org.apache.batik.css.engine.value.svg.ICCColor,BRANCH,1.0,1.0,9,9
org.apache.batik.svggen.font.table.LookupList,BRANCH,0.0,0.0,0,6
org.apache.batik.svggen.font.table.ClassDefFormat2,BRANCH,0.0,0.0,0,3
org.apache.batik.ext.awt.image.rendered.TileMap,BRANCH,0.875,0.875,21,24
org.apache.batik.bridge.SVGFeGaussianBlurElementBridge,BRANCH,0.42857142857142855,0.42857142857142855,6,14
org.apache.batik.parser.PointsParser,BRANCH,1.0,1.0,5,5
org.apache.batik.swing.gvt.GVTTreeRendererAdapter,BRANCH,0.0,0.0,0,6
org.apache.batik.css.engine.sac.CSSConditionFactory,BRANCH,1.0,1.0,15,15
org.apache.batik.svggen.font.table.FeatureRecord,BRANCH,0.3333333333333333,0.3333333333333333,1,3
org.apache.batik.bridge.SVGGElementBridge,BRANCH,0.2222222222222222,0.2222222222222222,6,27
org.apache.batik.apps.svgpp.Main,BRANCH,1.0,1.0,46,46
org.apache.batik.svggen.font.table.TableDirectory,BRANCH,0.0,0.0,0,18
org.apache.batik.dom.svg.SVGStyleSheetProcessingInstruction,BRANCH,0.9,0.9,9,10
org.apache.batik.gvt.font.UnresolvedFontFamily,BRANCH,1.0,1.0,6,6
org.apache.batik.css.engine.value.Messages,BRANCH,1.0,1.0,4,4
org.apache.batik.svggen.SVGGraphics2D,BRANCH,0.03825136612021858,0.03825136612021858,7,183
org.apache.batik.ext.awt.image.spi.DefaultBrokenLinkProvider,BRANCH,1.0,1.0,4,4
org.apache.batik.ext.awt.image.DistantLight,BRANCH,1.0,1.0,11,11
org.apache.batik.dom.svg.SVGOMMetadataElement,BRANCH,1.0,1.0,4,4
org.apache.batik.ext.awt.image.codec.imageio.ImageIOTIFFRegistryEntry,BRANCH,1.0,1.0,1,1
org.apache.batik.bridge.SVGColorProfileElementBridge,BRANCH,0.15625,0.15625,5,32
org.apache.batik.apps.svgbrowser.SquiggleInputHandlerFilter,BRANCH,0.8461538461538461,0.8461538461538461,11,13
org.apache.batik.ext.awt.image.codec.tiff.TIFFRegistryEntry,BRANCH,0.6,0.6,3,5
org.apache.batik.dom.svg.SVGOMFilterPrimitiveStandardAttributes,BRANCH,1.0,1.0,10,10
org.apache.batik.dom.svg.SVGOMFEDiffuseLightingElement,BRANCH,0.9166666666666666,1.0,11,12
org.apache.batik.transcoder.TranscoderException,BRANCH,1.0,1.0,6,6
org.apache.batik.apps.svgbrowser.SVGInputHandler,BRANCH,1.0,1.0,21,21
org.apache.batik.css.engine.value.svg.ColorRenderingManager,BRANCH,1.0,1.0,8,8
org.apache.batik.ext.awt.image.renderable.MorphologyRable8Bit,BRANCH,0.7857142857142857,0.7857142857142857,22,28
org.apache.batik.parser.DefaultLengthHandler,BRANCH,1.0,1.0,13,13
org.apache.batik.dom.svg12.SVGOMFlowDivElement,BRANCH,1.0,1.0,4,4
org.apache.batik.bridge.NoLoadExternalResourceSecurity,BRANCH,1.0,1.0,3,3
org.apache.batik.ext.awt.image.rendered.Any2sRGBRed,BRANCH,0.6219512195121951,0.6219512195121951,51,82
org.apache.batik.css.engine.value.svg.MarkerManager,BRANCH,1.0,1.0,25,25
org.apache.batik.svggen.font.table.ScriptList,BRANCH,0.0,0.0,0,12
org.apache.batik.transcoder.AbstractTranscoder,BRANCH,1.0,1.0,1,1
org.apache.batik.svggen.font.table.GsubTable,BRANCH,0.05,0.05,1,20
org.apache.batik.extension.GraphicsExtensionElement,BRANCH,1.0,1.0,18,18
org.apache.batik.anim.timing.InstanceTime,BRANCH,1.0,1.0,10,10
org.apache.batik.util.io.UTF8Decoder,BRANCH,0.8627450980392157,0.8627450980392157,44,51
org.apache.batik.bridge.SVGAnimateColorElementBridge,BRANCH,1.0,1.0,12,12
org.apache.batik.dom.svg.SVGOMAnimatedNumber,BRANCH,0.9375,0.96875,30,32
org.apache.batik.gvt.CompositeGraphicsNode,BRANCH,0.5758754863813229,0.6342412451361867,148,257
org.apache.batik.apps.svgbrowser.PreferenceDialog,BRANCH,0.004784688995215311,0.004784688995215311,1,209
org.apache.batik.dom.util.HashTable,BRANCH,0.9302325581395349,0.9302325581395349,80,86
org.apache.batik.dom.svg.SVGOMAnimationElement,BRANCH,0.9,0.9,18,20
org.apache.batik.svggen.font.Font,BRANCH,0.6129032258064516,0.6129032258064516,19,31
org.apache.batik.ext.awt.image.renderable.FloodRable8Bit,BRANCH,0.9444444444444444,0.9444444444444444,17,18
org.apache.batik.dom.svg.AbstractSVGPointList,BRANCH,1.0,1.0,23,23
org.apache.batik.dom.AbstractStylableDocument,BRANCH,0.9,0.9,9,10
org.apache.batik.ext.awt.image.codec.util.ImageEncoderImpl,BRANCH,1.0,1.0,5,5
org.apache.batik.ext.awt.image.spi.ImageWriterRegistry,BRANCH,0.875,0.875,7,8
org.apache.batik.ext.awt.image.rendered.FloodRed,BRANCH,1.0,1.0,12,12
org.apache.batik.css.dom.CSSOMSVGColor,BRANCH,0.3803418803418803,0.38461538461538464,89,234
org.apache.batik.dom.GenericDOMImplementation,BRANCH,1.0,1.0,4,4
org.apache.batik.apps.svgbrowser.JPEGOptionPanel,BRANCH,0.0,1.0,0,4
org.apache.batik.dom.events.DOMCustomEvent,BRANCH,1.0,1.0,3,3
org.apache.batik.ext.awt.image.renderable.DiffuseLightingRable8Bit,BRANCH,0.725,0.725,29,40
org.apache.batik.dom.svg.SVGOMTextContentElement,BRANCH,0.78125,0.78125,25,32
org.apache.batik.svggen.SVGStylingAttributes,BRANCH,1.0,1.0,1,1
org.apache.batik.apps.svgbrowser.HistoryBrowser,BRANCH,0.9032258064516129,0.9310344827586207,84,93
org.apache.batik.ext.awt.LinearGradientPaint,BRANCH,1.0,1.0,13,13
org.apache.batik.swing.svg.SVGUserAgentGUIAdapter,BRANCH,0.7777777777777778,0.7777777777777778,7,9
org.apache.batik.css.engine.value.svg.ClipRuleManager,BRANCH,1.0,1.0,8,8
org.apache.batik.xml.XMLException,BRANCH,1.0,1.0,14,14
org.apache.batik.util.Base64DecodeStream,BRANCH,0.8333333333333334,0.8333333333333334,30,36
org.apache.batik.bridge.SVGFeMorphologyElementBridge,BRANCH,0.20833333333333334,0.20833333333333334,5,24
org.apache.batik.svggen.ImageHandlerJPEGEncoder,BRANCH,1.0,1.0,5,5
org.apache.batik.dom.svg.LiveAttributeException,BRANCH,1.0,1.0,5,5
org.apache.batik.gvt.renderer.ConcreteTextPainter,BRANCH,0.0,0.0,0,7
org.apache.batik.anim.values.AnimatableNumberListValue,BRANCH,1.0,1.0,42,42
org.apache.batik.css.engine.value.svg.FilterManager,BRANCH,1.0,1.0,23,23
org.apache.batik.css.engine.sac.CSSChildSelector,BRANCH,1.0,1.0,13,13
org.apache.batik.css.engine.value.svg.GlyphOrientationManager,BRANCH,1.0,1.0,53,53
org.apache.batik.dom.util.DocumentDescriptor,BRANCH,0.8529411764705882,0.8529411764705882,29,34
org.apache.batik.css.engine.value.svg.AlignmentBaselineManager,BRANCH,1.0,1.0,8,8
org.apache.batik.css.engine.value.RGBColorValue,BRANCH,1.0,1.0,7,7
org.apache.batik.parser.DefaultNumberListHandler,BRANCH,1.0,1.0,6,6
org.apache.batik.dom.svg12.XBLOMElement,BRANCH,0.9473684210526315,0.9473684210526315,18,19
org.apache.batik.ext.awt.image.TableTransfer,BRANCH,1.0,1.0,6,6
org.apache.batik.dom.svg12.XBLOMShadowTreeEvent,BRANCH,1.0,1.0,4,4
org.apache.batik.css.engine.value.AbstractValueFactory,BRANCH,0.8888888888888888,0.8888888888888888,8,9
org.apache.batik.anim.values.AnimatablePercentageValue,BRANCH,1.0,1.0,6,6
org.apache.batik.apps.svgbrowser.XMLPreferenceManager,BRANCH,0.43478260869565216,0.43478260869565216,10,23
org.apache.batik.bridge.SVGSwitchElementBridge,BRANCH,0.2926829268292683,0.2926829268292683,12,41
org.apache.batik.dom.util.DOMUtilitiesSupport,BRANCH,0.8,0.8,4,5
org.apache.batik.css.parser.DefaultDocumentHandler,BRANCH,1.0,1.0,16,16
org.apache.batik.dom.svg.AbstractSVGTransformList,BRANCH,0.9326923076923077,0.9895833333333334,97,104
org.apache.batik.css.engine.value.svg.MarkerShorthandManager,BRANCH,1.0,1.0,5,5
org.apache.batik.script.rhino.svg12.SVG12RhinoInterpreter,BRANCH,1.0,1.0,3,3
org.apache.batik.svggen.SVGPaint,BRANCH,0.8666666666666667,0.8666666666666667,13,15
org.apache.batik.util.gui.LanguageDialog,BRANCH,0.723404255319149,0.723404255319149,68,94
org.apache.batik.anim.timing.Trace,BRANCH,0.25,0.25,4,16
org.apache.batik.swing.svg.SVGDocumentLoader,BRANCH,0.6470588235294118,0.6470588235294118,11,17
org.apache.batik.svggen.font.table.Feature,BRANCH,0.0,0.0,0,4
org.apache.batik.swing.svg.SVGFileFilter,BRANCH,1.0,1.0,10,10
org.apache.batik.svggen.SVGGraphicContext,BRANCH,0.9166666666666666,0.9166666666666666,22,24
org.apache.batik.ext.awt.image.codec.png.PNGSuggestedPaletteEntry,BRANCH,1.0,1.0,1,1
org.apache.batik.util.EncodingUtilities,BRANCH,1.0,1.0,2,2
org.apache.batik.util.gui.URIChooser,BRANCH,0.07142857142857142,0.07142857142857142,2,28
org.apache.batik.svggen.SVGLookupOp,BRANCH,0.9512195121951219,0.9512195121951219,39,41
org.apache.batik.ext.awt.image.rendered.RenderedImageCachableRed,BRANCH,1.0,1.0,30,30
org.apache.batik.anim.SimpleAnimation,BRANCH,0.8636363636363636,0.8636363636363636,57,66
org.apache.batik.ext.swing.DoubleDocument,BRANCH,0.90625,0.90625,29,32
org.apache.batik.svggen.SVGBufferedImageOp,BRANCH,0.9285714285714286,0.9285714285714286,13,14
org.apache.batik.dom.svg12.BindableElement,BRANCH,1.0,1.0,11,11
org.apache.batik.dom.svg.SVGOMFEFuncRElement,BRANCH,1.0,1.0,4,4
org.apache.batik.util.DoublyLinkedList,BRANCH,1.0,1.0,48,48
org.apache.batik.css.engine.value.css2.DisplayManager,BRANCH,1.0,1.0,8,8
org.apache.batik.css.engine.value.svg.StrokeMiterlimitManager,BRANCH,1.0,1.0,17,17
org.apache.batik.util.Base64EncoderStream,BRANCH,1.0,1.0,43,43
org.apache.batik.dom.svg.AbstractElement,BRANCH,0.9827586206896551,0.9827586206896551,57,58
org.apache.batik.dom.svg12.SVG12OMDocument,BRANCH,1.0,1.0,7,7
org.apache.batik.bridge.SVGFeFloodElementBridge,BRANCH,1.0,1.0,3,3
org.apache.batik.css.engine.value.svg.OpacityManager,BRANCH,0.8823529411764706,0.8823529411764706,15,17
org.apache.batik.css.engine.value.svg.SVGPaintManager,BRANCH,0.5277777777777778,0.5277777777777778,19,36
org.apache.batik.bridge.svg12.DefaultContentSelector,BRANCH,0.7619047619047619,0.7619047619047619,16,21
org.apache.batik.bridge.SVGUtilities,BRANCH,0.4051724137931034,0.4051724137931034,94,232
org.apache.batik.apps.svgbrowser.LocalHistory,BRANCH,0.06666666666666667,0.06666666666666667,3,45
org.apache.batik.anim.values.AnimatableNumberOptionalNumberValue,BRANCH,0.7916666666666666,1.0,19,24
org.apache.batik.util.BatikSecurityManager,BRANCH,1.0,1.0,2,2
org.apache.batik.dom.svg.SVGOMFontFaceSrcElement,BRANCH,1.0,1.0,4,4
org.apache.batik.gvt.flow.GlyphGroupInfo,BRANCH,1.0,1.0,21,21
org.apache.batik.svggen.SVGGraphicContextConverter,BRANCH,0.9375,0.9375,15,16
org.apache.batik.svggen.font.table.ScriptRecord,BRANCH,0.3333333333333333,0.3333333333333333,1,3
org.apache.batik.css.dom.CSSOMViewCSS,BRANCH,1.0,1.0,4,4
org.apache.batik.css.engine.sac.CSSDescendantSelector,BRANCH,1.0,1.0,12,12
org.apache.batik.svggen.ImageCacher,BRANCH,0.9375,0.9375,30,32
org.apache.batik.apps.svgbrowser.AbstractCompoundCommand,BRANCH,0.95,0.95,19,20
org.apache.batik.ext.awt.AvoidTilingHintKey,BRANCH,0.1111111111111111,0.6666666666666666,1,9
org.apache.batik.ext.awt.geom.Quadradic,BRANCH,0.9622641509433962,0.9622641509433962,51,53
org.apache.batik.util.gui.resource.MenuFactory,BRANCH,0.35714285714285715,0.35714285714285715,15,42
org.apache.batik.svggen.SVGStrokeDescriptor,BRANCH,1.0,1.0,22,22
org.apache.batik.css.engine.sac.CSSAndCondition,BRANCH,1.0,1.0,8,8
org.apache.batik.transcoder.image.resources.Messages,BRANCH,0.5,1.0,2,4
org.apache.batik.transcoder.wmf.tosvg.WMFFont,BRANCH,1.0,1.0,2,2
org.apache.batik.bridge.ViewBox,BRANCH,0.8,0.8,96,120
org.apache.batik.apps.rasterizer.Main,BRANCH,0.47752808988764045,0.4772727272727273,85,178
org.apache.batik.dom.svg.SVGOMGlyphRefElement,BRANCH,1.0,1.0,20,20
org.apache.batik.swing.gvt.AbstractZoomInteractor,BRANCH,1.0,1.0,24,24
org.apache.batik.parser.LengthPairListParser,BRANCH,0.2,0.2,1,5
org.apache.batik.ext.awt.image.codec.png.PNGDecodeParam,BRANCH,1.0,1.0,21,21
org.apache.batik.parser.TransformListParser,BRANCH,0.3435114503816794,0.3435114503816794,45,131
org.apache.batik.ext.awt.image.renderable.FilterAlphaRable,BRANCH,0.7272727272727273,0.7272727272727273,8,11
org.apache.batik.gvt.font.Kern,BRANCH,0.9024390243902439,0.9024390243902439,37,41
org.apache.batik.util.io.UTF16Decoder,BRANCH,0.8260869565217391,0.8260869565217391,19,23
org.apache.batik.svggen.font.table.NameTable,BRANCH,0.0,0.0,0,9
org.apache.batik.svggen.SVGCSSStyler,BRANCH,0.6666666666666666,0.6666666666666666,10,15
org.apache.batik.dom.events.DOMMutationEvent,BRANCH,1.0,1.0,8,8
org.apache.batik.ext.awt.image.codec.imageio.ImageIOJPEGImageWriter,BRANCH,0.14285714285714285,0.14285714285714285,2,14
org.apache.batik.css.engine.value.svg.BaselineShiftManager,BRANCH,0.875,0.875,21,24
org.apache.batik.apps.svgbrowser.DropDownHistoryModel,BRANCH,0.6578947368421053,0.9583333333333334,25,38
org.apache.batik.svggen.font.Glyph,BRANCH,0.0625,0.0625,1,16
org.apache.batik.css.engine.value.css2.FontVariantManager,BRANCH,1.0,1.0,8,8
org.apache.batik.css.engine.value.css2.FontStretchManager,BRANCH,0.20833333333333334,0.20833333333333334,10,48
org.apache.batik.gvt.text.TextPath,BRANCH,1.0,1.0,6,6
org.apache.batik.bridge.SVGAnimateTransformElementBridge,BRANCH,0.3008130081300813,0.3008130081300813,37,123
org.apache.batik.gvt.filter.MaskRable8Bit,BRANCH,0.7692307692307693,0.7692307692307693,10,13
org.apache.batik.anim.values.AnimatableAngleOrIdentValue,BRANCH,0.9629629629629629,0.9629629629629629,52,54
org.apache.batik.dom.svg.SVGOMFEDisplacementMapElement,BRANCH,1.0,1.0,12,12
org.apache.batik.dom.svg.SVGOMFETurbulenceElement,BRANCH,1.0,1.0,13,13
org.apache.batik.swing.svg.JSVGComponent,BRANCH,0.6666666666666666,0.6666666666666666,6,9
org.apache.batik.ext.awt.g2d.DefaultGraphics2D,BRANCH,1.0,1.0,16,16
org.apache.batik.dom.util.XLinkSupport,BRANCH,1.0,1.0,30,30
org.apache.batik.dom.svg.SVGOMAltGlyphItemElement,BRANCH,1.0,1.0,4,4
org.apache.batik.dom.svg.SVGZoomAndPanSupport,BRANCH,0.8888888888888888,0.8888888888888888,8,9
org.apache.batik.ext.awt.image.codec.png.PNGImageEncoder,BRANCH,0.33189655172413796,0.33189655172413796,77,232
org.apache.batik.gvt.font.AWTFontFamily,BRANCH,1.0,1.0,9,9
org.apache.batik.util.gui.xmleditor.XMLEditorKit,BRANCH,1.0,1.0,12,12
org.apache.batik.apps.svgbrowser.Resources,BRANCH,1.0,1.0,7,7
org.apache.batik.dom.svg.SVGOMSetElement,BRANCH,1.0,1.0,4,4
org.apache.batik.dom.GenericElement,BRANCH,1.0,1.0,11,11
org.apache.batik.css.parser.DefaultPseudoElementSelector,BRANCH,1.0,1.0,3,3
org.apache.batik.util.gui.resource.JToolbarButton,BRANCH,0.8571428571428571,0.8571428571428571,6,7
org.apache.batik.gvt.event.GraphicsNodeInputEvent,BRANCH,1.0,1.0,14,14
org.apache.batik.css.dom.CSSOMSVGComputedStyle,BRANCH,0.9565217391304348,0.9565217391304348,22,23
org.apache.batik.gvt.ImageNode,BRANCH,0.75,0.75,30,40
org.apache.batik.bridge.SVGFeDisplacementMapElementBridge,BRANCH,0.3125,0.3125,5,16
org.apache.batik.extension.svg.BatikHistogramNormalizationElementBridge,BRANCH,0.6111111111111112,0.6111111111111112,11,18
org.apache.batik.apps.rasterizer.SVGConverter,BRANCH,0.9467455621301775,0.9467455621301775,160,169
org.apache.batik.svggen.SVGShape,BRANCH,1.0,1.0,13,13
org.apache.batik.svggen.font.table.MaxpTable,BRANCH,0.0625,0.0625,1,16
org.apache.batik.svggen.font.table.DirectoryEntry,BRANCH,0.16666666666666666,0.16666666666666666,1,6
org.apache.batik.dom.svg.SVGOMFEConvolveMatrixElement,BRANCH,0.8947368421052632,1.0,17,19
org.apache.batik.css.parser.AbstractCombinatorCondition,BRANCH,1.0,1.0,3,3
org.apache.batik.ext.awt.image.LinearTransfer,BRANCH,1.0,1.0,8,8
org.apache.batik.ext.awt.image.spi.BrokenLinkProvider,BRANCH,0.4,0.4,2,5
