TARGET_CLASS,criterion,BranchCoverage,Coverage,Covered_Goals,Total_Goals
org.java.plugin.tools.mocks.MockPluginPrerequisite,BRANCH,1.0,1.0,16,16
org.java.plugin.tools.mocks.MockParameterDefinition,BRANCH,1.0,1.0,19,19
org.java.plugin.tools.mocks.MockPluginAttribute,BRANCH,1.0,1.0,16,16
org.java.plugin.tools.mocks.MockPluginDescriptor,BRANCH,1.0,1.0,54,54
org.java.plugin.tools.mocks.MockLibrary,BRANCH,1.0,1.0,10,10
org.java.plugin.tools.mocks.MockPluginElement,BRANCH,1.0,1.0,9,9
org.java.plugin.tools.mocks.MockPluginRegistry,BRANCH,0.9459459459459459,0.9459459459459459,35,37
org.java.plugin.tools.mocks.MockDocumentation,BRANCH,1.0,1.0,9,9
org.java.plugin.tools.mocks.MockExtensionPoint,BRANCH,1.0,1.0,39,39
org.java.plugin.tools.mocks.MockIdentity,BRANCH,1.0,1.0,3,3
org.java.plugin.tools.mocks.MockExtension,BRANCH,1.0,1.0,20,20
org.java.plugin.tools.mocks.MockParameter,BRANCH,1.0,1.0,30,30
org.java.plugin.tools.mocks.MockPluginFragment,BRANCH,1.0,1.0,19,19
org.java.plugin.tools.ant.CheckTask,BRANCH,0.875,0.875,7,8
org.java.plugin.tools.ant.PackTask,BRANCH,1.0,1.0,4,4
org.java.plugin.tools.ant.VersionUpdateTask,BRANCH,0.6233766233766234,0.6233766233766234,48,77
org.java.plugin.tools.ant.SingleFilePluginTask,BRANCH,0.5,0.5,6,12
org.java.plugin.tools.ant.SortTask,BRANCH,0.4745762711864407,0.4745762711864407,28,59
org.java.plugin.tools.ant.PathTask,BRANCH,0.4264705882352941,0.4264705882352941,29,68
org.java.plugin.tools.ant.DocTask,BRANCH,0.9259259259259259,0.9259259259259259,25,27
org.java.plugin.tools.ant.PluginInfoTask,BRANCH,0.3125,0.3125,10,32
org.java.plugin.tools.ant.BaseJpfTask,BRANCH,0.6091954022988506,0.6091954022988506,53,87
org.java.plugin.tools.ant.UnpackTask,BRANCH,1.0,1.0,7,7
org.java.plugin.tools.PluginArchiver,BRANCH,0.14814814814814814,0.14814814814814814,16,108
org.java.plugin.tools.docgen.DocGenerator,BRANCH,0.379746835443038,0.379746835443038,30,79
org.java.plugin.tools.docgen.ClassPathPageSource,BRANCH,1.0,1.0,10,10
org.java.plugin.tools.Util,BRANCH,0.8461538461538461,0.8461538461538461,11,13
