TARGET_CLASS,criterion,BranchCoverage,Coverage,Covered_Goals,Total_Goals
org.objectweb.cjdbc.controller.core.ControllerConstants,BRANCH,0.6666666666666666,0.6666666666666666,2,3
org.objectweb.cjdbc.controller.core.Controller,BRANCH,0.75,0.75,99,132
org.objectweb.cjdbc.controller.core.ControllerWorkerThread,BRANCH,0.047058823529411764,0.047058823529411764,4,85
org.objectweb.cjdbc.controller.core.ControllerFactory,BRANCH,0.3220338983050847,0.3728813559322034,19,59
org.objectweb.cjdbc.controller.core.ReportManager,BRANCH,0.7666666666666667,0.7833333333333333,46,60
org.objectweb.cjdbc.controller.core.security.ControllerSecurityManager,BRANCH,0.9833333333333333,0.9833333333333333,59,60
org.objectweb.cjdbc.controller.core.shutdown.ControllerForceShutdownThread,BRANCH,1.0,1.0,2,2
org.objectweb.cjdbc.controller.core.shutdown.VirtualDatabaseShutdownThread,BRANCH,0.36363636363636365,0.36363636363636365,8,22
org.objectweb.cjdbc.controller.core.shutdown.VirtualDatabaseWaitShutdownThread,BRANCH,1.0,1.0,2,2
org.objectweb.cjdbc.controller.core.shutdown.ControllerWaitShutdownThread,BRANCH,1.0,1.0,2,2
org.objectweb.cjdbc.controller.core.shutdown.VirtualDatabaseSafeShutdownThread,BRANCH,1.0,1.0,2,2
org.objectweb.cjdbc.controller.core.shutdown.ControllerShutdownThread,BRANCH,0.9333333333333333,0.9333333333333333,14,15
org.objectweb.cjdbc.controller.core.shutdown.VirtualDatabaseForceShutdownThread,BRANCH,1.0,1.0,2,2
org.objectweb.cjdbc.controller.core.shutdown.ShutdownThread,BRANCH,1.0,1.0,5,5
org.objectweb.cjdbc.controller.core.shutdown.ControllerSafeShutdownThread,BRANCH,1.0,1.0,2,2
org.objectweb.cjdbc.controller.core.ControllerServerThread,BRANCH,0.8048780487804879,0.8048780487804879,33,41
org.objectweb.cjdbc.controller.cache.CacheException,BRANCH,1.0,1.0,1,1
org.objectweb.cjdbc.controller.cache.metadata.MetadataCache,BRANCH,0.9166666666666666,0.9166666666666666,22,24
org.objectweb.cjdbc.controller.cache.CacheStatistics,BRANCH,1.0,1.0,25,25
org.objectweb.cjdbc.controller.cache.parsing.ParsingCache,BRANCH,0.5714285714285714,0.5714285714285714,32,56
org.objectweb.cjdbc.controller.cache.result.AbstractResultCache,BRANCH,0.375,0.375,3,8
org.objectweb.cjdbc.controller.cache.result.CacheBehavior,BRANCH,1.0,1.0,3,3
org.objectweb.cjdbc.controller.cache.result.ResultCacheTable,BRANCH,0.5714285714285714,0.5714285714285714,4,7
org.objectweb.cjdbc.controller.cache.result.ResultCacheDatabase,BRANCH,1.0,1.0,5,5
org.objectweb.cjdbc.controller.cache.result.ResultCacheColumn,BRANCH,0.32,0.32,8,25
org.objectweb.cjdbc.controller.cache.result.ResultCacheFactory,BRANCH,1.0,1.0,17,17
org.objectweb.cjdbc.controller.cache.result.rules.EagerCaching,BRANCH,1.0,1.0,3,3
org.objectweb.cjdbc.controller.cache.result.rules.NoCaching,BRANCH,1.0,1.0,3,3
org.objectweb.cjdbc.controller.cache.result.rules.RelaxedCaching,BRANCH,1.0,1.0,3,3
org.objectweb.cjdbc.controller.cache.result.CachingGranularities,BRANCH,1.0,1.0,21,21
org.objectweb.cjdbc.controller.cache.result.threads.RelaxedCacheThread,BRANCH,0.21212121212121213,0.21212121212121213,7,33
org.objectweb.cjdbc.controller.cache.result.threads.EagerCacheThread,BRANCH,0.21428571428571427,0.21428571428571427,6,28
org.objectweb.cjdbc.controller.cache.result.schema.CacheDatabaseSchema,BRANCH,0.7741935483870968,0.7741935483870968,24,31
org.objectweb.cjdbc.controller.cache.result.schema.CacheDatabaseColumn,BRANCH,0.7368421052631579,0.7368421052631579,28,38
org.objectweb.cjdbc.controller.cache.result.schema.CacheDatabaseTable,BRANCH,0.8478260869565217,0.9565217391304348,39,46
org.objectweb.cjdbc.controller.cache.result.ResultCacheColumnUnique,BRANCH,0.1206896551724138,0.1206896551724138,7,58
org.objectweb.cjdbc.controller.cache.result.entries.ResultCacheEntryRelaxed,BRANCH,1.0,1.0,8,8
org.objectweb.cjdbc.controller.cache.result.entries.AbstractResultCacheEntry,BRANCH,1.0,1.0,19,19
org.objectweb.cjdbc.controller.cache.result.entries.ResultCacheEntryEager,BRANCH,1.0,1.0,10,10
org.objectweb.cjdbc.controller.cache.result.entries.ResultCacheEntryNoCache,BRANCH,1.0,1.0,4,4
org.objectweb.cjdbc.controller.cache.result.ResultCache,BRANCH,0.3403141361256545,0.3403141361256545,65,191
org.objectweb.cjdbc.controller.cache.result.ResultCacheRule,BRANCH,1.0,1.0,9,9
org.objectweb.cjdbc.controller.monitoring.SQLMonitoringRule,BRANCH,1.0,1.0,20,20
org.objectweb.cjdbc.controller.monitoring.SQLMonitoring,BRANCH,0.8636363636363636,0.8636363636363636,38,44
org.objectweb.cjdbc.controller.monitoring.datacollector.DataCollector,BRANCH,0.9432624113475178,0.9432624113475178,133,141
org.objectweb.cjdbc.controller.monitoring.Monitoring,BRANCH,1.0,1.0,4,4
org.objectweb.cjdbc.controller.requestmanager.distributed.RAIDb1DistributedRequestManager,BRANCH,0.00477326968973747,0.00477326968973747,2,419
org.objectweb.cjdbc.controller.requestmanager.distributed.DistributedRequestManager,BRANCH,0.6063829787234043,0.6063829787234043,57,94
org.objectweb.cjdbc.controller.requestmanager.distributed.RAIDb2DistributedRequestManager,BRANCH,0.004914004914004914,0.004914004914004914,2,407
org.objectweb.cjdbc.controller.requestmanager.RequestManager,BRANCH,0.33587786259541985,0.33587786259541985,132,393
org.objectweb.cjdbc.controller.requestmanager.RAIDbLevels,BRANCH,1.0,1.0,1,1
org.objectweb.cjdbc.controller.requestmanager.TransactionMarkerMetaData,BRANCH,1.0,1.0,7,7
org.objectweb.cjdbc.controller.requestmanager.ParserThread,BRANCH,1.0,1.0,3,3
org.objectweb.cjdbc.controller.backend.DatabaseBackend,BRANCH,0.7333333333333333,0.7333333333333333,264,360
org.objectweb.cjdbc.controller.backend.rewriting.SimpleRewritingRule,BRANCH,1.0,1.0,12,12
org.objectweb.cjdbc.controller.backend.rewriting.AbstractRewritingRule,BRANCH,1.0,1.0,7,7
org.objectweb.cjdbc.controller.backend.rewriting.PatternRewritingRule,BRANCH,1.0,1.0,36,36
org.objectweb.cjdbc.controller.backend.rewriting.ReplaceAllRewritingRule,BRANCH,1.0,1.0,11,11
org.objectweb.cjdbc.controller.backend.DatabaseBackendSchemaConstants,BRANCH,0.9565217391304348,0.9565217391304348,22,23
org.objectweb.cjdbc.controller.backend.DatabaseBackendMetaData,BRANCH,0.42,0.42,21,50
org.objectweb.cjdbc.controller.backend.DriverCompliance,BRANCH,0.17391304347826086,0.17391304347826086,16,92
org.objectweb.cjdbc.controller.backend.BackendStateListener,BRANCH,1.0,1.0,3,3
org.objectweb.cjdbc.controller.connection.AbstractPoolConnectionManager,BRANCH,0.75,0.75,27,36
org.objectweb.cjdbc.controller.connection.DriverClassLoader,BRANCH,0.5306122448979592,0.5306122448979592,26,49
org.objectweb.cjdbc.controller.connection.FailFastPoolConnectionManager,BRANCH,0.03225806451612903,0.5483870967741935,1,31
org.objectweb.cjdbc.controller.connection.RandomWaitPoolConnectionManager,BRANCH,0.2619047619047619,0.2619047619047619,11,42
org.objectweb.cjdbc.controller.connection.VariablePoolConnectionManager,BRANCH,0.38235294117647056,0.38235294117647056,39,102
org.objectweb.cjdbc.controller.connection.AbstractConnectionManager,BRANCH,0.8421052631578947,0.8421052631578947,32,38
org.objectweb.cjdbc.controller.connection.SimpleConnectionManager,BRANCH,0.875,0.875,14,16
org.objectweb.cjdbc.controller.connection.DriverManager,BRANCH,0.5333333333333333,0.5333333333333333,24,45
org.objectweb.cjdbc.controller.recoverylog.RecoverThread,BRANCH,0.02564102564102564,0.02564102564102564,1,39
org.objectweb.cjdbc.controller.recoverylog.LoggerThread,BRANCH,0.423728813559322,0.423728813559322,25,59
org.objectweb.cjdbc.controller.recoverylog.events.ResetLogEvent,BRANCH,1.0,1.0,3,3
org.objectweb.cjdbc.controller.recoverylog.events.UnlogRequestEvent,BRANCH,0.4166666666666667,0.4166666666666667,5,12
org.objectweb.cjdbc.controller.recoverylog.events.StoreDumpCheckpointEvent,BRANCH,1.0,1.0,3,3
org.objectweb.cjdbc.controller.recoverylog.events.LogRollbackEvent,BRANCH,0.3333333333333333,0.3333333333333333,1,3
org.objectweb.cjdbc.controller.recoverylog.events.LogRequestEvent,BRANCH,0.4166666666666667,0.4166666666666667,5,12
org.objectweb.cjdbc.controller.recoverylog.events.LogEntry,BRANCH,1.0,1.0,6,6
org.objectweb.cjdbc.controller.recoverylog.BackendRecoveryInfo,BRANCH,1.0,1.0,10,10
org.objectweb.cjdbc.controller.recoverylog.RecoveryLog,BRANCH,0.01639344262295082,0.01639344262295082,6,366
org.objectweb.cjdbc.controller.recoverylog.RecoveryTask,BRANCH,1.0,1.0,6,6
org.objectweb.cjdbc.controller.loadbalancer.AllBackendsFailedException,BRANCH,1.0,1.0,4,4
org.objectweb.cjdbc.controller.loadbalancer.raidb1.RAIDb1,BRANCH,0.2762557077625571,0.2762557077625571,121,438
org.objectweb.cjdbc.controller.loadbalancer.raidb1.RAIDb1ec_RR,BRANCH,0.8333333333333334,0.8333333333333334,5,6
org.objectweb.cjdbc.controller.loadbalancer.raidb1.RAIDb1_RR,BRANCH,0.3333333333333333,0.3333333333333333,6,18
org.objectweb.cjdbc.controller.loadbalancer.raidb1.RAIDb1ec_WRR,BRANCH,0.75,0.75,6,8
org.objectweb.cjdbc.controller.loadbalancer.raidb1.RAIDb1_LPRF,BRANCH,0.25,0.25,6,24
org.objectweb.cjdbc.controller.loadbalancer.raidb1.RAIDb1ec,BRANCH,0.29411764705882354,0.29411764705882354,5,17
org.objectweb.cjdbc.controller.loadbalancer.policies.WaitForCompletionPolicy,BRANCH,1.0,1.0,19,19
org.objectweb.cjdbc.controller.loadbalancer.policies.createtable.CreateTableRule,BRANCH,1.0,1.0,29,29
org.objectweb.cjdbc.controller.loadbalancer.policies.createtable.CreateTableException,BRANCH,1.0,1.0,4,4
org.objectweb.cjdbc.controller.loadbalancer.policies.createtable.CreateTableRoundRobin,BRANCH,0.6428571428571429,0.6428571428571429,9,14
org.objectweb.cjdbc.controller.loadbalancer.policies.createtable.CreateTablePolicy,BRANCH,1.0,1.0,15,15
org.objectweb.cjdbc.controller.loadbalancer.policies.createtable.CreateTableRandom,BRANCH,0.75,0.75,9,12
org.objectweb.cjdbc.controller.loadbalancer.policies.createtable.CreateTableAll,BRANCH,1.0,1.0,5,5
org.objectweb.cjdbc.controller.loadbalancer.policies.errorchecking.ErrorCheckingRandom,BRANCH,0.3333333333333333,0.3333333333333333,6,18
org.objectweb.cjdbc.controller.loadbalancer.policies.errorchecking.ErrorCheckingAll,BRANCH,1.0,1.0,3,3
org.objectweb.cjdbc.controller.loadbalancer.policies.errorchecking.ErrorCheckingException,BRANCH,1.0,1.0,4,4
org.objectweb.cjdbc.controller.loadbalancer.policies.errorchecking.ErrorCheckingRoundRobin,BRANCH,0.5555555555555556,0.5555555555555556,10,18
org.objectweb.cjdbc.controller.loadbalancer.policies.errorchecking.ErrorCheckingPolicy,BRANCH,1.0,1.0,14,14
org.objectweb.cjdbc.controller.loadbalancer.singledb.SingleDB,BRANCH,0.5192307692307693,0.5192307692307693,54,104
org.objectweb.cjdbc.controller.loadbalancer.raidb0.RAIDb0,BRANCH,0.10480349344978165,0.10480349344978165,24,229
org.objectweb.cjdbc.controller.loadbalancer.tasks.ReleaseSavepointTask,BRANCH,0.2,0.2,2,10
org.objectweb.cjdbc.controller.loadbalancer.tasks.SavepointTask,BRANCH,0.15789473684210525,0.15789473684210525,3,19
org.objectweb.cjdbc.controller.loadbalancer.tasks.BeginTask,BRANCH,0.14285714285714285,0.14285714285714285,2,14
org.objectweb.cjdbc.controller.loadbalancer.tasks.RollbackTask,BRANCH,0.2,0.2,2,10
org.objectweb.cjdbc.controller.loadbalancer.tasks.RollbackToSavepointTask,BRANCH,0.1,0.1,2,20
org.objectweb.cjdbc.controller.loadbalancer.tasks.AbstractTask,BRANCH,0.8,0.8,32,40
org.objectweb.cjdbc.controller.loadbalancer.tasks.ReadStoredProcedureTask,BRANCH,0.14285714285714285,0.14285714285714285,3,21
org.objectweb.cjdbc.controller.loadbalancer.tasks.CommitTask,BRANCH,0.2,0.2,2,10
org.objectweb.cjdbc.controller.loadbalancer.tasks.WriteStoredProcedureTask,BRANCH,0.16666666666666666,0.16666666666666666,4,24
org.objectweb.cjdbc.controller.loadbalancer.tasks.WriteRequestWithKeysTask,BRANCH,0.15384615384615385,0.15384615384615385,4,26
org.objectweb.cjdbc.controller.loadbalancer.tasks.KillThreadTask,BRANCH,1.0,1.0,3,3
org.objectweb.cjdbc.controller.loadbalancer.AbstractLoadBalancer,BRANCH,0.24074074074074073,0.24074074074074073,26,108
org.objectweb.cjdbc.controller.loadbalancer.paralleldb.ParallelDB_LPRF,BRANCH,0.14705882352941177,0.14705882352941177,5,34
org.objectweb.cjdbc.controller.loadbalancer.raidb2.RAIDb2ec_RR,BRANCH,0.8333333333333334,0.8333333333333334,5,6
org.objectweb.cjdbc.controller.loadbalancer.raidb2.RAIDb2_WRR,BRANCH,0.8571428571428571,0.8571428571428571,6,7
org.objectweb.cjdbc.controller.loadbalancer.raidb2.RAIDb2ec,BRANCH,0.4117647058823529,0.4117647058823529,7,17
org.objectweb.cjdbc.controller.loadbalancer.raidb2.RAIDb2_RR,BRANCH,0.1,0.1,5,50
org.objectweb.cjdbc.controller.loadbalancer.raidb2.RAIDb2_LPRF,BRANCH,0.08064516129032258,0.08064516129032258,5,62
org.objectweb.cjdbc.controller.loadbalancer.WeightedBalancer,BRANCH,0.8333333333333334,0.8333333333333334,5,6
org.objectweb.cjdbc.controller.authentication.AuthenticationManager,BRANCH,1.0,1.0,25,25
org.objectweb.cjdbc.controller.authentication.AuthenticationManagerException,BRANCH,1.0,1.0,4,4
org.objectweb.cjdbc.controller.authentication.PasswordAuthenticator,BRANCH,0.9285714285714286,0.9285714285714286,13,14
org.objectweb.cjdbc.controller.virtualdatabase.VirtualDatabase,BRANCH,0.3634085213032581,0.3634085213032581,145,399
org.objectweb.cjdbc.controller.virtualdatabase.VirtualDatabaseWorkerThread,BRANCH,0.035940803382663845,0.035940803382663845,17,473
org.objectweb.cjdbc.controller.virtualdatabase.protocol.EnableBackend,BRANCH,1.0,1.0,2,2
org.objectweb.cjdbc.controller.virtualdatabase.protocol.CacheInvalidate,BRANCH,1.0,1.0,4,4
org.objectweb.cjdbc.controller.virtualdatabase.protocol.DistributedRequest,BRANCH,1.0,1.0,2,2
org.objectweb.cjdbc.controller.virtualdatabase.protocol.CJDBCGroupMessage,BRANCH,1.0,1.0,1,1
org.objectweb.cjdbc.controller.virtualdatabase.protocol.UnlogCommit,BRANCH,1.0,1.0,3,3
org.objectweb.cjdbc.controller.virtualdatabase.protocol.ExecWriteStoredProcedure,BRANCH,0.3125,0.3125,5,16
org.objectweb.cjdbc.controller.virtualdatabase.protocol.SetSavepoint,BRANCH,0.27586206896551724,0.27586206896551724,8,29
org.objectweb.cjdbc.controller.virtualdatabase.protocol.Commit,BRANCH,0.1935483870967742,0.1935483870967742,6,31
org.objectweb.cjdbc.controller.virtualdatabase.protocol.RollbackToSavepoint,BRANCH,0.25806451612903225,0.25806451612903225,8,31
org.objectweb.cjdbc.controller.virtualdatabase.protocol.ReleaseSavepoint,BRANCH,0.25806451612903225,0.25806451612903225,8,31
org.objectweb.cjdbc.controller.virtualdatabase.protocol.InitiateDumpCopy,BRANCH,1.0,1.0,5,5
org.objectweb.cjdbc.controller.virtualdatabase.protocol.VirtualDatabaseConfiguration,BRANCH,0.0,0.0,0,28
org.objectweb.cjdbc.controller.virtualdatabase.protocol.SetCheckpoint,BRANCH,1.0,1.0,2,2
org.objectweb.cjdbc.controller.virtualdatabase.protocol.DisableBackend,BRANCH,1.0,1.0,2,2
org.objectweb.cjdbc.controller.virtualdatabase.protocol.DistributedTransactionMarker,BRANCH,1.0,1.0,8,8
org.objectweb.cjdbc.controller.virtualdatabase.protocol.BackendStatus,BRANCH,1.0,1.0,2,2
org.objectweb.cjdbc.controller.virtualdatabase.protocol.UnlogRequest,BRANCH,1.0,1.0,3,3
org.objectweb.cjdbc.controller.virtualdatabase.protocol.CopyLogEntry,BRANCH,1.0,1.0,2,2
org.objectweb.cjdbc.controller.virtualdatabase.protocol.BackendTransfer,BRANCH,1.0,1.0,4,4
org.objectweb.cjdbc.controller.virtualdatabase.protocol.ExecWriteRequest,BRANCH,0.35714285714285715,0.35714285714285715,5,14
org.objectweb.cjdbc.controller.virtualdatabase.protocol.NotifyCompletion,BRANCH,1.0,1.0,3,3
org.objectweb.cjdbc.controller.virtualdatabase.protocol.UnlogRollback,BRANCH,1.0,1.0,3,3
org.objectweb.cjdbc.controller.virtualdatabase.protocol.ExecWriteRequestWithKeys,BRANCH,0.45454545454545453,0.45454545454545453,5,11
org.objectweb.cjdbc.controller.virtualdatabase.protocol.ReplicateLogEntries,BRANCH,1.0,1.0,4,4
org.objectweb.cjdbc.controller.virtualdatabase.protocol.ControllerName,BRANCH,1.0,1.0,5,5
org.objectweb.cjdbc.controller.virtualdatabase.protocol.ExecReadRequest,BRANCH,1.0,1.0,4,4
org.objectweb.cjdbc.controller.virtualdatabase.protocol.Rollback,BRANCH,0.1935483870967742,0.1935483870967742,6,31
org.objectweb.cjdbc.controller.virtualdatabase.VirtualDatabaseStaticMetaData,BRANCH,0.5,0.5,4,8
org.objectweb.cjdbc.controller.virtualdatabase.VirtualDatabaseDynamicMetaData,BRANCH,0.003937007874015748,0.003937007874015748,1,254
org.objectweb.cjdbc.controller.virtualdatabase.DistributedVirtualDatabase,BRANCH,0.23624595469255663,0.23948220064724918,73,309
org.objectweb.cjdbc.controller.virtualdatabase.ControllerResultSet,BRANCH,0.7142857142857143,0.7142857142857143,50,70
org.objectweb.cjdbc.controller.backup.BackupManager,BRANCH,0.8260869565217391,0.8260869565217391,19,23
org.objectweb.cjdbc.controller.backup.DumpTransferInfo,BRANCH,1.0,1.0,3,3
org.objectweb.cjdbc.controller.backup.PostgreSQLPlainTextBackuper,BRANCH,0.06666666666666667,0.06666666666666667,2,30
org.objectweb.cjdbc.controller.backup.PostgreSQLBinaryBackuper,BRANCH,0.06666666666666667,0.06666666666666667,2,30
org.objectweb.cjdbc.controller.backup.OctopusBackuper,BRANCH,0.30973451327433627,0.30973451327433627,35,113
org.objectweb.cjdbc.controller.backup.DerbyEmbeddedBackuper,BRANCH,0.8846153846153846,0.8846153846153846,23,26
org.objectweb.cjdbc.controller.backup.AbstractPostgreSQLBackuper,BRANCH,0.5294117647058824,0.9411764705882353,9,17
org.objectweb.cjdbc.controller.jmx.HttpAdaptor,BRANCH,1.0,1.0,9,9
org.objectweb.cjdbc.controller.jmx.MBeanServerManager,BRANCH,0.8666666666666667,0.9333333333333333,26,30
org.objectweb.cjdbc.controller.jmx.ChainedMBeanServer,BRANCH,1.0,1.0,40,40
org.objectweb.cjdbc.controller.jmx.ChainedMBeanServerBuilder,BRANCH,0.2,0.2,1,5
org.objectweb.cjdbc.controller.jmx.MBeanServerBuilder,BRANCH,1.0,1.0,3,3
org.objectweb.cjdbc.controller.jmx.AuthenticatingMBeanServer,BRANCH,0.16666666666666666,0.16666666666666666,7,42
org.objectweb.cjdbc.controller.jmx.RmiConnector,BRANCH,0.6785714285714286,0.7142857142857143,19,28
org.objectweb.cjdbc.controller.xml.DatabasesParser,BRANCH,0.40625,0.40625,221,544
org.objectweb.cjdbc.controller.xml.ControllerParser,BRANCH,0.008695652173913044,0.008695652173913044,1,115
org.objectweb.cjdbc.controller.scheduler.raidb1.RAIDb1OptimisticQueryLevelScheduler,BRANCH,1.0,1.0,15,15
org.objectweb.cjdbc.controller.scheduler.raidb1.RAIDb1OptimisticTransactionLevelScheduler,BRANCH,0.40540540540540543,0.40540540540540543,30,74
org.objectweb.cjdbc.controller.scheduler.raidb1.RAIDb1PessimisticTransactionLevelScheduler,BRANCH,0.7317073170731707,0.7317073170731707,30,41
org.objectweb.cjdbc.controller.scheduler.raidb1.RAIDb1QueryLevelScheduler,BRANCH,0.4918032786885246,0.4918032786885246,30,61
org.objectweb.cjdbc.controller.scheduler.raidb1.RAIDb1PassThroughScheduler,BRANCH,0.6190476190476191,0.6190476190476191,13,21
org.objectweb.cjdbc.controller.scheduler.singledb.SingleDBPassThroughScheduler,BRANCH,1.0,1.0,13,13
org.objectweb.cjdbc.controller.scheduler.singledb.SingleDBPessimisticTransactionLevelScheduler,BRANCH,0.6857142857142857,0.6857142857142857,24,35
org.objectweb.cjdbc.controller.scheduler.raidb0.RAIDb0PessimisticTransactionLevelScheduler,BRANCH,0.6923076923076923,0.6923076923076923,27,39
org.objectweb.cjdbc.controller.scheduler.raidb0.RAIDb0PassThroughLevelScheduler,BRANCH,1.0,1.0,13,13
org.objectweb.cjdbc.controller.scheduler.schema.TransactionExclusiveLock,BRANCH,0.7407407407407407,0.7407407407407407,20,27
org.objectweb.cjdbc.controller.scheduler.schema.SchedulerDatabaseSchema,BRANCH,0.78125,0.78125,25,32
org.objectweb.cjdbc.controller.scheduler.schema.SchedulerDatabaseTable,BRANCH,1.0,1.0,8,8
org.objectweb.cjdbc.controller.scheduler.raidb2.RAIDb2QueryLevelScheduler,BRANCH,0.5614035087719298,0.5614035087719298,32,57
org.objectweb.cjdbc.controller.scheduler.raidb2.RAIDb2PassThroughScheduler,BRANCH,0.6190476190476191,0.6190476190476191,13,21
org.objectweb.cjdbc.controller.scheduler.raidb2.RAIDb2PessimisticTransactionLevelScheduler,BRANCH,0.7073170731707317,0.7073170731707317,29,41
org.objectweb.cjdbc.controller.scheduler.AbstractScheduler,BRANCH,0.5714285714285714,0.5714285714285714,88,154
