TARGET_CLASS,criterion,BranchCoverage,Coverage,Covered_Goals,Total_Goals
org.lnicholls.galleon.widget.DefaultList,BRANCH,0.85,0.85,17,20
org.lnicholls.galleon.widget.Skin,BRANCH,0.8,0.8,4,5
org.lnicholls.galleon.widget.DefaultOptionsScreen,BRANCH,0.14285714285714285,0.14285714285714285,1,7
org.lnicholls.galleon.widget.DefaultMenuScreen,BRANCH,0.034482758620689655,0.034482758620689655,1,29
org.lnicholls.galleon.widget.DefaultApplication,BRANCH,0.4547325102880658,0.4567901234567901,221,486
org.lnicholls.galleon.widget.LabelText,BRANCH,0.8333333333333334,0.8333333333333334,10,12
org.lnicholls.galleon.widget.ScreenSaver,BRANCH,0.4375,0.4375,7,16
org.lnicholls.galleon.widget.BlockList,BRANCH,1.0,1.0,35,35
org.lnicholls.galleon.widget.MusicPlayer,BRANCH,0.006172839506172839,0.006172839506172839,1,162
org.lnicholls.galleon.widget.DefaultScreen,BRANCH,0.35294117647058826,0.35294117647058826,18,51
org.lnicholls.galleon.widget.MusicOptionsScreen,BRANCH,0.0,0.0,0,7
org.lnicholls.galleon.widget.MusicInfo,BRANCH,0.009174311926605505,0.009174311926605505,1,109
org.lnicholls.galleon.widget.OptionsButton,BRANCH,1.0,1.0,18,18
org.lnicholls.galleon.widget.DefaultOptionList,BRANCH,0.029411764705882353,0.029411764705882353,1,34
org.lnicholls.galleon.server.MusicPlayerConfiguration,BRANCH,0.967741935483871,0.967741935483871,30,31
org.lnicholls.galleon.server.ServerControlImpl,BRANCH,0.022727272727272728,0.022727272727272728,1,44
org.lnicholls.galleon.server.DownloadConfiguration,BRANCH,1.0,1.0,8,8
org.lnicholls.galleon.server.TiVo,BRANCH,1.0,1.0,25,25
org.lnicholls.galleon.server.DataConfiguration,BRANCH,1.0,1.0,24,24
org.lnicholls.galleon.server.GoBackConfiguration,BRANCH,1.0,1.0,24,24
org.lnicholls.galleon.server.ServerControlImpl_Stub,BRANCH,0.24456521739130435,0.24456521739130435,45,184
org.lnicholls.galleon.server.JetService,BRANCH,0.4,0.4,6,15
org.lnicholls.galleon.server.ServerConfiguration,BRANCH,0.9538461538461539,0.9538461538461539,62,65
org.lnicholls.galleon.server.Server,BRANCH,0.5159817351598174,0.5159817351598174,226,438
org.lnicholls.galleon.server.TiVoListener,BRANCH,0.03508771929824561,0.03508771929824561,2,57
org.lnicholls.galleon.server.ServiceWrapper,BRANCH,0.23529411764705882,0.23529411764705882,4,17
org.lnicholls.galleon.test,BRANCH,0.4166666666666667,0.4166666666666667,195,468
org.lnicholls.galleon.goback.ListenThread,BRANCH,0.0,0.0,0,12
org.lnicholls.galleon.goback.ConnectionThread,BRANCH,0.1875,0.1875,3,16
org.lnicholls.galleon.goback.ItemURL,BRANCH,0.68,0.68,34,50
org.lnicholls.galleon.goback.Beacon,BRANCH,0.6181818181818182,0.6181818181818182,34,55
org.lnicholls.galleon.goback.VideoServer,BRANCH,0.0024813895781637717,0.0024813895781637717,1,403
org.lnicholls.galleon.goback.BroadcastThread,BRANCH,0.2972972972972973,0.2972972972972973,11,37
org.lnicholls.galleon.goback.ConnectionHandler,BRANCH,0.030303030303030304,0.030303030303030304,1,33
org.lnicholls.galleon.togo.ToGo,BRANCH,0.014150943396226415,0.014150943396226415,6,424
org.lnicholls.galleon.togo.DownloadThread,BRANCH,0.11538461538461539,0.11538461538461539,6,52
org.lnicholls.galleon.togo.TiVoX509TrustManager,BRANCH,0.5263157894736842,0.5263157894736842,10,19
org.lnicholls.galleon.togo.ToGoThread,BRANCH,0.04285714285714286,0.04285714285714286,3,70
org.lnicholls.galleon.togo.TiVoSSLProtocolSocketFactory,BRANCH,0.6666666666666666,0.6666666666666666,6,9
org.lnicholls.galleon.togo.Rule,BRANCH,0.3992248062015504,0.4186046511627907,103,258
org.lnicholls.galleon.data.DataUpdateThread,BRANCH,0.07692307692307693,0.07692307692307693,1,13
org.lnicholls.galleon.data.Users,BRANCH,0.36065573770491804,0.36065573770491804,22,61
org.lnicholls.galleon.database.VideocastManager,BRANCH,0.1,0.1,8,80
org.lnicholls.galleon.database.Theater,BRANCH,1.0,1.0,18,18
org.lnicholls.galleon.database.ShoutcastStationManager,BRANCH,0.25,0.25,6,24
org.lnicholls.galleon.database.Movie,BRANCH,1.0,1.0,54,54
org.lnicholls.galleon.database.AudioManager,BRANCH,0.06976744186046512,0.06976744186046512,6,86
org.lnicholls.galleon.database.TheaterShowtimes,BRANCH,1.0,1.0,9,9
org.lnicholls.galleon.database.ThumbnailManager,BRANCH,0.12,0.12,6,50
org.lnicholls.galleon.database.PlaylistsTracks,BRANCH,1.0,1.0,9,9
org.lnicholls.galleon.database.Playlist,BRANCH,1.0,1.0,22,22
org.lnicholls.galleon.database.ShoutcastStation,BRANCH,1.0,1.0,35,35
org.lnicholls.galleon.database.PlaylistsManager,BRANCH,0.11538461538461539,0.11538461538461539,6,52
org.lnicholls.galleon.database.Video,BRANCH,1.0,1.0,164,164
org.lnicholls.galleon.database.PersistentValue,BRANCH,1.0,1.0,14,14
org.lnicholls.galleon.database.TheaterManager,BRANCH,0.13636363636363635,0.13636363636363635,6,44
org.lnicholls.galleon.database.Thumbnail,BRANCH,1.0,1.0,16,16
org.lnicholls.galleon.database.ImageManager,BRANCH,0.16666666666666666,0.16666666666666666,6,36
org.lnicholls.galleon.database.Version,BRANCH,1.0,1.0,16,16
org.lnicholls.galleon.database.PersistentValueManager,BRANCH,0.18292682926829268,0.18292682926829268,15,82
org.lnicholls.galleon.database.Application,BRANCH,1.0,1.0,22,22
org.lnicholls.galleon.database.Playlists,BRANCH,1.0,1.0,20,20
org.lnicholls.galleon.database.Videocast,BRANCH,1.0,1.0,62,62
org.lnicholls.galleon.database.Audio,BRANCH,1.0,1.0,58,58
org.lnicholls.galleon.database.Podcast,BRANCH,1.0,1.0,62,62
org.lnicholls.galleon.database.Image,BRANCH,1.0,1.0,38,38
org.lnicholls.galleon.database.HibernateUtil,BRANCH,0.09090909090909091,0.09090909090909091,5,55
org.lnicholls.galleon.database.MovieManager,BRANCH,0.15,0.15,6,40
org.lnicholls.galleon.database.PlaylistTrack,BRANCH,1.0,1.0,5,5
org.lnicholls.galleon.database.NetworkServerManager,BRANCH,0.14285714285714285,0.14285714285714285,9,63
org.lnicholls.galleon.database.ApplicationManager,BRANCH,0.23076923076923078,0.23076923076923078,6,26
org.lnicholls.galleon.database.PodcastTrack,BRANCH,1.0,1.0,67,67
org.lnicholls.galleon.database.VideocastTrack,BRANCH,1.0,1.0,67,67
org.lnicholls.galleon.database.PlaylistManager,BRANCH,0.14285714285714285,0.14285714285714285,6,42
org.lnicholls.galleon.database.VideoManager,BRANCH,0.125,0.125,6,48
org.lnicholls.galleon.database.PodcastManager,BRANCH,0.1,0.1,8,80
org.lnicholls.galleon.database.PlaylistsTracksManager,BRANCH,0.17142857142857143,0.17142857142857143,6,35
org.lnicholls.galleon.skins.Skin,BRANCH,0.07142857142857142,0.07142857142857142,1,14
org.lnicholls.galleon.skins.Descriptor,BRANCH,1.0,1.0,14,14
org.lnicholls.galleon.skins.SkinDescriptor,BRANCH,1.0,1.0,55,55
org.lnicholls.galleon.skins.SkinLoader,BRANCH,0.12727272727272726,0.12727272727272726,7,55
org.lnicholls.galleon.app.AppDescriptor,BRANCH,0.0,0.0,0,92
org.lnicholls.galleon.app.AppContext,BRANCH,0.8421052631578947,0.8421052631578947,16,19
org.lnicholls.galleon.app.AppFactory,BRANCH,0.6176470588235294,0.6176470588235294,21,34
org.lnicholls.galleon.app.AppConfigurationPanel,BRANCH,0.75,0.75,6,8
org.lnicholls.galleon.app.AppException,BRANCH,1.0,1.0,3,3
org.lnicholls.galleon.app.AppHost,BRANCH,0.14166666666666666,0.14166666666666666,17,120
org.lnicholls.galleon.app.AppManager,BRANCH,0.019230769230769232,0.019230769230769232,2,104
org.lnicholls.galleon.gui.MainFrame,BRANCH,0.008438818565400843,0.008438818565400843,2,237
org.lnicholls.galleon.gui.ToGoDialog,BRANCH,0.07692307692307693,0.07692307692307693,1,13
org.lnicholls.galleon.gui.PropertyText,BRANCH,1.0,1.0,8,8
org.lnicholls.galleon.gui.OptionsTable,BRANCH,0.042105263157894736,0.042105263157894736,4,95
org.lnicholls.galleon.gui.OptionsPanelManager,BRANCH,0.22857142857142856,0.22857142857142856,8,35
org.lnicholls.galleon.gui.AppNode,BRANCH,1.0,1.0,6,6
org.lnicholls.galleon.gui.InternalFrame,BRANCH,0.8823529411764706,0.8823529411764706,15,17
org.lnicholls.galleon.gui.PropertySelector,BRANCH,0.0,0.0,0,4
org.lnicholls.galleon.gui.FileOptionsTable,BRANCH,0.2682926829268293,0.2682926829268293,11,41
org.lnicholls.galleon.gui.TiVoPanel,BRANCH,0.0,0.0,0,157
org.lnicholls.galleon.gui.DownloadedPanel,BRANCH,0.06474820143884892,0.06474820143884892,9,139
org.lnicholls.galleon.gui.HelpDialog,BRANCH,0.5,0.5,4,8
org.lnicholls.galleon.gui.HMEConfigurationPanel,BRANCH,0.8103448275862069,0.8103448275862069,47,58
org.lnicholls.galleon.gui.AppTree,BRANCH,0.71875,0.71875,23,32
org.lnicholls.galleon.gui.OptionsTableModel,BRANCH,0.8636363636363636,0.8636363636363636,19,22
org.lnicholls.galleon.gui.RulesPanel,BRANCH,0.0,0.0,0,148
org.lnicholls.galleon.gui.PropertyCanvas,BRANCH,0.875,0.875,7,8
org.lnicholls.galleon.gui.RecordedPanel,BRANCH,0.046153846153846156,0.046153846153846156,9,195
org.lnicholls.galleon.gui.DownloadManagerDialog,BRANCH,0.0,0.0,0,145
org.lnicholls.galleon.downloads.Download,BRANCH,1.0,1.0,19,19
org.lnicholls.galleon.downloads.FileManager,BRANCH,0.8,0.8,4,5
org.lnicholls.galleon.downloads.DownloadManager,BRANCH,0.136986301369863,0.136986301369863,10,73
org.lnicholls.galleon.downloads.DownloadThread,BRANCH,0.7090909090909091,0.7090909090909091,39,55
org.lnicholls.galleon.downloads.Downloader,BRANCH,0.6619718309859155,0.6619718309859155,47,71
org.lnicholls.galleon.downloads.ThreadStatus,BRANCH,1.0,1.0,8,8
org.lnicholls.galleon.downloads.Range,BRANCH,0.96,0.96,24,25
org.lnicholls.galleon.downloads.DataWritingEvent,BRANCH,1.0,1.0,4,4
org.lnicholls.galleon.downloads.StatusEvent,BRANCH,1.0,1.0,5,5
org.lnicholls.galleon.media.Mp3File,BRANCH,0.0968586387434555,0.0968586387434555,37,382
org.lnicholls.galleon.media.M3uPlaylist,BRANCH,0.4716981132075472,0.4716981132075472,25,53
org.lnicholls.galleon.media.VideoFile,BRANCH,0.5106382978723404,0.5106382978723404,48,94
org.lnicholls.galleon.media.MovieFile,BRANCH,1.0,1.0,2,2
org.lnicholls.galleon.media.MediaManager,BRANCH,0.7313432835820896,0.7313432835820896,49,67
org.lnicholls.galleon.media.Mp3Url,BRANCH,0.3442622950819672,0.3442622950819672,21,61
org.lnicholls.galleon.media.MediaRefreshThread,BRANCH,0.3404255319148936,0.3404255319148936,16,47
org.lnicholls.galleon.media.Playlist,BRANCH,0.8181818181818182,0.8181818181818182,18,22
org.lnicholls.galleon.media.ImageManipulator,BRANCH,0.8260869565217391,0.8260869565217391,19,23
org.lnicholls.galleon.media.ImageFile,BRANCH,0.6666666666666666,0.6666666666666666,14,21
org.lnicholls.galleon.media.PlsPlaylist,BRANCH,0.22580645161290322,0.22580645161290322,14,62
org.lnicholls.galleon.media.JpgFile,BRANCH,0.42105263157894735,0.42105263157894735,8,19
org.lnicholls.galleon.winamp.TextControl,BRANCH,0.8333333333333334,0.8333333333333334,5,6
org.lnicholls.galleon.winamp.ImageView,BRANCH,1.0,1.0,11,11
org.lnicholls.galleon.winamp.WinampPlayer,BRANCH,0.005780346820809248,0.005780346820809248,1,173
org.lnicholls.galleon.winamp.BMPLoader,BRANCH,0.5,0.5,24,48
org.lnicholls.galleon.winamp.PositionControl,BRANCH,1.0,1.0,8,8
org.lnicholls.galleon.winamp.ScrollTextControl,BRANCH,1.0,1.0,16,16
org.lnicholls.galleon.winamp.Util,BRANCH,1.0,1.0,10,10
org.lnicholls.galleon.winamp.ImageControl,BRANCH,1.0,1.0,6,6
org.lnicholls.galleon.winamp.ClassicSkin,BRANCH,0.0,0.0,0,34
org.lnicholls.galleon.winamp.SkinLoader,BRANCH,0.25,0.25,5,20
org.lnicholls.galleon.util.NameValue,BRANCH,1.0,1.0,7,7
org.lnicholls.galleon.util.Amazon,BRANCH,0.3142857142857143,0.3142857142857143,11,35
org.lnicholls.galleon.util.Wipe,BRANCH,0.14285714285714285,0.14285714285714285,4,28
org.lnicholls.galleon.util.ReloadTask,BRANCH,0.16666666666666666,0.16666666666666666,2,12
org.lnicholls.galleon.util.FileSystemContainer,BRANCH,0.3888888888888889,0.3888888888888889,28,72
org.lnicholls.galleon.util.VersionCheck,BRANCH,0.2549019607843137,0.2549019607843137,13,51
org.lnicholls.galleon.util.Effects,BRANCH,1.0,1.0,4,4
org.lnicholls.galleon.util.NetInfo,BRANCH,0.42857142857142855,0.42857142857142855,9,21
org.lnicholls.galleon.util.DummySSLSocketFactory,BRANCH,1.0,1.0,9,9
org.lnicholls.galleon.util.Effect,BRANCH,0.2777777777777778,0.2777777777777778,5,18
org.lnicholls.galleon.util.CustomSecurityManager,BRANCH,0.7777777777777778,0.7777777777777778,7,9
org.lnicholls.galleon.util.JavaHMO,BRANCH,0.030303030303030304,0.030303030303030304,1,33
org.lnicholls.galleon.util.DummyTrustManager,BRANCH,1.0,1.0,4,4
org.lnicholls.galleon.util.JarClassLoader,BRANCH,0.2653061224489796,0.2653061224489796,13,49
org.lnicholls.galleon.util.FileGatherer,BRANCH,0.6486486486486487,0.6486486486486487,24,37
org.lnicholls.galleon.util.Configurator,BRANCH,0.07063197026022305,0.07063197026022305,19,269
org.lnicholls.galleon.util.SharedNameValue,BRANCH,1.0,1.0,8,8
org.lnicholls.galleon.util.FileList,BRANCH,0.47368421052631576,0.5,18,38
org.lnicholls.galleon.util.CrossFade,BRANCH,1.0,1.0,2,2
org.lnicholls.galleon.util.FileSorters,BRANCH,0.6987951807228916,0.6987951807228916,58,83
org.lnicholls.galleon.util.Tools,BRANCH,0.5824915824915825,0.5824915824915825,173,297
org.lnicholls.galleon.util.FileFilters,BRANCH,0.9210526315789473,0.9342105263157895,70,76
org.lnicholls.galleon.util.WindowsNetworkInfo,BRANCH,0.08,0.08,2,25
org.lnicholls.galleon.util.MacNetworkInfo,BRANCH,0.047619047619047616,0.047619047619047616,1,21
org.lnicholls.galleon.util.LinuxNetworkInfo,BRANCH,0.047619047619047616,0.047619047619047616,1,21
org.lnicholls.galleon.util.IMDB,BRANCH,0.08359133126934984,0.08359133126934984,27,323
org.lnicholls.galleon.util.NetworkInfo,BRANCH,0.5833333333333334,0.5833333333333334,7,12
org.lnicholls.galleon.util.Lyrics,BRANCH,0.3384615384615385,0.3384615384615385,22,65
org.lnicholls.galleon.util.Yahoo,BRANCH,0.16,0.16,4,25
