TARGET_CLASS,criterion,BranchCoverage,Coverage,Covered_Goals,Total_Goals
org.apache.el.MethodExpressionLiteral,BRANCH,0.9375,0.9375,15,16
org.apache.el.ExpressionFactoryImpl,BRANCH,1.0,1.0,7,7
org.apache.el.lang.VariableMapperImpl,BRANCH,1.0,1.0,5,5
org.apache.el.lang.ELArithmetic,BRANCH,0.9285714285714286,0.9285714285714286,143,154
org.apache.el.lang.ELSupport,BRANCH,0.9356060606060606,0.9356060606060606,247,264
org.apache.el.lang.ExpressionBuilder,BRANCH,0.5714285714285714,0.7142857142857143,32,56
org.apache.el.lang.FunctionMapperFactory,BRANCH,0.8571428571428571,0.8571428571428571,6,7
org.apache.el.lang.VariableMapperFactory,BRANCH,1.0,1.0,8,8
org.apache.el.lang.EvaluationContext,BRANCH,1.0,1.0,11,11
org.apache.el.lang.FunctionMapperImpl,BRANCH,0.8571428571428571,0.8571428571428571,30,35
org.apache.el.util.ConcurrentCache,BRANCH,1.0,1.0,7,7
org.apache.el.util.MessageFactory,BRANCH,1.0,1.0,8,8
org.apache.el.util.Validation,BRANCH,0.85,0.85,17,20
org.apache.el.util.ReflectionUtil,BRANCH,0.7551020408163265,0.7551020408163265,74,98
org.apache.el.MethodExpressionImpl,BRANCH,0.8333333333333334,0.8333333333333334,15,18
org.apache.el.parser.AstEqual,BRANCH,1.0,1.0,2,2
org.apache.el.parser.AstNull,BRANCH,1.0,1.0,3,3
org.apache.el.parser.AstMult,BRANCH,1.0,1.0,2,2
org.apache.el.parser.AstEmpty,BRANCH,0.5,0.55,10,20
org.apache.el.parser.AstTrue,BRANCH,1.0,1.0,2,2
org.apache.el.parser.AstFunction,BRANCH,0.7,0.7,14,20
org.apache.el.parser.ArithmeticNode,BRANCH,1.0,1.0,2,2
org.apache.el.parser.AstNotEqual,BRANCH,1.0,1.0,3,3
org.apache.el.parser.AstOr,BRANCH,1.0,1.0,3,3
org.apache.el.parser.ELParserTokenManager,BRANCH,0.1441908713692946,0.1441908713692946,139,964
org.apache.el.parser.AstMinus,BRANCH,1.0,1.0,2,2
org.apache.el.parser.AstMethodParameters,BRANCH,1.0,1.0,5,5
org.apache.el.parser.AstChoice,BRANCH,1.0,1.0,5,5
org.apache.el.parser.AstInteger,BRANCH,1.0,1.0,5,5
org.apache.el.parser.AstString,BRANCH,0.6842105263157895,1.0,13,19
org.apache.el.parser.AstFloatingPoint,BRANCH,1.0,1.0,5,5
org.apache.el.parser.AstFalse,BRANCH,1.0,1.0,2,2
org.apache.el.parser.AstValue,BRANCH,0.25675675675675674,0.25675675675675674,19,74
org.apache.el.parser.AstLiteralExpression,BRANCH,0.23529411764705882,1.0,4,17
org.apache.el.parser.AstNegative,BRANCH,0.3333333333333333,0.3333333333333333,8,24
org.apache.el.parser.AstBracketSuffix,BRANCH,1.0,1.0,2,2
org.apache.el.parser.AstGreaterThan,BRANCH,0.42857142857142855,0.42857142857142855,3,7
org.apache.el.parser.AstNot,BRANCH,1.0,1.0,4,4
org.apache.el.parser.AstPlus,BRANCH,1.0,1.0,2,2
org.apache.el.parser.TokenMgrError,BRANCH,1.0,1.0,32,32
org.apache.el.parser.AstIdentifier,BRANCH,0.8717948717948718,0.8717948717948718,34,39
org.apache.el.parser.AstDynamicExpression,BRANCH,1.0,1.0,5,5
org.apache.el.parser.AstLessThanEqual,BRANCH,0.1111111111111111,0.1111111111111111,1,9
org.apache.el.parser.AstDotSuffix,BRANCH,1.0,1.0,4,4
org.apache.el.parser.AstLessThan,BRANCH,0.7142857142857143,0.7142857142857143,5,7
org.apache.el.parser.BooleanNode,BRANCH,1.0,1.0,2,2
org.apache.el.parser.AstMod,BRANCH,1.0,1.0,2,2
org.apache.el.parser.AstAnd,BRANCH,1.0,1.0,3,3
org.apache.el.parser.AstGreaterThanEqual,BRANCH,0.7777777777777778,0.7777777777777778,7,9
org.apache.el.parser.ParseException,BRANCH,0.8444444444444444,0.8666666666666667,38,45
org.apache.el.parser.AstDiv,BRANCH,1.0,1.0,2,2
org.apache.el.parser.Token,BRANCH,0.875,0.875,7,8
org.apache.el.parser.SimpleCharStream,BRANCH,0.956989247311828,0.956989247311828,89,93
org.apache.el.parser.AstDeferredExpression,BRANCH,1.0,1.0,5,5
org.apache.el.parser.AstCompositeExpression,BRANCH,1.0,1.0,8,8
org.apache.el.parser.ELParser,BRANCH,0.1909307875894988,0.1917263325377884,240,1257
org.apache.el.parser.SimpleNode,BRANCH,0.9090909090909091,0.9636363636363636,50,55
org.apache.el.parser.JJTELParserState,BRANCH,0.7777777777777778,1.0,14,18
org.apache.el.ValueExpressionImpl,BRANCH,0.8695652173913043,0.8695652173913043,20,23
org.apache.el.ValueExpressionLiteral,BRANCH,0.90625,0.90625,29,32
org.apache.el.MethodExpressionLiteral,BRANCH,0.8125,0.8125,13,16
org.apache.el.ValueExpressionLiteral,BRANCH,0.90625,0.90625,29,32
org.apache.el.lang.FunctionMapperFactory,BRANCH,0.8571428571428571,0.8571428571428571,6,7
org.apache.el.lang.ELSupport,BRANCH,0.946969696969697,0.946969696969697,250,264
org.apache.el.lang.VariableMapperFactory,BRANCH,1.0,1.0,8,8
org.apache.el.lang.ELArithmetic,BRANCH,0.935064935064935,0.935064935064935,144,154
org.apache.el.lang.VariableMapperImpl,BRANCH,1.0,1.0,5,5
org.apache.el.lang.FunctionMapperImpl,BRANCH,0.8571428571428571,0.8571428571428571,30,35
org.apache.el.lang.ExpressionBuilder,BRANCH,0.5535714285714286,0.75,31,56
org.apache.el.lang.EvaluationContext,BRANCH,1.0,1.0,11,11
org.apache.el.MethodExpressionImpl,BRANCH,0.9444444444444444,0.9444444444444444,17,18
org.apache.el.parser.AstMethodParameters,BRANCH,1.0,1.0,5,5
org.apache.el.parser.AstEmpty,BRANCH,0.55,0.55,11,20
org.apache.el.parser.AstString,BRANCH,0.7894736842105263,1.0,15,19
org.apache.el.parser.AstChoice,BRANCH,1.0,1.0,5,5
org.apache.el.parser.AstDynamicExpression,BRANCH,1.0,1.0,5,5
org.apache.el.parser.AstDiv,BRANCH,1.0,1.0,2,2
org.apache.el.parser.AstIdentifier,BRANCH,0.8461538461538461,0.8461538461538461,33,39
org.apache.el.parser.AstMinus,BRANCH,1.0,1.0,2,2
org.apache.el.parser.AstLessThan,BRANCH,1.0,1.0,7,7
org.apache.el.parser.TokenMgrError,BRANCH,1.0,1.0,32,32
org.apache.el.parser.AstDotSuffix,BRANCH,1.0,1.0,4,4
org.apache.el.parser.SimpleCharStream,BRANCH,0.9354838709677419,0.9354838709677419,87,93
org.apache.el.parser.AstBracketSuffix,BRANCH,1.0,1.0,2,2
org.apache.el.parser.AstLessThanEqual,BRANCH,0.7777777777777778,0.7777777777777778,7,9
org.apache.el.parser.AstLiteralExpression,BRANCH,0.23529411764705882,1.0,4,17
org.apache.el.parser.AstValue,BRANCH,0.2702702702702703,0.2702702702702703,20,74
org.apache.el.parser.AstInteger,BRANCH,1.0,1.0,5,5
org.apache.el.parser.ParseException,BRANCH,0.8444444444444444,0.8666666666666667,38,45
org.apache.el.parser.AstOr,BRANCH,0.6666666666666666,0.6666666666666666,2,3
org.apache.el.parser.AstGreaterThan,BRANCH,0.42857142857142855,0.42857142857142855,3,7
org.apache.el.parser.Token,BRANCH,0.875,0.875,7,8
org.apache.el.parser.AstMult,BRANCH,1.0,1.0,2,2
org.apache.el.parser.ELParserTokenManager,BRANCH,0.6089211618257261,0.6099585062240664,587,964
org.apache.el.parser.AstFloatingPoint,BRANCH,1.0,1.0,5,5
org.apache.el.parser.AstPlus,BRANCH,1.0,1.0,2,2
org.apache.el.parser.AstNotEqual,BRANCH,0.6666666666666666,0.6666666666666666,2,3
org.apache.el.parser.AstMod,BRANCH,1.0,1.0,2,2
org.apache.el.parser.AstNegative,BRANCH,0.6666666666666666,0.6666666666666666,16,24
org.apache.el.parser.ArithmeticNode,BRANCH,1.0,1.0,2,2
org.apache.el.parser.AstEqual,BRANCH,1.0,1.0,2,2
org.apache.el.parser.AstTrue,BRANCH,1.0,1.0,2,2
org.apache.el.parser.AstFunction,BRANCH,0.7,0.7,14,20
org.apache.el.parser.AstDeferredExpression,BRANCH,1.0,1.0,5,5
org.apache.el.parser.SimpleNode,BRANCH,1.0,1.0,55,55
org.apache.el.parser.AstCompositeExpression,BRANCH,1.0,1.0,8,8
org.apache.el.parser.ELParser,BRANCH,0.1917263325377884,0.19331742243436753,241,1257
org.apache.el.parser.AstAnd,BRANCH,1.0,1.0,3,3
org.apache.el.parser.JJTELParserState,BRANCH,0.7777777777777778,1.0,14,18
org.apache.el.ExpressionFactoryImpl,BRANCH,1.0,1.0,7,7
org.apache.el.util.MessageFactory,BRANCH,1.0,1.0,8,8
org.apache.el.util.ReflectionUtil,BRANCH,0.7551020408163265,0.7551020408163265,74,98
org.apache.el.util.Validation,BRANCH,0.85,0.85,17,20
org.apache.el.util.ConcurrentCache,BRANCH,1.0,1.0,7,7
org.apache.el.ValueExpressionImpl,BRANCH,0.9565217391304348,0.9565217391304348,22,23
