TARGET_CLASS,criterion,BranchCoverage,Coverage,Covered_Goals,Total_Goals
org.apache.lucene.queries.TermsFilter,BRANCH,0.6989247311827957,0.6989247311827957,65,93
org.apache.lucene.queries.mlt.MoreLikeThisQuery,BRANCH,0.9558823529411765,0.9852941176470589,65,68
org.apache.lucene.queries.mlt.MoreLikeThis,BRANCH,0.39316239316239315,0.39316239316239315,46,117
org.apache.lucene.queries.CustomScoreProvider,BRANCH,0.7777777777777778,0.7777777777777778,14,18
org.apache.lucene.queries.BoostingQuery,BRANCH,0.6842105263157895,0.6842105263157895,26,38
org.apache.lucene.queries.CustomScoreQuery,BRANCH,0.5975609756097561,0.5975609756097561,49,82
org.apache.lucene.queries.CommonTermsQuery,BRANCH,0.8521739130434782,0.8521739130434782,98,115
org.apache.lucene.queries.BooleanFilter,BRANCH,0.2962962962962963,0.2962962962962963,16,54
org.apache.lucene.queries.FilterClause,BRANCH,1.0,1.0,15,15
org.apache.lucene.queries.ChainedFilter,BRANCH,0.22448979591836735,0.22448979591836735,11,49
org.apache.lucene.queries.function.docvalues.DocTermsIndexDocValues,BRANCH,0.02631578947368421,0.02631578947368421,1,38
org.apache.lucene.queries.function.docvalues.DoubleDocValues,BRANCH,0.0625,0.0625,1,16
org.apache.lucene.queries.function.docvalues.BoolDocValues,BRANCH,0.0,0.0,0,21
org.apache.lucene.queries.function.docvalues.FloatDocValues,BRANCH,0.07142857142857142,0.07142857142857142,1,14
org.apache.lucene.queries.function.docvalues.LongDocValues,BRANCH,0.0,0.0,0,16
org.apache.lucene.queries.function.docvalues.StrDocValues,BRANCH,0.1111111111111111,0.1111111111111111,1,9
org.apache.lucene.queries.function.docvalues.IntDocValues,BRANCH,0.07142857142857142,0.07142857142857142,1,14
org.apache.lucene.queries.function.ValueSourceScorer,BRANCH,0.7727272727272727,0.7727272727272727,17,22
org.apache.lucene.queries.function.ValueSource,BRANCH,1.0,1.0,17,17
org.apache.lucene.queries.function.BoostedQuery,BRANCH,0.5454545454545454,0.5454545454545454,18,33
org.apache.lucene.queries.function.valuesource.MultiValueSource,BRANCH,1.0,1.0,1,1
org.apache.lucene.queries.function.valuesource.ReciprocalFloatFunction,BRANCH,0.8888888888888888,0.8888888888888888,16,18
org.apache.lucene.queries.function.valuesource.ShortFieldSource,BRANCH,0.4,0.44,10,25
org.apache.lucene.queries.function.valuesource.NumDocsValueSource,BRANCH,1.0,1.0,7,7
org.apache.lucene.queries.function.valuesource.SingleFunction,BRANCH,0.0,0.0,0,10
org.apache.lucene.queries.function.valuesource.OrdFieldSource,BRANCH,0.391304347826087,0.391304347826087,9,23
org.apache.lucene.queries.function.valuesource.SumTotalTermFreqValueSource,BRANCH,0.29411764705882354,0.7647058823529411,5,17
org.apache.lucene.queries.function.valuesource.TotalTermFreqValueSource,BRANCH,0.8823529411764706,0.8823529411764706,15,17
org.apache.lucene.queries.function.valuesource.DoubleFieldSource,BRANCH,0.1864406779661017,0.1864406779661017,11,59
org.apache.lucene.queries.function.valuesource.DivFloatFunction,BRANCH,1.0,1.0,3,3
org.apache.lucene.queries.function.valuesource.DefFunction,BRANCH,0.17391304347826086,0.17391304347826086,4,23
org.apache.lucene.queries.function.valuesource.MultiBoolFunction,BRANCH,0.0,0.0,0,18
org.apache.lucene.queries.function.valuesource.ConstIntDocValues,BRANCH,1.0,1.0,7,7
org.apache.lucene.queries.function.valuesource.LinearFloatFunction,BRANCH,0.8125,0.8125,13,16
org.apache.lucene.queries.function.valuesource.QueryValueSource,BRANCH,1.0,1.0,13,13
org.apache.lucene.queries.function.valuesource.MultiFloatFunction,BRANCH,0.8181818181818182,0.8181818181818182,18,22
org.apache.lucene.queries.function.valuesource.BytesRefFieldSource,BRANCH,0.058823529411764705,0.058823529411764705,1,17
org.apache.lucene.queries.function.valuesource.ScaleFloatFunction,BRANCH,0.3870967741935484,0.41935483870967744,12,31
org.apache.lucene.queries.function.valuesource.SimpleBoolFunction,BRANCH,0.0,0.0,0,10
org.apache.lucene.queries.function.valuesource.MinFloatFunction,BRANCH,1.0,1.0,6,6
org.apache.lucene.queries.function.valuesource.MaxFloatFunction,BRANCH,1.0,1.0,6,6
org.apache.lucene.queries.function.valuesource.JoinDocFreqValueSource,BRANCH,0.5833333333333334,0.5833333333333334,7,12
org.apache.lucene.queries.function.valuesource.ByteFieldSource,BRANCH,0.34615384615384615,0.4230769230769231,9,26
org.apache.lucene.queries.function.valuesource.FloatFieldSource,BRANCH,0.36,0.44,9,25
org.apache.lucene.queries.function.valuesource.ConstDoubleDocValues,BRANCH,1.0,1.0,7,7
org.apache.lucene.queries.function.valuesource.IntFieldSource,BRANCH,0.23404255319148937,0.23404255319148937,11,47
org.apache.lucene.queries.function.valuesource.IfFunction,BRANCH,0.5135135135135135,0.5135135135135135,19,37
org.apache.lucene.queries.function.valuesource.PowFloatFunction,BRANCH,1.0,1.0,3,3
org.apache.lucene.queries.function.valuesource.VectorValueSource,BRANCH,0.44680851063829785,0.44680851063829785,21,47
org.apache.lucene.queries.function.valuesource.ConstNumberSource,BRANCH,1.0,1.0,1,1
org.apache.lucene.queries.function.valuesource.SimpleFloatFunction,BRANCH,0.0,0.0,0,5
org.apache.lucene.queries.function.valuesource.DocFreqValueSource,BRANCH,1.0,1.0,12,12
org.apache.lucene.queries.function.valuesource.TFValueSource,BRANCH,0.08695652173913043,0.08695652173913043,2,23
org.apache.lucene.queries.function.valuesource.DoubleConstValueSource,BRANCH,0.6086956521739131,0.6956521739130435,14,23
org.apache.lucene.queries.function.valuesource.LongFieldSource,BRANCH,0.2708333333333333,0.3125,13,48
org.apache.lucene.queries.function.valuesource.ProductFloatFunction,BRANCH,1.0,1.0,4,4
org.apache.lucene.queries.function.valuesource.QueryDocValues,BRANCH,0.0,0.0,0,42
org.apache.lucene.queries.function.valuesource.TermFreqValueSource,BRANCH,0.13636363636363635,0.13636363636363635,3,22
org.apache.lucene.queries.function.valuesource.RangeMapFloatFunction,BRANCH,0.6,0.7666666666666667,18,30
org.apache.lucene.queries.function.valuesource.MultiFunction,BRANCH,1.0,1.0,20,20
org.apache.lucene.queries.function.valuesource.BoolFunction,BRANCH,1.0,1.0,1,1
org.apache.lucene.queries.function.valuesource.FieldCacheSource,BRANCH,0.9090909090909091,0.9090909090909091,10,11
org.apache.lucene.queries.function.valuesource.IDFValueSource,BRANCH,1.0,1.0,8,8
org.apache.lucene.queries.function.valuesource.SumFloatFunction,BRANCH,1.0,1.0,4,4
org.apache.lucene.queries.function.valuesource.ReverseOrdFieldSource,BRANCH,0.6363636363636364,0.6363636363636364,7,11
org.apache.lucene.queries.function.valuesource.DualFloatFunction,BRANCH,0.9285714285714286,1.0,13,14
org.apache.lucene.queries.function.valuesource.NormValueSource,BRANCH,0.6923076923076923,0.6923076923076923,9,13
org.apache.lucene.queries.function.valuesource.MaxDocValueSource,BRANCH,1.0,1.0,8,8
org.apache.lucene.queries.function.valuesource.ConstValueSource,BRANCH,0.6666666666666666,0.6666666666666666,16,24
org.apache.lucene.queries.function.valuesource.LiteralValueSource,BRANCH,0.7692307692307693,0.7692307692307693,10,13
org.apache.lucene.queries.function.FunctionValues,BRANCH,0.5151515151515151,0.7121212121212122,34,66
org.apache.lucene.queries.function.FunctionQuery,BRANCH,0.9444444444444444,0.9444444444444444,34,36
