TARGET_CLASS,criterion,BranchCoverage,Coverage,Covered_Goals,Total_Goals
com.gargoylesoftware.htmlunit.WebResponseImpl,BRANCH,1.0,1.0,2,2
com.gargoylesoftware.htmlunit.History,BRANCH,0.76,0.76,19,25
com.gargoylesoftware.htmlunit.TextPage,BRANCH,1.0,1.0,7,7
com.gargoylesoftware.htmlunit.AjaxController,BRANCH,1.0,1.0,3,3
com.gargoylesoftware.htmlunit.javascript.regexp.HtmlUnitRegExpProxy,BRANCH,0.5531914893617021,0.6063829787234043,52,94
com.gargoylesoftware.htmlunit.javascript.DebugFrameAdapter,BRANCH,1.0,1.0,6,6
com.gargoylesoftware.htmlunit.javascript.StrictErrorReporter,BRANCH,1.0,1.0,5,5
com.gargoylesoftware.htmlunit.javascript.JavaScriptEngine,BRANCH,0.009345794392523364,0.009345794392523364,1,107
com.gargoylesoftware.htmlunit.javascript.IEWeirdSyntaxScriptPreProcessor,BRANCH,1.0,1.0,6,6
com.gargoylesoftware.htmlunit.javascript.HtmlUnitWrapFactory,BRANCH,0.2,0.6,1,5
com.gargoylesoftware.htmlunit.javascript.background.JavaScriptJobManagerImpl,BRANCH,0.27710843373493976,0.27710843373493976,23,83
com.gargoylesoftware.htmlunit.javascript.background.JavaScriptStringJob,BRANCH,1.0,1.0,3,3
com.gargoylesoftware.htmlunit.javascript.background.JavaScriptFunctionJob,BRANCH,1.0,1.0,2,2
com.gargoylesoftware.htmlunit.javascript.background.GAEJavaScriptExecutor,BRANCH,0.4166666666666667,0.4166666666666667,5,12
com.gargoylesoftware.htmlunit.javascript.background.JavaScriptExecutor,BRANCH,0.23529411764705882,0.23529411764705882,12,51
com.gargoylesoftware.htmlunit.javascript.background.JavaScriptExecutionJob,BRANCH,0.11538461538461539,0.11538461538461539,3,26
com.gargoylesoftware.htmlunit.javascript.background.JavaScriptJob,BRANCH,0.8333333333333334,0.8333333333333334,10,12
com.gargoylesoftware.htmlunit.javascript.HtmlUnitContextFactory,BRANCH,0.014705882352941176,0.014705882352941176,1,68
com.gargoylesoftware.htmlunit.javascript.host.CharacterDataImpl,BRANCH,1.0,1.0,9,9
com.gargoylesoftware.htmlunit.javascript.host.History,BRANCH,0.28,0.44,7,25
com.gargoylesoftware.htmlunit.javascript.host.MimeType,BRANCH,1.0,1.0,6,6
com.gargoylesoftware.htmlunit.javascript.host.XSLTemplate,BRANCH,1.0,1.0,4,4
com.gargoylesoftware.htmlunit.javascript.host.ClipboardData,BRANCH,1.0,1.0,1,1
com.gargoylesoftware.htmlunit.javascript.host.SimpleArray,BRANCH,0.8666666666666667,0.8666666666666667,13,15
com.gargoylesoftware.htmlunit.javascript.host.Comment,BRANCH,1.0,1.0,1,1
com.gargoylesoftware.htmlunit.javascript.host.Document,BRANCH,0.18072289156626506,0.1927710843373494,15,83
com.gargoylesoftware.htmlunit.javascript.host.css.StyleSheetList,BRANCH,0.5,0.5,6,12
com.gargoylesoftware.htmlunit.javascript.host.css.CSSValue,BRANCH,1.0,1.0,3,3
com.gargoylesoftware.htmlunit.javascript.host.css.CSSStyleDeclaration,BRANCH,0.6512226512226512,0.6525096525096525,506,777
com.gargoylesoftware.htmlunit.javascript.host.css.ComputedCSSStyleDeclaration,BRANCH,0.2769857433808554,0.2769857433808554,136,491
com.gargoylesoftware.htmlunit.javascript.host.css.CSSRule,BRANCH,0.8666666666666667,0.8666666666666667,13,15
com.gargoylesoftware.htmlunit.javascript.host.css.SelectorSpecificity,BRANCH,0.8333333333333334,0.8333333333333334,55,66
com.gargoylesoftware.htmlunit.javascript.host.css.CSSStyleRule,BRANCH,0.3333333333333333,0.3333333333333333,4,12
com.gargoylesoftware.htmlunit.javascript.host.css.CSSRuleList,BRANCH,0.55,0.55,11,20
com.gargoylesoftware.htmlunit.javascript.host.css.CSSStyleSheet,BRANCH,0.18061674008810572,0.18061674008810572,41,227
com.gargoylesoftware.htmlunit.javascript.host.css.CSSPrimitiveValue,BRANCH,1.0,1.0,3,3
com.gargoylesoftware.htmlunit.javascript.host.css.CSSImportRule,BRANCH,0.75,0.75,6,8
com.gargoylesoftware.htmlunit.javascript.host.Attr,BRANCH,0.6470588235294118,0.6470588235294118,11,17
com.gargoylesoftware.htmlunit.javascript.host.MediaList,BRANCH,1.0,1.0,3,3
com.gargoylesoftware.htmlunit.javascript.host.MouseEvent,BRANCH,0.574468085106383,0.6382978723404256,27,47
com.gargoylesoftware.htmlunit.javascript.host.FormChild,BRANCH,0.3333333333333333,0.3333333333333333,1,3
com.gargoylesoftware.htmlunit.javascript.host.EventNode,BRANCH,1.0,1.0,41,41
com.gargoylesoftware.htmlunit.javascript.host.DOMImplementation,BRANCH,0.03225806451612903,0.03225806451612903,1,31
com.gargoylesoftware.htmlunit.javascript.host.ActiveXObject,BRANCH,0.676923076923077,0.676923076923077,44,65
com.gargoylesoftware.htmlunit.javascript.host.Text,BRANCH,1.0,1.0,3,3
com.gargoylesoftware.htmlunit.javascript.host.DocumentFragment,BRANCH,0.3333333333333333,0.3333333333333333,1,3
com.gargoylesoftware.htmlunit.javascript.host.ProcessingInstruction,BRANCH,1.0,1.0,4,4
com.gargoylesoftware.htmlunit.javascript.host.StorageImpl,BRANCH,0.6206896551724138,0.6206896551724138,18,29
com.gargoylesoftware.htmlunit.javascript.host.RowContainer,BRANCH,0.15,0.15,6,40
com.gargoylesoftware.htmlunit.javascript.host.Popup,BRANCH,1.0,1.0,6,6
com.gargoylesoftware.htmlunit.javascript.host.Element,BRANCH,0.14864864864864866,0.14864864864864866,11,74
com.gargoylesoftware.htmlunit.javascript.host.EventListenersContainer,BRANCH,0.47435897435897434,0.47435897435897434,37,78
com.gargoylesoftware.htmlunit.javascript.host.Node,BRANCH,0.25806451612903225,0.3741935483870968,40,155
com.gargoylesoftware.htmlunit.javascript.host.NamespaceCollection,BRANCH,0.6,0.6,12,20
com.gargoylesoftware.htmlunit.javascript.host.StringCustom,BRANCH,0.8333333333333334,0.8333333333333334,10,12
com.gargoylesoftware.htmlunit.javascript.host.MutationEvent,BRANCH,1.0,1.0,1,1
com.gargoylesoftware.htmlunit.javascript.host.xml.XMLSerializer,BRANCH,0.15625,0.15625,10,64
com.gargoylesoftware.htmlunit.javascript.host.xml.XMLHttpRequest,BRANCH,0.3096774193548387,0.3096774193548387,48,155
com.gargoylesoftware.htmlunit.javascript.host.xml.XMLAttr,BRANCH,1.0,1.0,4,4
com.gargoylesoftware.htmlunit.javascript.host.xml.XMLDOMParseError,BRANCH,1.0,1.0,15,15
com.gargoylesoftware.htmlunit.javascript.host.xml.XMLDocument,BRANCH,0.5319148936170213,0.5319148936170213,25,47
com.gargoylesoftware.htmlunit.javascript.host.Range,BRANCH,0.8837209302325582,0.8837209302325582,38,43
com.gargoylesoftware.htmlunit.javascript.host.DocumentType,BRANCH,0.38461538461538464,0.38461538461538464,5,13
com.gargoylesoftware.htmlunit.javascript.host.XPathResult,BRANCH,0.9347826086956522,0.9347826086956522,43,46
com.gargoylesoftware.htmlunit.javascript.host.BoxObject,BRANCH,1.0,1.0,13,13
com.gargoylesoftware.htmlunit.javascript.host.FormField,BRANCH,0.8,0.8,8,10
com.gargoylesoftware.htmlunit.javascript.host.TextRectangle,BRANCH,1.0,1.0,10,10
com.gargoylesoftware.htmlunit.javascript.host.Window,BRANCH,0.3674911660777385,0.4558303886925795,104,283
com.gargoylesoftware.htmlunit.javascript.host.TextRange,BRANCH,0.5333333333333333,0.6,32,60
com.gargoylesoftware.htmlunit.javascript.host.StaticNodeList,BRANCH,0.8571428571428571,0.8571428571428571,6,7
com.gargoylesoftware.htmlunit.javascript.host.TreeWalker,BRANCH,0.14388489208633093,0.14388489208633093,20,139
com.gargoylesoftware.htmlunit.javascript.host.EventHandler,BRANCH,0.0,0.0,0,9
com.gargoylesoftware.htmlunit.javascript.host.html.HTMLUnknownElement,BRANCH,0.1111111111111111,0.1111111111111111,1,9
com.gargoylesoftware.htmlunit.javascript.host.html.HTMLFrameElement,BRANCH,0.8461538461538461,0.8461538461538461,11,13
com.gargoylesoftware.htmlunit.javascript.host.html.HTMLHRElement,BRANCH,1.0,1.0,1,1
com.gargoylesoftware.htmlunit.javascript.host.html.HTMLMetaElement,BRANCH,1.0,1.0,13,13
com.gargoylesoftware.htmlunit.javascript.host.html.HTMLDocument,BRANCH,0.2832369942196532,0.28901734104046245,98,346
com.gargoylesoftware.htmlunit.javascript.host.html.HTMLSelectElement,BRANCH,0.2753623188405797,0.2753623188405797,19,69
com.gargoylesoftware.htmlunit.javascript.host.html.HTMLOListElement,BRANCH,1.0,1.0,1,1
com.gargoylesoftware.htmlunit.javascript.host.html.HTMLListElement,BRANCH,0.75,0.75,6,8
com.gargoylesoftware.htmlunit.javascript.host.html.HTMLFieldSetElement,BRANCH,1.0,1.0,5,5
com.gargoylesoftware.htmlunit.javascript.host.html.HTMLFormElement,BRANCH,0.20833333333333334,0.20833333333333334,20,96
com.gargoylesoftware.htmlunit.javascript.host.html.HTMLSpacerElement,BRANCH,1.0,1.0,1,1
com.gargoylesoftware.htmlunit.javascript.host.html.HTMLDListElement,BRANCH,1.0,1.0,1,1
com.gargoylesoftware.htmlunit.javascript.host.html.HTMLVideoElement,BRANCH,1.0,1.0,1,1
com.gargoylesoftware.htmlunit.javascript.host.html.HTMLScriptElement,BRANCH,0.7142857142857143,0.7142857142857143,10,14
com.gargoylesoftware.htmlunit.javascript.host.html.HTMLTableCellElement,BRANCH,0.3387096774193548,0.3387096774193548,21,62
com.gargoylesoftware.htmlunit.javascript.host.html.HTMLAnchorElement,BRANCH,0.6428571428571429,0.6428571428571429,27,42
com.gargoylesoftware.htmlunit.javascript.host.html.HTMLIFrameElement,BRANCH,0.7142857142857143,0.7142857142857143,15,21
com.gargoylesoftware.htmlunit.javascript.host.html.HTMLBaseFontElement,BRANCH,1.0,1.0,7,7
com.gargoylesoftware.htmlunit.javascript.host.html.HTMLFontElement,BRANCH,1.0,1.0,7,7
com.gargoylesoftware.htmlunit.javascript.host.html.HTMLBRElement,BRANCH,0.3333333333333333,0.3333333333333333,3,9
com.gargoylesoftware.htmlunit.javascript.host.html.HTMLInputElement,BRANCH,0.717948717948718,0.717948717948718,28,39
com.gargoylesoftware.htmlunit.javascript.host.html.HTMLTableElement,BRANCH,0.3392857142857143,0.3392857142857143,19,56
com.gargoylesoftware.htmlunit.javascript.host.html.HTMLPreElement,BRANCH,0.5,0.5,2,4
com.gargoylesoftware.htmlunit.javascript.host.html.HTMLBodyElement,BRANCH,0.2777777777777778,0.2777777777777778,10,36
com.gargoylesoftware.htmlunit.javascript.host.html.HTMLDelElement,BRANCH,0.42857142857142855,0.42857142857142855,3,7
com.gargoylesoftware.htmlunit.javascript.host.html.HTMLUListElement,BRANCH,1.0,1.0,1,1
com.gargoylesoftware.htmlunit.javascript.host.html.HTMLLegendElement,BRANCH,1.0,1.0,1,1
com.gargoylesoftware.htmlunit.javascript.host.html.HTMLHeadElement,BRANCH,1.0,1.0,1,1
com.gargoylesoftware.htmlunit.javascript.host.html.HTMLTableSectionElement,BRANCH,0.7777777777777778,0.7777777777777778,7,9
com.gargoylesoftware.htmlunit.javascript.host.html.HTMLLinkElement,BRANCH,0.7,0.7,7,10
com.gargoylesoftware.htmlunit.javascript.host.html.HTMLIsIndexElement,BRANCH,1.0,1.0,1,1
com.gargoylesoftware.htmlunit.javascript.host.html.HTMLParamElement,BRANCH,1.0,1.0,1,1
com.gargoylesoftware.htmlunit.javascript.host.html.HTMLHtmlElement,BRANCH,1.0,1.0,4,4
com.gargoylesoftware.htmlunit.javascript.host.html.HTMLEmbedElement,BRANCH,1.0,1.0,1,1
com.gargoylesoftware.htmlunit.javascript.host.html.HTMLCollection,BRANCH,0.2983425414364641,0.2983425414364641,54,181
com.gargoylesoftware.htmlunit.javascript.host.html.HTMLMapElement,BRANCH,1.0,1.0,2,2
com.gargoylesoftware.htmlunit.javascript.host.html.HTMLSourceElement,BRANCH,1.0,1.0,1,1
com.gargoylesoftware.htmlunit.javascript.host.html.HTMLDocumentProxy,BRANCH,1.0,1.0,2,2
com.gargoylesoftware.htmlunit.javascript.host.html.HTMLCanvasElement,BRANCH,0.5555555555555556,0.5555555555555556,5,9
com.gargoylesoftware.htmlunit.javascript.host.html.HTMLInsElement,BRANCH,0.42857142857142855,0.42857142857142855,3,7
com.gargoylesoftware.htmlunit.javascript.host.html.HTMLLIElement,BRANCH,1.0,1.0,1,1
com.gargoylesoftware.htmlunit.javascript.host.html.HTMLAudioElement,BRANCH,1.0,1.0,1,1
com.gargoylesoftware.htmlunit.javascript.host.html.HTMLMenuElement,BRANCH,1.0,1.0,1,1
com.gargoylesoftware.htmlunit.javascript.host.html.HTMLTableCaptionElement,BRANCH,0.7142857142857143,0.7142857142857143,5,7
com.gargoylesoftware.htmlunit.javascript.host.html.HTMLImageElement,BRANCH,0.5416666666666666,0.5416666666666666,13,24
com.gargoylesoftware.htmlunit.javascript.host.html.HTMLLabelElement,BRANCH,1.0,1.0,3,3
com.gargoylesoftware.htmlunit.javascript.host.html.HTMLStyleElement,BRANCH,0.5,0.5,3,6
com.gargoylesoftware.htmlunit.javascript.host.html.HTMLTableRowElement,BRANCH,0.15384615384615385,0.15384615384615385,6,39
com.gargoylesoftware.htmlunit.javascript.host.html.HTMLOptGroupElement,BRANCH,1.0,1.0,1,1
com.gargoylesoftware.htmlunit.javascript.host.html.HTMLHeadingElement,BRANCH,1.0,1.0,1,1
com.gargoylesoftware.htmlunit.javascript.host.html.HTMLCollectionTags,BRANCH,1.0,1.0,4,4
com.gargoylesoftware.htmlunit.javascript.host.html.HTMLTableColElement,BRANCH,0.36363636363636365,0.45454545454545453,4,11
com.gargoylesoftware.htmlunit.javascript.host.html.HTMLAppletElement,BRANCH,0.25,0.25,5,20
com.gargoylesoftware.htmlunit.javascript.host.html.HTMLDivElement,BRANCH,1.0,1.0,3,3
com.gargoylesoftware.htmlunit.javascript.host.html.HTMLWBRElement,BRANCH,1.0,1.0,1,1
com.gargoylesoftware.htmlunit.javascript.host.html.HTMLAreaElement,BRANCH,0.5,0.5,3,6
com.gargoylesoftware.htmlunit.javascript.host.html.HTMLButtonElement,BRANCH,0.25,0.5,1,4
com.gargoylesoftware.htmlunit.javascript.host.html.HTMLDirectoryElement,BRANCH,1.0,1.0,1,1
com.gargoylesoftware.htmlunit.javascript.host.html.HTMLOptionsCollection,BRANCH,0.2857142857142857,0.2857142857142857,10,35
com.gargoylesoftware.htmlunit.javascript.host.html.HTMLElement,BRANCH,0.2979591836734694,0.2979591836734694,146,490
com.gargoylesoftware.htmlunit.javascript.host.html.HTMLBaseElement,BRANCH,1.0,1.0,5,5
com.gargoylesoftware.htmlunit.javascript.host.html.HTMLSpanElement,BRANCH,0.02608695652173913,0.02608695652173913,3,115
com.gargoylesoftware.htmlunit.javascript.host.html.HTMLParagraphElement,BRANCH,1.0,1.0,3,3
com.gargoylesoftware.htmlunit.javascript.host.html.HTMLQuoteElement,BRANCH,0.42857142857142855,0.42857142857142855,3,7
com.gargoylesoftware.htmlunit.javascript.host.html.HTMLObjectElement,BRANCH,0.23809523809523808,0.23809523809523808,5,21
com.gargoylesoftware.htmlunit.javascript.host.html.HTMLTextAreaElement,BRANCH,0.5172413793103449,0.5172413793103449,15,29
com.gargoylesoftware.htmlunit.javascript.host.html.HTMLTableComponent,BRANCH,0.8181818181818182,0.8181818181818182,9,11
com.gargoylesoftware.htmlunit.javascript.host.html.HTMLTitleElement,BRANCH,0.2,0.2,1,5
com.gargoylesoftware.htmlunit.javascript.host.html.HTMLFrameSetElement,BRANCH,0.5,0.6,5,10
com.gargoylesoftware.htmlunit.javascript.host.html.HTMLOptionElement,BRANCH,0.4166666666666667,0.4166666666666667,10,24
com.gargoylesoftware.htmlunit.javascript.host.XPathNSResolver,BRANCH,1.0,1.0,3,3
com.gargoylesoftware.htmlunit.javascript.host.canvas.CanvasRenderingContext2D,BRANCH,1.0,1.0,26,26
com.gargoylesoftware.htmlunit.javascript.host.External,BRANCH,1.0,1.0,2,2
com.gargoylesoftware.htmlunit.javascript.host.PluginArray,BRANCH,1.0,1.0,3,3
com.gargoylesoftware.htmlunit.javascript.host.DOMParser,BRANCH,1.0,1.0,3,3
com.gargoylesoftware.htmlunit.javascript.host.OfflineResourceList,BRANCH,1.0,1.0,23,23
com.gargoylesoftware.htmlunit.javascript.host.Storage,BRANCH,0.7142857142857143,0.7142857142857143,20,28
com.gargoylesoftware.htmlunit.javascript.host.Navigator,BRANCH,0.46153846153846156,0.8076923076923077,12,26
com.gargoylesoftware.htmlunit.javascript.host.NodeFilter,BRANCH,1.0,1.0,2,2
com.gargoylesoftware.htmlunit.javascript.host.UIEvent,BRANCH,1.0,1.0,8,8
com.gargoylesoftware.htmlunit.javascript.host.DOMException,BRANCH,1.0,1.0,11,11
com.gargoylesoftware.htmlunit.javascript.host.StorageList,BRANCH,0.2,0.2,1,5
com.gargoylesoftware.htmlunit.javascript.host.PopupPseudoWebWindow,BRANCH,0.07692307692307693,0.07692307692307693,1,13
com.gargoylesoftware.htmlunit.javascript.host.Screen,BRANCH,1.0,1.0,22,22
com.gargoylesoftware.htmlunit.javascript.host.WindowProxy,BRANCH,1.0,1.0,2,2
com.gargoylesoftware.htmlunit.javascript.host.Location,BRANCH,0.391304347826087,0.391304347826087,27,69
com.gargoylesoftware.htmlunit.javascript.host.Selection,BRANCH,0.16666666666666666,0.16666666666666666,10,60
com.gargoylesoftware.htmlunit.javascript.host.Namespace,BRANCH,1.0,1.0,5,5
com.gargoylesoftware.htmlunit.javascript.host.KeyboardEvent,BRANCH,0.13793103448275862,0.13793103448275862,4,29
com.gargoylesoftware.htmlunit.javascript.host.Plugin,BRANCH,1.0,1.0,6,6
com.gargoylesoftware.htmlunit.javascript.host.Enumerator,BRANCH,0.5454545454545454,0.5454545454545454,6,11
com.gargoylesoftware.htmlunit.javascript.host.MimeTypeArray,BRANCH,1.0,1.0,2,2
com.gargoylesoftware.htmlunit.javascript.host.Event,BRANCH,0.7538461538461538,0.7692307692307693,49,65
com.gargoylesoftware.htmlunit.javascript.host.CDATASection,BRANCH,1.0,1.0,1,1
com.gargoylesoftware.htmlunit.javascript.host.XSLTProcessor,BRANCH,0.3684210526315789,0.47368421052631576,14,38
com.gargoylesoftware.htmlunit.javascript.ScriptableWrapper,BRANCH,0.0,0.06896551724137931,0,29
com.gargoylesoftware.htmlunit.javascript.IEConditionalCompilationScriptPreProcessor,BRANCH,0.5241935483870968,0.7419354838709677,65,124
com.gargoylesoftware.htmlunit.javascript.ProxyAutoConfig,BRANCH,0.6722689075630253,0.6722689075630253,80,119
com.gargoylesoftware.htmlunit.javascript.DebuggerImpl,BRANCH,1.0,1.0,2,2
com.gargoylesoftware.htmlunit.javascript.SimpleScriptableProxy,BRANCH,0.8823529411764706,0.8823529411764706,15,17
com.gargoylesoftware.htmlunit.javascript.PostponedAction,BRANCH,0.0,0.0,0,2
com.gargoylesoftware.htmlunit.javascript.DebuggerAdapter,BRANCH,1.0,1.0,3,3
com.gargoylesoftware.htmlunit.javascript.StrictErrorHandler,BRANCH,1.0,1.0,4,4
com.gargoylesoftware.htmlunit.javascript.DebugFrameImpl,BRANCH,0.0625,0.0625,4,64
com.gargoylesoftware.htmlunit.javascript.configuration.JavaScriptConfiguration,BRANCH,0.10144927536231885,0.10144927536231885,14,138
com.gargoylesoftware.htmlunit.javascript.configuration.ClassConfiguration,BRANCH,0.6585365853658537,0.6585365853658537,81,123
com.gargoylesoftware.htmlunit.javascript.NamedNodeMap,BRANCH,0.06521739130434782,0.06521739130434782,3,46
com.gargoylesoftware.htmlunit.javascript.TimeoutError,BRANCH,1.0,1.0,1,1
com.gargoylesoftware.htmlunit.javascript.MethodWrapper,BRANCH,0.5,0.6428571428571429,7,14
com.gargoylesoftware.htmlunit.javascript.SimpleScriptable,BRANCH,0.6883116883116883,0.6883116883116883,53,77
com.gargoylesoftware.htmlunit.TextUtil,BRANCH,1.0,1.0,9,9
com.gargoylesoftware.htmlunit.ImmediateRefreshHandler,BRANCH,0.2857142857142857,0.2857142857142857,2,7
com.gargoylesoftware.htmlunit.HttpWebConnectionInsecureSSL,BRANCH,1.0,1.0,2,2
com.gargoylesoftware.htmlunit.ScriptException,BRANCH,0.8837209302325582,0.8837209302325582,38,43
com.gargoylesoftware.htmlunit.DefaultCredentialsProvider,BRANCH,0.575,0.65,23,40
com.gargoylesoftware.htmlunit.CookieManager,BRANCH,0.96875,0.96875,31,32
com.gargoylesoftware.htmlunit.DefaultPageCreator,BRANCH,0.8309859154929577,0.8309859154929577,59,71
com.gargoylesoftware.htmlunit.WaitingRefreshHandler,BRANCH,0.6,0.6,6,10
com.gargoylesoftware.htmlunit.protocol.javascript.Handler,BRANCH,1.0,1.0,2,2
com.gargoylesoftware.htmlunit.protocol.javascript.JavaScriptURLConnection,BRANCH,1.0,1.0,3,3
com.gargoylesoftware.htmlunit.protocol.about.Handler,BRANCH,1.0,1.0,2,2
com.gargoylesoftware.htmlunit.protocol.about.AboutURLConnection,BRANCH,1.0,1.0,2,2
com.gargoylesoftware.htmlunit.protocol.data.DataURLConnection,BRANCH,1.0,1.0,3,3
com.gargoylesoftware.htmlunit.protocol.data.Handler,BRANCH,1.0,1.0,2,2
com.gargoylesoftware.htmlunit.protocol.data.DataUrlDecoder,BRANCH,1.0,1.0,15,15
com.gargoylesoftware.htmlunit.SocksSocketFactory,BRANCH,0.95,0.95,19,20
com.gargoylesoftware.htmlunit.FailingHttpStatusCodeException,BRANCH,1.0,1.0,6,6
com.gargoylesoftware.htmlunit.JavaScriptPage,BRANCH,1.0,1.0,7,7
com.gargoylesoftware.htmlunit.WebWindowNotFoundException,BRANCH,1.0,1.0,2,2
com.gargoylesoftware.htmlunit.attachment.CollectingAttachmentHandler,BRANCH,1.0,1.0,4,4
com.gargoylesoftware.htmlunit.attachment.Attachment,BRANCH,0.25,0.25,3,12
com.gargoylesoftware.htmlunit.gae.GAEUtils,BRANCH,0.5,0.5,1,2
com.gargoylesoftware.htmlunit.ssl.InsecureTrustManager,BRANCH,1.0,1.0,4,4
com.gargoylesoftware.htmlunit.ssl.InsecureSSLProtocolSocketFactory,BRANCH,0.2,0.2,1,5
com.gargoylesoftware.htmlunit.HttpWebConnection,BRANCH,0.21428571428571427,0.21428571428571427,27,126
com.gargoylesoftware.htmlunit.BrowserVersionFeatures,BRANCH,1.0,1.0,0,0
com.gargoylesoftware.htmlunit.WebWindowAdapter,BRANCH,1.0,1.0,4,4
com.gargoylesoftware.htmlunit.TopLevelWindow,BRANCH,0.05555555555555555,0.05555555555555555,1,18
com.gargoylesoftware.htmlunit.xml.XmlUtil,BRANCH,0.4098360655737705,0.4098360655737705,25,61
com.gargoylesoftware.htmlunit.xml.XmlPage,BRANCH,0.020833333333333332,0.020833333333333332,1,48
com.gargoylesoftware.htmlunit.PluginConfiguration,BRANCH,0.9333333333333333,0.9333333333333333,14,15
com.gargoylesoftware.htmlunit.WebRequest,BRANCH,0.8955223880597015,0.8955223880597015,60,67
com.gargoylesoftware.htmlunit.ScriptResult,BRANCH,0.875,0.9375,28,32
com.gargoylesoftware.htmlunit.ElementNotFoundException,BRANCH,1.0,1.0,4,4
com.gargoylesoftware.htmlunit.SilentCssErrorHandler,BRANCH,1.0,1.0,4,4
com.gargoylesoftware.htmlunit.WebResponse,BRANCH,0.8888888888888888,0.8888888888888888,24,27
com.gargoylesoftware.htmlunit.util.KeyDataPair,BRANCH,1.0,1.0,7,7
com.gargoylesoftware.htmlunit.util.Cookie,BRANCH,1.0,1.0,32,32
com.gargoylesoftware.htmlunit.util.EncodingSniffer,BRANCH,0.6280487804878049,0.6280487804878049,206,328
com.gargoylesoftware.htmlunit.util.FalsifyingWebConnection,BRANCH,0.0,0.0,0,6
com.gargoylesoftware.htmlunit.util.WebConnectionWrapper,BRANCH,0.8,0.8,4,5
com.gargoylesoftware.htmlunit.util.URLCreator,BRANCH,0.88,0.92,22,25
com.gargoylesoftware.htmlunit.util.StringUtils,BRANCH,1.0,1.0,18,18
com.gargoylesoftware.htmlunit.util.UrlUtils,BRANCH,0.9583333333333334,0.9583333333333334,138,144
com.gargoylesoftware.htmlunit.util.WebResponseWrapper,BRANCH,0.058823529411764705,0.058823529411764705,1,17
com.gargoylesoftware.htmlunit.util.MapWrapper,BRANCH,1.0,1.0,19,19
com.gargoylesoftware.htmlunit.util.DebuggingWebConnection,BRANCH,0.3541666666666667,0.3541666666666667,17,48
com.gargoylesoftware.htmlunit.util.NameValuePair,BRANCH,1.0,1.0,15,15
com.gargoylesoftware.htmlunit.util.WebClientUtils,BRANCH,0.1,0.1,1,10
com.gargoylesoftware.htmlunit.WebWindowEvent,BRANCH,0.0,0.0,0,39
com.gargoylesoftware.htmlunit.DefaultCssErrorHandler,BRANCH,1.0,1.0,5,5
com.gargoylesoftware.htmlunit.DialogWindow,BRANCH,0.125,0.125,1,8
com.gargoylesoftware.htmlunit.IncorrectnessListenerImpl,BRANCH,1.0,1.0,2,2
com.gargoylesoftware.htmlunit.html.HtmlTableHeaderCell,BRANCH,1.0,1.0,15,15
com.gargoylesoftware.htmlunit.html.HtmlAttributeChangeEvent,BRANCH,1.0,1.0,4,4
com.gargoylesoftware.htmlunit.html.DomNamespaceNode,BRANCH,0.6153846153846154,0.6153846153846154,8,13
com.gargoylesoftware.htmlunit.html.HtmlCheckBoxInput,BRANCH,0.6363636363636364,0.6363636363636364,14,22
com.gargoylesoftware.htmlunit.html.NodeIterator,BRANCH,0.0,0.0,0,6
com.gargoylesoftware.htmlunit.html.HtmlImage,BRANCH,0.4117647058823529,0.45588235294117646,28,68
com.gargoylesoftware.htmlunit.html.HtmlRadioButtonInput,BRANCH,0.5625,0.5625,18,32
com.gargoylesoftware.htmlunit.html.HtmlNoEmbed,BRANCH,1.0,1.0,1,1
com.gargoylesoftware.htmlunit.html.DomText,BRANCH,0.782608695652174,0.782608695652174,18,23
com.gargoylesoftware.htmlunit.html.DoTypeProcessor,BRANCH,0.0,0.0,0,17
com.gargoylesoftware.htmlunit.html.HtmlSample,BRANCH,1.0,1.0,1,1
com.gargoylesoftware.htmlunit.html.HtmlDefinition,BRANCH,1.0,1.0,1,1
com.gargoylesoftware.htmlunit.html.HtmlHeading2,BRANCH,1.0,1.0,3,3
com.gargoylesoftware.htmlunit.html.HtmlBlockQuote,BRANCH,1.0,1.0,2,2
com.gargoylesoftware.htmlunit.html.HtmlHorizontalRule,BRANCH,1.0,1.0,5,5
com.gargoylesoftware.htmlunit.html.HtmlFileInput,BRANCH,0.0,0.0,0,23
com.gargoylesoftware.htmlunit.html.HtmlParagraph,BRANCH,1.0,1.0,3,3
com.gargoylesoftware.htmlunit.html.InputElementFactory,BRANCH,0.2413793103448276,0.2413793103448276,7,29
com.gargoylesoftware.htmlunit.html.HTMLErrorHandler,BRANCH,1.0,1.0,3,3
com.gargoylesoftware.htmlunit.html.HtmlKeyboard,BRANCH,1.0,1.0,1,1
com.gargoylesoftware.htmlunit.html.HtmlListItem,BRANCH,1.0,1.0,3,3
com.gargoylesoftware.htmlunit.html.HtmlUnorderedList,BRANCH,1.0,1.0,5,5
com.gargoylesoftware.htmlunit.html.HtmlVariable,BRANCH,1.0,1.0,1,1
com.gargoylesoftware.htmlunit.html.HtmlCitation,BRANCH,1.0,1.0,1,1
com.gargoylesoftware.htmlunit.html.HtmlVideo,BRANCH,1.0,1.0,1,1
com.gargoylesoftware.htmlunit.html.HtmlItalic,BRANCH,1.0,1.0,1,1
com.gargoylesoftware.htmlunit.html.HtmlPage,BRANCH,0.003527336860670194,0.003527336860670194,2,567
com.gargoylesoftware.htmlunit.html.HtmlImageInput,BRANCH,0.5,0.5,8,16
com.gargoylesoftware.htmlunit.html.HtmlAudio,BRANCH,1.0,1.0,1,1
com.gargoylesoftware.htmlunit.html.StaticDomNodeList,BRANCH,1.0,1.0,5,5
com.gargoylesoftware.htmlunit.html.HtmlInlineQuotation,BRANCH,1.0,1.0,2,2
com.gargoylesoftware.htmlunit.html.HtmlPlainText,BRANCH,1.0,1.0,1,1
com.gargoylesoftware.htmlunit.html.XHtmlPage,BRANCH,0.5,0.5,1,2
com.gargoylesoftware.htmlunit.html.HtmlHtml,BRANCH,1.0,1.0,1,1
com.gargoylesoftware.htmlunit.html.DomComment,BRANCH,1.0,1.0,5,5
com.gargoylesoftware.htmlunit.html.HtmlTableColumn,BRANCH,1.0,1.0,7,7
com.gargoylesoftware.htmlunit.html.DomCDataSection,BRANCH,1.0,1.0,5,5
com.gargoylesoftware.htmlunit.html.HtmlOrderedList,BRANCH,1.0,1.0,6,6
com.gargoylesoftware.htmlunit.html.HtmlIsIndex,BRANCH,1.0,1.0,10,10
com.gargoylesoftware.htmlunit.html.SiblingDomNodeList,BRANCH,0.9230769230769231,0.9230769230769231,24,26
com.gargoylesoftware.htmlunit.html.DomNode,BRANCH,0.5338983050847458,0.536723163841808,189,354
com.gargoylesoftware.htmlunit.html.HtmlInlineFrame,BRANCH,1.0,1.0,2,2
com.gargoylesoftware.htmlunit.html.HtmlMenu,BRANCH,1.0,1.0,2,2
com.gargoylesoftware.htmlunit.html.HtmlDefinitionTerm,BRANCH,1.0,1.0,1,1
com.gargoylesoftware.htmlunit.html.HtmlForm,BRANCH,0.30939226519337015,0.32044198895027626,56,181
com.gargoylesoftware.htmlunit.html.HtmlSpan,BRANCH,1.0,1.0,3,3
com.gargoylesoftware.htmlunit.html.HtmlSerializer,BRANCH,0.7154471544715447,0.7154471544715447,88,123
com.gargoylesoftware.htmlunit.html.TableRowGroup,BRANCH,0.0,0.0,0,12
com.gargoylesoftware.htmlunit.html.HtmlBaseFont,BRANCH,1.0,1.0,5,5
com.gargoylesoftware.htmlunit.html.HtmlPreformattedText,BRANCH,1.0,1.0,2,2
com.gargoylesoftware.htmlunit.html.HtmlSpacer,BRANCH,1.0,1.0,1,1
com.gargoylesoftware.htmlunit.html.HtmlTableCell,BRANCH,0.8,0.8,8,10
com.gargoylesoftware.htmlunit.html.HtmlHeading1,BRANCH,1.0,1.0,3,3
com.gargoylesoftware.htmlunit.html.HTMLParser,BRANCH,0.09865470852017937,0.09865470852017937,22,223
com.gargoylesoftware.htmlunit.html.HtmlCaption,BRANCH,1.0,1.0,2,2
com.gargoylesoftware.htmlunit.html.HtmlNoBreak,BRANCH,1.0,1.0,1,1
com.gargoylesoftware.htmlunit.html.HtmlHeading4,BRANCH,1.0,1.0,3,3
com.gargoylesoftware.htmlunit.html.HtmlCenter,BRANCH,1.0,1.0,1,1
com.gargoylesoftware.htmlunit.html.HtmlTableBody,BRANCH,1.0,1.0,1,1
com.gargoylesoftware.htmlunit.html.HtmlDirectory,BRANCH,1.0,1.0,1,1
com.gargoylesoftware.htmlunit.html.HtmlDefinitionDescription,BRANCH,1.0,1.0,1,1
com.gargoylesoftware.htmlunit.html.HtmlUnderlined,BRANCH,1.0,1.0,1,1
com.gargoylesoftware.htmlunit.html.HtmlStrike,BRANCH,1.0,1.0,1,1
com.gargoylesoftware.htmlunit.html.HtmlArea,BRANCH,0.32558139534883723,0.32558139534883723,14,43
com.gargoylesoftware.htmlunit.html.FrameWindow,BRANCH,0.08333333333333333,0.08333333333333333,1,12
com.gargoylesoftware.htmlunit.html.HtmlUnknownElement,BRANCH,1.0,1.0,3,3
com.gargoylesoftware.htmlunit.html.HtmlCode,BRANCH,1.0,1.0,1,1
com.gargoylesoftware.htmlunit.html.HtmlDivision,BRANCH,1.0,1.0,4,4
com.gargoylesoftware.htmlunit.html.HtmlStrong,BRANCH,1.0,1.0,1,1
com.gargoylesoftware.htmlunit.html.DomChangeEvent,BRANCH,1.0,1.0,3,3
com.gargoylesoftware.htmlunit.html.HtmlLink,BRANCH,0.9333333333333333,0.9333333333333333,14,15
com.gargoylesoftware.htmlunit.html.HtmlBreak,BRANCH,1.0,1.0,2,2
com.gargoylesoftware.htmlunit.html.HtmlHeading5,BRANCH,1.0,1.0,3,3
com.gargoylesoftware.htmlunit.html.HtmlMeta,BRANCH,0.46153846153846156,0.46153846153846156,6,13
com.gargoylesoftware.htmlunit.html.HtmlTextInput,BRANCH,0.8571428571428571,0.8571428571428571,18,21
com.gargoylesoftware.htmlunit.html.HtmlS,BRANCH,1.0,1.0,1,1
com.gargoylesoftware.htmlunit.html.SimpleHTMLParserListener,BRANCH,1.0,1.0,4,4
com.gargoylesoftware.htmlunit.html.HtmlMarquee,BRANCH,1.0,1.0,1,1
com.gargoylesoftware.htmlunit.html.HtmlSource,BRANCH,1.0,1.0,1,1
com.gargoylesoftware.htmlunit.html.xpath.XPathUtils,BRANCH,0.23529411764705882,0.29411764705882354,4,17
com.gargoylesoftware.htmlunit.html.xpath.IsDescendantOfContextualFormFunction,BRANCH,0.5333333333333333,0.5333333333333333,8,15
com.gargoylesoftware.htmlunit.html.xpath.LowerCaseFunction,BRANCH,1.0,1.0,2,2
com.gargoylesoftware.htmlunit.html.xpath.HtmlUnitPrefixResolver,BRANCH,0.7142857142857143,0.7142857142857143,15,21
com.gargoylesoftware.htmlunit.html.xpath.XPathAdapter,BRANCH,0.8285714285714286,0.8857142857142857,29,35
com.gargoylesoftware.htmlunit.html.HtmlTableHeader,BRANCH,1.0,1.0,1,1
com.gargoylesoftware.htmlunit.html.HtmlEmbed,BRANCH,1.0,1.0,1,1
com.gargoylesoftware.htmlunit.html.DomDocumentType,BRANCH,1.0,1.0,9,9
com.gargoylesoftware.htmlunit.html.HtmlLabel,BRANCH,0.7058823529411765,0.7058823529411765,12,17
com.gargoylesoftware.htmlunit.html.HtmlListing,BRANCH,1.0,1.0,1,1
com.gargoylesoftware.htmlunit.html.HtmlCanvas,BRANCH,1.0,1.0,1,1
com.gargoylesoftware.htmlunit.html.NamedAttrNodeMapImpl,BRANCH,1.0,1.0,31,31
com.gargoylesoftware.htmlunit.html.HtmlAcronym,BRANCH,1.0,1.0,1,1
com.gargoylesoftware.htmlunit.html.HtmlNoScript,BRANCH,1.0,1.0,1,1
com.gargoylesoftware.htmlunit.html.HtmlParameter,BRANCH,1.0,1.0,6,6
com.gargoylesoftware.htmlunit.html.HtmlSuperscript,BRANCH,1.0,1.0,1,1
com.gargoylesoftware.htmlunit.html.HtmlButtonInput,BRANCH,1.0,1.0,2,2
com.gargoylesoftware.htmlunit.html.HtmlTableDataCell,BRANCH,1.0,1.0,15,15
com.gargoylesoftware.htmlunit.html.HtmlTableFooter,BRANCH,1.0,1.0,1,1
com.gargoylesoftware.htmlunit.html.HtmlBig,BRANCH,1.0,1.0,1,1
com.gargoylesoftware.htmlunit.html.HtmlObject,BRANCH,1.0,1.0,21,21
com.gargoylesoftware.htmlunit.html.impl.SelectionDelegate,BRANCH,0.07692307692307693,0.07692307692307693,1,13
com.gargoylesoftware.htmlunit.html.impl.SimpleRange,BRANCH,0.4742857142857143,0.4742857142857143,83,175
com.gargoylesoftware.htmlunit.html.HtmlSubmitInput,BRANCH,0.0,0.0,0,19
com.gargoylesoftware.htmlunit.html.HtmlFont,BRANCH,1.0,1.0,5,5
com.gargoylesoftware.htmlunit.html.HtmlBlink,BRANCH,1.0,1.0,1,1
com.gargoylesoftware.htmlunit.html.HtmlPasswordInput,BRANCH,0.8571428571428571,0.8571428571428571,18,21
com.gargoylesoftware.htmlunit.html.HtmlSmall,BRANCH,1.0,1.0,1,1
com.gargoylesoftware.htmlunit.html.HtmlTable,BRANCH,0.3783783783783784,0.40540540540540543,28,74
com.gargoylesoftware.htmlunit.html.HtmlMultiColumn,BRANCH,1.0,1.0,1,1
com.gargoylesoftware.htmlunit.html.HtmlResetInput,BRANCH,1.0,1.0,4,4
com.gargoylesoftware.htmlunit.html.DomDocumentFragment,BRANCH,1.0,1.0,4,4
com.gargoylesoftware.htmlunit.html.HtmlBackgroundSound,BRANCH,1.0,1.0,1,1
com.gargoylesoftware.htmlunit.html.BaseFrame,BRANCH,0.5121951219512195,0.5121951219512195,21,41
com.gargoylesoftware.htmlunit.html.HtmlTableColumnGroup,BRANCH,1.0,1.0,7,7
com.gargoylesoftware.htmlunit.html.HtmlBase,BRANCH,1.0,1.0,3,3
com.gargoylesoftware.htmlunit.html.DomAttr,BRANCH,0.8947368421052632,0.8947368421052632,17,19
com.gargoylesoftware.htmlunit.html.HtmlHiddenInput,BRANCH,1.0,1.0,2,2
com.gargoylesoftware.htmlunit.html.Util,BRANCH,0.59375,0.59375,19,32
com.gargoylesoftware.htmlunit.html.HtmlHeading6,BRANCH,1.0,1.0,3,3
com.gargoylesoftware.htmlunit.html.HtmlWordBreak,BRANCH,1.0,1.0,1,1
com.gargoylesoftware.htmlunit.html.HtmlApplet,BRANCH,0.9333333333333333,0.9333333333333333,14,15
com.gargoylesoftware.htmlunit.html.HtmlStyle,BRANCH,1.0,1.0,6,6
com.gargoylesoftware.htmlunit.html.HtmlBold,BRANCH,1.0,1.0,1,1
com.gargoylesoftware.htmlunit.html.DomProcessingInstruction,BRANCH,1.0,1.0,10,10
com.gargoylesoftware.htmlunit.html.HtmlFrame,BRANCH,1.0,1.0,1,1
com.gargoylesoftware.htmlunit.html.HtmlTextArea,BRANCH,0.8840579710144928,0.9130434782608695,61,69
com.gargoylesoftware.htmlunit.html.HtmlMap,BRANCH,1.0,1.0,2,2
com.gargoylesoftware.htmlunit.html.HtmlScript,BRANCH,0.2671232876712329,0.2671232876712329,39,146
com.gargoylesoftware.htmlunit.html.DefaultElementFactory,BRANCH,0.061068702290076333,0.061068702290076333,16,262
com.gargoylesoftware.htmlunit.html.DomCharacterData,BRANCH,0.6571428571428571,0.6571428571428571,23,35
com.gargoylesoftware.htmlunit.html.HtmlOptionGroup,BRANCH,0.6666666666666666,0.6666666666666666,4,6
com.gargoylesoftware.htmlunit.html.HtmlFrameSet,BRANCH,0.2,0.2,1,5
com.gargoylesoftware.htmlunit.html.HtmlExample,BRANCH,1.0,1.0,1,1
com.gargoylesoftware.htmlunit.html.HtmlEmphasis,BRANCH,1.0,1.0,1,1
com.gargoylesoftware.htmlunit.html.HtmlInsertedText,BRANCH,1.0,1.0,3,3
com.gargoylesoftware.htmlunit.html.HtmlBody,BRANCH,0.6363636363636364,0.9090909090909091,7,11
com.gargoylesoftware.htmlunit.html.XmlSerializer,BRANCH,0.6716417910447762,0.6716417910447762,45,67
com.gargoylesoftware.htmlunit.html.HtmlBidirectionalOverride,BRANCH,1.0,1.0,1,1
com.gargoylesoftware.htmlunit.html.HtmlInput,BRANCH,0.6981132075471698,0.8301886792452831,37,53
com.gargoylesoftware.htmlunit.html.HtmlTeletype,BRANCH,1.0,1.0,1,1
com.gargoylesoftware.htmlunit.html.HtmlButton,BRANCH,0.8108108108108109,0.8108108108108109,30,37
com.gargoylesoftware.htmlunit.html.HtmlTitle,BRANCH,1.0,1.0,6,6
com.gargoylesoftware.htmlunit.html.HtmlSelect,BRANCH,0.5573770491803278,0.5819672131147541,68,122
com.gargoylesoftware.htmlunit.html.XPathDomNodeList,BRANCH,0.7894736842105263,0.7894736842105263,15,19
com.gargoylesoftware.htmlunit.html.HtmlAbbreviated,BRANCH,1.0,1.0,1,1
com.gargoylesoftware.htmlunit.html.HtmlFieldSet,BRANCH,1.0,1.0,1,1
com.gargoylesoftware.htmlunit.html.HtmlAnchor,BRANCH,0.5813953488372093,0.5813953488372093,25,43
com.gargoylesoftware.htmlunit.html.HtmlHeading3,BRANCH,1.0,1.0,3,3
com.gargoylesoftware.htmlunit.html.HtmlDeletedText,BRANCH,1.0,1.0,3,3
com.gargoylesoftware.htmlunit.html.HtmlOption,BRANCH,0.6122448979591837,0.6122448979591837,30,49
com.gargoylesoftware.htmlunit.html.UnknownElementFactory,BRANCH,0.2222222222222222,0.2222222222222222,2,9
com.gargoylesoftware.htmlunit.html.HtmlSubscript,BRANCH,1.0,1.0,1,1
com.gargoylesoftware.htmlunit.html.applets.AppletClassLoader,BRANCH,0.38095238095238093,0.38095238095238093,8,21
com.gargoylesoftware.htmlunit.html.applets.AppletContextImpl,BRANCH,1.0,1.0,11,11
com.gargoylesoftware.htmlunit.html.applets.AppletStubImpl,BRANCH,0.14285714285714285,0.14285714285714285,1,7
com.gargoylesoftware.htmlunit.html.DomElement,BRANCH,0.9594594594594594,0.972972972972973,71,74
com.gargoylesoftware.htmlunit.html.HTMLScannerForIE,BRANCH,0.3,0.3,3,10
com.gargoylesoftware.htmlunit.html.HtmlElement,BRANCH,0.4338235294117647,0.4338235294117647,118,272
com.gargoylesoftware.htmlunit.html.HtmlLegend,BRANCH,1.0,1.0,3,3
com.gargoylesoftware.htmlunit.html.HtmlAddress,BRANCH,1.0,1.0,1,1
com.gargoylesoftware.htmlunit.html.HtmlNoFrames,BRANCH,1.0,1.0,1,1
com.gargoylesoftware.htmlunit.html.HtmlHead,BRANCH,1.0,1.0,3,3
com.gargoylesoftware.htmlunit.html.IEConditionalCommentExpressionEvaluator,BRANCH,0.8085106382978723,0.8085106382978723,38,47
com.gargoylesoftware.htmlunit.html.HtmlDefinitionList,BRANCH,1.0,1.0,2,2
com.gargoylesoftware.htmlunit.html.HtmlTableRow,BRANCH,0.9117647058823529,0.9117647058823529,31,34
com.gargoylesoftware.htmlunit.CollectingAlertHandler,BRANCH,1.0,1.0,4,4
com.gargoylesoftware.htmlunit.UrlFetchWebConnection,BRANCH,0.02857142857142857,0.02857142857142857,1,35
com.gargoylesoftware.htmlunit.WebResponseData,BRANCH,0.9565217391304348,0.9565217391304348,22,23
com.gargoylesoftware.htmlunit.WebResponseFromCache,BRANCH,0.3333333333333333,0.3333333333333333,1,3
com.gargoylesoftware.htmlunit.SgmlPage,BRANCH,0.043478260869565216,0.043478260869565216,1,23
com.gargoylesoftware.htmlunit.ThreadedRefreshHandler,BRANCH,0.75,0.75,3,4
com.gargoylesoftware.htmlunit.NicelyResynchronizingAjaxController,BRANCH,0.6363636363636364,0.6363636363636364,7,11
com.gargoylesoftware.htmlunit.WebRequestSettings,BRANCH,1.0,1.0,3,3
com.gargoylesoftware.htmlunit.ProxyConfig,BRANCH,1.0,1.0,19,19
com.gargoylesoftware.htmlunit.WebWindowImpl,BRANCH,0.034482758620689655,0.034482758620689655,1,29
com.gargoylesoftware.htmlunit.WebClient,BRANCH,0.01182033096926714,0.01182033096926714,5,423
com.gargoylesoftware.htmlunit.MockWebConnection,BRANCH,0.7567567567567568,0.7567567567567568,28,37
com.gargoylesoftware.htmlunit.Version,BRANCH,1.0,1.0,8,8
com.gargoylesoftware.htmlunit.HttpMethod,BRANCH,1.0,1.0,0,0
com.gargoylesoftware.htmlunit.FormEncodingType,BRANCH,1.0,1.0,4,4
com.gargoylesoftware.htmlunit.Cache,BRANCH,0.5869565217391305,0.5869565217391305,27,46
com.gargoylesoftware.htmlunit.ObjectInstantiationException,BRANCH,1.0,1.0,6,6
com.gargoylesoftware.htmlunit.StringWebResponse,BRANCH,1.0,1.0,4,4
com.gargoylesoftware.htmlunit.UnexpectedPage,BRANCH,1.0,1.0,7,7
com.gargoylesoftware.htmlunit.WebAssert,BRANCH,0.09090909090909091,0.09090909090909091,8,88
com.gargoylesoftware.htmlunit.BinaryPage,BRANCH,1.0,1.0,7,7
